Core/tbBRAMsimple.vcd
$date
    Wed Nov 30 16:34:22 2016
$end
$version
    MyHDL 1.0dev
$end
$timescale
    1ns
$end

$scope module tbBRAMsimple $end
$var reg 1 ! done $end
$var reg 32 " do $end
$var reg 4 # enstore $end
$var reg 1 $ clk $end
$var reg 1 % we $end
$var reg 1 & re $end
$var reg 5 ' addr $end
$var reg 32 ( di $end
$scope module BRAM_1 $end
$var reg 1 ! done $end
$var reg 32 " do $end
$var reg 4 # enstore $end
$var reg 1 $ clk $end
$var reg 1 % we $end
$var reg 1 & re $end
$var reg 5 ' addr $end
$var reg 32 ( di $end
$scope module ramregsblock4 $end
$var reg 8 ) ramregsblock4(0) $end
$var reg 8 * ramregsblock4(1) $end
$var reg 8 + ramregsblock4(2) $end
$var reg 8 , ramregsblock4(3) $end
$var reg 8 - ramregsblock4(4) $end
$var reg 8 . ramregsblock4(5) $end
$var reg 8 / ramregsblock4(6) $end
$var reg 8 0 ramregsblock4(7) $end
$var reg 8 1 ramregsblock4(8) $end
$var reg 8 2 ramregsblock4(9) $end
$var reg 8 3 ramregsblock4(10) $end
$var reg 8 4 ramregsblock4(11) $end
$var reg 8 5 ramregsblock4(12) $end
$var reg 8 6 ramregsblock4(13) $end
$var reg 8 7 ramregsblock4(14) $end
$var reg 8 8 ramregsblock4(15) $end
$var reg 8 9 ramregsblock4(16) $end
$var reg 8 : ramregsblock4(17) $end
$var reg 8 ; ramregsblock4(18) $end
$var reg 8 < ramregsblock4(19) $end
$var reg 8 = ramregsblock4(20) $end
$var reg 8 > ramregsblock4(21) $end
$var reg 8 ? ramregsblock4(22) $end
$var reg 8 @ ramregsblock4(23) $end
$var reg 8 A ramregsblock4(24) $end
$var reg 8 B ramregsblock4(25) $end
$var reg 8 C ramregsblock4(26) $end
$var reg 8 D ramregsblock4(27) $end
$var reg 8 E ramregsblock4(28) $end
$var reg 8 F ramregsblock4(29) $end
$var reg 8 G ramregsblock4(30) $end
$var reg 8 H ramregsblock4(31) $end
$upscope $end
$scope module ramregsblock2 $end
$var reg 8 I ramregsblock2(0) $end
$var reg 8 J ramregsblock2(1) $end
$var reg 8 K ramregsblock2(2) $end
$var reg 8 L ramregsblock2(3) $end
$var reg 8 M ramregsblock2(4) $end
$var reg 8 N ramregsblock2(5) $end
$var reg 8 O ramregsblock2(6) $end
$var reg 8 P ramregsblock2(7) $end
$var reg 8 Q ramregsblock2(8) $end
$var reg 8 R ramregsblock2(9) $end
$var reg 8 S ramregsblock2(10) $end
$var reg 8 T ramregsblock2(11) $end
$var reg 8 U ramregsblock2(12) $end
$var reg 8 V ramregsblock2(13) $end
$var reg 8 W ramregsblock2(14) $end
$var reg 8 X ramregsblock2(15) $end
$var reg 8 Y ramregsblock2(16) $end
$var reg 8 Z ramregsblock2(17) $end
$var reg 8 [ ramregsblock2(18) $end
$var reg 8 \ ramregsblock2(19) $end
$var reg 8 ] ramregsblock2(20) $end
$var reg 8 ^ ramregsblock2(21) $end
$var reg 8 _ ramregsblock2(22) $end
$var reg 8 ` ramregsblock2(23) $end
$var reg 8 a ramregsblock2(24) $end
$var reg 8 b ramregsblock2(25) $end
$var reg 8 c ramregsblock2(26) $end
$var reg 8 d ramregsblock2(27) $end
$var reg 8 e ramregsblock2(28) $end
$var reg 8 f ramregsblock2(29) $end
$var reg 8 g ramregsblock2(30) $end
$var reg 8 h ramregsblock2(31) $end
$upscope $end
$scope module ramregsblock1 $end
$var reg 8 i ramregsblock1(0) $end
$var reg 8 j ramregsblock1(1) $end
$var reg 8 k ramregsblock1(2) $end
$var reg 8 l ramregsblock1(3) $end
$var reg 8 m ramregsblock1(4) $end
$var reg 8 n ramregsblock1(5) $end
$var reg 8 o ramregsblock1(6) $end
$var reg 8 p ramregsblock1(7) $end
$var reg 8 q ramregsblock1(8) $end
$var reg 8 r ramregsblock1(9) $end
$var reg 8 s ramregsblock1(10) $end
$var reg 8 t ramregsblock1(11) $end
$var reg 8 u ramregsblock1(12) $end
$var reg 8 v ramregsblock1(13) $end
$var reg 8 w ramregsblock1(14) $end
$var reg 8 x ramregsblock1(15) $end
$var reg 8 y ramregsblock1(16) $end
$var reg 8 z ramregsblock1(17) $end
$var reg 8 { ramregsblock1(18) $end
$var reg 8 | ramregsblock1(19) $end
$var reg 8 } ramregsblock1(20) $end
$var reg 8 ~ ramregsblock1(21) $end
$var reg 8 "! ramregsblock1(22) $end
$var reg 8 "" ramregsblock1(23) $end
$var reg 8 "# ramregsblock1(24) $end
$var reg 8 "$ ramregsblock1(25) $end
$var reg 8 "% ramregsblock1(26) $end
$var reg 8 "& ramregsblock1(27) $end
$var reg 8 "' ramregsblock1(28) $end
$var reg 8 "( ramregsblock1(29) $end
$var reg 8 ") ramregsblock1(30) $end
$var reg 8 "* ramregsblock1(31) $end
$upscope $end
$scope module ramregsblock3 $end
$var reg 8 "+ ramregsblock3(0) $end
$var reg 8 ", ramregsblock3(1) $end
$var reg 8 "- ramregsblock3(2) $end
$var reg 8 ". ramregsblock3(3) $end
$var reg 8 "/ ramregsblock3(4) $end
$var reg 8 "0 ramregsblock3(5) $end
$var reg 8 "1 ramregsblock3(6) $end
$var reg 8 "2 ramregsblock3(7) $end
$var reg 8 "3 ramregsblock3(8) $end
$var reg 8 "4 ramregsblock3(9) $end
$var reg 8 "5 ramregsblock3(10) $end
$var reg 8 "6 ramregsblock3(11) $end
$var reg 8 "7 ramregsblock3(12) $end
$var reg 8 "8 ramregsblock3(13) $end
$var reg 8 "9 ramregsblock3(14) $end
$var reg 8 ": ramregsblock3(15) $end
$var reg 8 "; ramregsblock3(16) $end
$var reg 8 "< ramregsblock3(17) $end
$var reg 8 "= ramregsblock3(18) $end
$var reg 8 "> ramregsblock3(19) $end
$var reg 8 "? ramregsblock3(20) $end
$var reg 8 "@ ramregsblock3(21) $end
$var reg 8 "A ramregsblock3(22) $end
$var reg 8 "B ramregsblock3(23) $end
$var reg 8 "C ramregsblock3(24) $end
$var reg 8 "D ramregsblock3(25) $end
$var reg 8 "E ramregsblock3(26) $end
$var reg 8 "F ramregsblock3(27) $end
$var reg 8 "G ramregsblock3(28) $end
$var reg 8 "H ramregsblock3(29) $end
$var reg 8 "I ramregsblock3(30) $end
$var reg 8 "J ramregsblock3(31) $end
$upscope $end
$upscope $end
$upscope $end

$enddefinitions $end
$dumpvars
0!
b00000000000000000000000000000000 "
b0000 #
0$
0%
0&
b00000 '
b00000000000000000000000000000000 (
b00000000 )
b00000000 *
b00000000 +
b00000000 ,
b00000000 -
b00000000 .
b00000000 /
b00000000 0
b00000000 1
b00000000 2
b00000000 3
b00000000 4
b00000001 5
b00000000 6
b00000000 7
b00000000 8
b00000000 9
b00000000 :
b00000000 ;
b00000000 <
b00000000 =
b00000000 >
b00000000 ?
b00000000 @
b00000000 A
b00000000 B
b00000000 C
b00000000 D
b00000001 E
b00000000 F
b00000000 G
b00000000 H
b00101011 I
b00000000 J
b00000000 K
b00000000 L
b10001011 M
b00000000 N
b00000000 O
b00000000 P
b00001110 Q
b00000000 R
b00000000 S
b00000000 T
b10100000 U
b00000000 V
b00000000 W
b00000000 X
b10001011 Y
b00000000 Z
b00000000 [
b00000000 \
b00000101 ]
b00000000 ^
b00000000 _
b00000000 `
b00000110 a
b00000000 b
b00000000 c
b00000000 d
b00000000 e
b00000000 f
b00000000 g
b00000000 h
b10010111 i
b00000000 j
b00000000 k
b00000000 l
b10010011 m
b00000000 n
b00000000 o
b00000000 p
b00010011 q
b00000000 r
b00000000 s
b00000000 t
b00100011 u
b00000000 v
b00000000 w
b00000000 x
b10010011 y
b00000000 z
b00000000 {
b00000000 |
b00010011 }
b00000000 ~
b00000000 "!
b00000000 ""
b00010011 "#
b00000000 "$
b00000000 "%
b00000000 "&
b11101111 "'
b00000000 "(
b00000000 ")
b00000000 "*
b00000000 "+
b00000000 ",
b00000000 "-
b00000000 ".
b00001011 "/
b00000000 "0
b00000000 "1
b00000000 "2
b00010000 "3
b00000000 "4
b00000000 "5
b00000000 "6
b11001011 "7
b00000000 "8
b00000000 "9
b00000000 ":
b01001011 ";
b00000000 "<
b00000000 "=
b00000000 ">
b10110000 "?
b00000000 "@
b00000000 "A
b00000000 "B
b00000101 "C
b00000000 "D
b00000000 "E
b00000000 "F
b00000000 "G
b00000000 "H
b00000000 "I
b00000000 "J
$end
#7
b00000110000110110010110001110101 (
b11011 '
1%
1&
b0001 #
1$
b01110101 "&
#14
0$
b01111101010111011101100111111010 (
b11000 '
b0010 #
1!
#21
b11100100111100101100100010001011 (
b01101 '
b1100 #
1$
b10001011 "8
b11001000 6
0!
#28
0$
b00110011101111101111000010110100 (
b00110 '
b1111 #
1!
#35
b01100110011010001110011011110010 (
b00001 '
b0001 #
1$
0!
b11110010 j
#42
0$
b00111100011001011000001011010001 (
b00101 '
b1100 #
1!
#49
b00001011001101101011111011101001 (
b10110 '
b1000 #
1$
b11101001 ?
0!
#56
0$
b01111101001110000101111100010111 (
b10010 '
b1100 #
1!
#63
b10010000011111000110001110110100 (
b00101 '
b0100 #
1$
0!
b10110100 "0
#70
0$
b10100100100110001101100001000100 (
b11110 '
b0011 #
1!
#77
b10001100011100011011100011110101 (
b00101 '
b1100 #
1$
b11110101 "0
b10111000 .
0!
b00000000101101000000000000000000 "
#84
0$
b10111011110101101100000010000100 (
b11001 '
b0010 #
1!
#91
b01001001100111111010001110111100 (
b00011 '
1$
b00000000000000000000000000000000 "
0!
b10111100 L
#98
0$
b10010010000001111110110001010110 (
b10101 '
b1111 #
1!
#105
b01010010011000000001010010011001 (
b11101 '
b0010 #
1$
b10011001 f
0!
#112
0$
b01111110110101001011111010100011 (
b01111 '
b0001 #
1!
#119
b00001000100000111011110001101010 (
b11100 '
b0100 #
1$
b00000001000000000000000011101111 "
0!
b01101010 "G
#126
0$
b01010000111111010010101010011110 (
b11101 '
b1100 #
1!
#133
b01010010111111100100110011001110 (
b00101 '
b0100 #
1$
b11001110 "0
0!
b10111000111101010000000000000000 "
#140
0$
b10110111100100111000001000010101 (
b10010 '
b0001 #
1!
#147
b10101100101010001100001110000110 (
b01000 '
b1000 #
1$
b00000000000100000000111000010011 "
0!
b10000110 1
#154
0$
b01111101110011110110101111100001 (
b10110 '
b0100 #
1!
#161
b00110010100000000111110010111100 (
b01111 '
b1100 #
1$
b10111100 ":
b01111100 8
0!
b00000000000000000000000000000000 "
#168
0$
b10011101000010001000110010011011 (
b00010 '
b1111 #
1!
#175
b01110001111000011001110101101110 (
b10010 '
b0011 #
1$
0!
b01101110 {
b10011101 [
#182
0$
b10111000111101001010000001100101 (
b00000 '
b0100 #
1!
#189
b10111111101110100011111001111100 (
b00001 '
b1100 #
1$
b01111100 ",
b00111110 *
0!
b00000000000000000000000011110010 "
#196
0$
b00001100110011110100010111000110 (
b00101 '
b1000 #
1!
#203
b00110101110010011101010011100000 (
b11110 '
b0010 #
1$
b00000000000000000000000000000000 "
0!
b11100000 g
#210
0$
b01101100010000100010011000110111 (
b01010 '
b1111 #
1!
#217
b11010001000101010001010110101110 (
b10100 '
b1000 #
1$
b10101110 =
0!
b00000000101100000000010100010011 "
#224
0$
b11111011001001111111110000011010 (
b11001 '
b0001 #
1!
#231
b10010010010001010110100101011001 (
b00111 '
b0011 #
1$
b00000000000000000000000000000000 "
0!
b01011001 p
b01101001 P
#238
0$
b00101011001011111011111000110111 (
b01000 '
b0100 #
1!
#245
b11110110110111011100011000001110 (
b11100 '
b1000 #
1$
b00001110 E
0!
b00000001011010100000000011101111 "
#252
0$
b00111010100100001100111101110101 (
b00100 '
b0011 #
1!
#259
b10010100010010110011110000101001 (
b10111 '
b0001 #
1$
b00000000000000000000000000000000 "
0!
b00101001 ""
#266
0$
b10111100111011011000101111001111 (
b00100 '
b1100 #
1!
#273
b11001001110010100011110011110000 (
b10100 '
b0010 #
1$
b11110000 ]
0!
b10101110101100000000010100010011 "
#280
0$
b11101101100011101110010110000011 (
b01110 '
b0100 #
1!
#287
b10100001011110111110011000001100 (
b10000 '
b1000 #
1$
b00000000010010111000101110010011 "
0!
b00001100 9
#294
0$
b11101011100110100111001001000010 (
b01101 '
1!
#301
b10011100000011110100111100011000 (
b00111 '
b1111 #
1$
b00011000 p
b01001111 P
b00001111 "2
b01001110 0
0!
b00000000000000000110100101011001 "
#308
0$
b11010001000011000100011001011011 (
b10100 '
b0011 #
1!
#315
b10001111011010001101010011011100 (
b01010 '
b1100 #
1$
b00000000000000000000000000000000 "
0!
b11011100 "5
b11010100 3
#322
0$
b00010010011001000100000011010101 (
b10011 '
b1000 #
1!
#329
b11000111000011101100010101111011 (
b00100 '
b0010 #
1$
b01111011 M
0!
b00000000000010111000101110010011 "
#336
0$
b01101111100101010111000000000100 (
b10100 '
b1111 #
1!
#343
b01111111100011010100100011000000 (
b01111 '
b1000 #
1$
b01111100101111000000000000000000 "
0!
b11000000 8
#350
0$
b01100010110010111100000101101110 (
b01011 '
b1100 #
1!
#357
b11000011100011110011011100111100 (
b10100 '
1$
b00111100 "?
b00110111 =
0!
b10101110101100001111000000010011 "
#364
0$
b11010110101110110101011111011101 (
b11100 '
b0010 #
1!
#371
b00010011101111000110110111000000 (
b11111 '
b0001 #
1$
b00000000000000000000000000000000 "
0!
b11000000 "*
#378
0$
b11000101101101010111011010011011 (
b10101 '
b0100 #
1!
#385
b00101001111101100110111000011000 (
b01100 '
b1000 #
1$
b00011000 5
0!
b00000001110010111010000000100011 "
#392
0$
b11010010010101010001000000000111 (
b10100 '
b0010 #
1!
#399
b00101011011101110000111101100010 (
b10001 '
b1100 #
1$
b00000000000000000000000000000000 "
0!
b01100010 "<
b00001111 :
#406
0$
b01001000011101010101000100111100 (
b01001 '
b0010 #
1!
#413
b01001111100111000100110101011010 (
b01110 '
b0100 #
1$
b01011010 "9
0!
#420
0$
b11011000100111010000010000000101 (
b11100 '
1!
#427
b01100000010011101101111111000001 (
b10011 '
b1111 #
1$
0!
b11000001 |
b11011111 \
b01001110 ">
b00110000 <
#434
0$
b00010101111100001100010111010000 (
b10110 '
b0011 #
1!
#441
b01110101001111010111001100010011 (
b00010 '
b1111 #
1$
b00010011 k
b01110011 K
b00111101 "-
b00111010 +
0!
#448
0$
b01111111110110010110111111011111 (
b01010 '
1!
#455
b11100111111111010000001011010110 (
b00100 '
1$
b00000000000010110111101110010011 "
0!
b11010110 m
b00000010 M
b11111101 "/
b01110011 -
#462
0$
b11000010110110010000110110011000 (
b10101 '
b0011 #
1!
#469
b10011011101011100011111010011011 (
b11001 '
b1111 #
1$
b10011011 "$
b00111110 b
b10101110 "D
b01001101 B
0!
b00000000000000000000000000000000 "
#476
0$
b10100011110100100111101100111011 (
b01001 '
b1000 #
1!
#483
b01001111101100001100100010101100 (
b01100 '
b1111 #
1$
b00011000110010111010000000100011 "
0!
b10101100 u
b11001000 U
b10110000 "7
b00100111 5
#490
0$
b00000111011100111000000100001010 (
b11010 '
b0001 #
1!
#497
b10111100011001011001111100010110 (
b11001 '
b1111 #
1$
b00010110 "$
b10011111 b
b01100101 "D
b01011110 B
0!
b01001101101011100011111010011011 "
#504
0$
b11000111101010001111111011101111 (
b00111 '
1!
#511
b01010000111111011110101001011011 (
b01001 '
1$
b00000000000000000000000000000000 "
0!
b01011011 r
b11101010 R
b11111101 "4
b00101000 2
#518
0$
b00110010000101000011000001110011 (
b10100 '
b0010 #
1!
#525
b01111110110110011000000100011001 (
b00001 '
b1111 #
1$
b00011001 j
b10000001 J
b11011001 ",
b00111111 *
0!
b00111110011111000000000011110010 "
#532
0$
b10101101010010000001001010111111 (
b10111 '
b1100 #
1!
#539
b11101001010010111100100111110010 (
b00000 '
b0001 #
1$
b00000000000000000010101110010111 "
0!
b11110010 i
#546
0$
b01001101001011101110010100011110 (
b10010 '
b1100 #
1!
#553
b00011110000000000111000000010101 (
b1111 #
1$
b00010101 {
b01110000 [
b00001111 ;
0!
b00000000000000001001110101101110 "
#560
0$
b01011100110100011000000001100100 (
b11100 '
b0100 #
1!
#567
b00001101010010110100011011001000 (
b10000 '
b1100 #
1$
b00001100010010111000101110010011 "
0!
b11001000 ";
b01000110 9
#574
0$
b01010101101011110110111001011100 (
b00101 '
b0001 #
1!
#581
b00011011010011100001111101011010 (
b01011 '
b1000 #
1$
b01011010 4
0!
b00000000000000000000000000000000 "
#588
0$
b01111111001110111111011011000010 (
b00000 '
1!
#595
b01111000110001000100101011100010 (
b00101 '
b0011 #
1$
b10111000110011100000000000000000 "
0!
b11100010 n
b01001010 N
#602
0$
b11110000111010001011010111000001 (
b11011 '
b0001 #
1!
#609
b01011011101110100000111100000100 (
b11100 '
b1000 #
1$
b00000100 E
0!
b00001110011010100000000011101111 "
#616
0$
b00110011111000110110001101111101 (
b11110 '
b0100 #
1!
#623
b11111110111110110001001010000100 (
b10010 '
b1000 #
1$
b00001111000000000111000000010101 "
0!
b10000100 ;
#630
0$
b00011101100100101010001111010010 (
b11101 '
b0010 #
1!
#637
b11101101000100100101001110001010 (
b11111 '
b0100 #
1$
b10001010 "J
0!
b00000000000000000000000011000000 "
#644
0$
b11101110100100010000010000011011 (
b11011 '
b1100 #
1!
#651
b11100001000011000011110001111111 (
b01101 '
b0011 #
1$
b11001000100010110000000000000000 "
0!
b01111111 v
b00111100 V
#658
0$
b10000011100101101110000011011111 (
b00100 '
b0001 #
1!
#665
b10111000110101010010001110000001 (
b01101 '
b1000 #
1$
b10000001 6
0!
b11001000100010110011110001111111 "
#672
0$
b10011111101010100110110010011101 (
b1111 #
1!
#679
b00010010010000100111110101110001 (
b10000 '
b0010 #
1$
b01000110110010001000101110010011 "
0!
b01110001 Y
#686
0$
b00100101110101100111010110110110 (
b00010 '
1!
#693
b11001101010011100000001110100001 (
b00111 '
b1000 #
1$
b10100001 0
0!
b01001110000011110100111100011000 "
#700
0$
b11111011100101101100001000110000 (
b10111 '
b0010 #
1!
#707
b10001101011101100011011001110110 (
b11101 '
1$
b00000000000000001001100100000000 "
0!
b01110110 f
#714
0$
b11001111100110110100111111010011 (
b00000 '
b1100 #
1!
#721
b10001111100011101001110000110010 (
b01111 '
1$
b00110010 ":
b10011100 8
0!
b11000000101111000000000000000000 "
#728
0$
b10000000000111110011111100010110 (
b00000 '
b1111 #
1!
#735
b10000101111001011010010010011100 (
b10100 '
1$
b00110111001111001111000000010011 "
0!
b10011100 }
b10100100 ]
b11100101 "?
b01000010 =
#742
0$
b10101001001101011111011010100011 (
b01111 '
b1100 #
1!
#749
b01001011111001111000111110001101 (
b10010 '
1$
b10001101 "=
b10001111 ;
0!
b10000100000000000111000000010101 "
#756
0$
b01001011010100110000111110000010 (
b11000 '
1!
#763
b11001000000000001100100010001000 (
b10111 '
b1000 #
1$
b00000000000000000000000000101001 "
0!
b10001000 @
#770
0$
b10000100000011011000010101110111 (
b00101 '
b0010 #
1!
#777
b01100001000001000111110011100101 (
b00000 '
b0011 #
1$
b11100101 i
b01111100 I
0!
b00000000000000000010101111110010 "
#784
0$
b00011010001111011011110001101001 (
b01011 '
b1100 #
1!
#791
b01111011011110110111001010011001 (
b10010 '
b0100 #
1$
b10001111100011010111000000010101 "
0!
b10011001 "=
#798
0$
b11010010001001101111100111000111 (
b11001 '
b1111 #
1!
#805
b10000110111001000001110001010010 (
b10100 '
b0010 #
1$
b01010010 ]
0!
b01000010111001011010010010011100 "
#812
0$
b11011111001111001111011110011001 (
b11001 '
1!
#819
b00101001001110011110011111010000 (
b01001 '
b0001 #
1$
b00101000111111011110101001011011 "
0!
b11010000 r
#826
0$
b00010011101110001100101111010001 (
b01000 '
b0011 #
1!
#833
b11001101110001001010101110101100 (
b10100 '
b0001 #
1$
b10101100 }
0!
b01000010111001010101001010011100 "
#840
0$
b01110011110100010000110010111111 (
b11110 '
1!
#847
b10011100000000111010000000001111 (
b00011 '
b0010 #
1$
b00000000000000001011110000000000 "
0!
b00001111 L
#854
0$
b01110111111001111101001110101110 (
b10110 '
b1000 #
1!
#861
b11101010110011111100100110101010 (
b11001 '
b0001 #
1$
b10101010 "$
0!
b01011110011001011001111100010110 "
#868
0$
b10000100101001010001100001110001 (
b11100 '
b1000 #
1!
#875
b00010110110000010011000011111101 (
b11001 '
b0100 #
1$
b01011110011001011001111110101010 "
0!
b11111101 "D
#882
0$
b10000110110001100111100000011000 (
b10001 '
b0001 #
1!
#889
b01000011111111011110111101110000 (
b00110 '
b0100 #
1$
b01110000 "1
0!
b00000000000000000000000000000000 "
#896
0$
b10100010001011000101110000111000 (
b10110 '
b0011 #
1!
#903
b01100101100000011011010100011010 (
b11000 '
b1100 #
1$
b00000000000001010000011000010011 "
0!
b00011010 "C
b10110101 A
#910
0$
b00100000101111010100011000010111 (
b00000 '
b0011 #
1!
#917
b11000101000110111101000010110001 (
b1100 #
1$
b10110001 "+
b11010000 )
0!
b00000000000000000111110011100101 "
#924
0$
b00011000101101011010110011101001 (
b00010 '
b0010 #
1!
#931
b01000010100000100000101011100001 (
b00011 '
b0001 #
1$
b00000000000000000000111100000000 "
0!
b11100001 l
#938
0$
b00011000011010100011101110100101 (
b10010 '
b1100 #
1!
#945
b01000010000111101001100010110001 (
b11110 '
1$
b10110001 "I
b10011000 G
0!
b00000000000000001110000000000000 "
#952
0$
b10011100000011110010111001001111 (
b01000 '
b0010 #
1!
#959
b00011111101011110001111001000111 (
b00100 '
1$
b01110011111111010000001011010110 "
0!
b01000111 M
#966
0$
b00100111001110100111000101001111 (
b10110 '
1!
#973
b00011000000111000010010000010011 (
b01001 '
b0100 #
1$
b00010011 "4
0!
b00101000111111011110101011010000 "
#980
0$
b01011100001011001110010001100100 (
b11001 '
1!
#987
b10111011011101011101010000001010 (
b00100 '
b0010 #
1$
b01110011111111010100011111010110 "
0!
b00001010 M
#994
0$
b01100110111101111000000101001011 (
b01100 '
b1111 #
1!
