Core/tbTope.vcd
$date
    Wed Nov 30 02:15:46 2016
$end
$version
    MyHDL 1.0dev
$end
$timescale
    1ns
$end

$scope module tbTope $end
$var reg 1 ! reset $end
$var reg 1 " clk $end
$var reg 32 # DataOutRAM $end
$var reg 4 $ WR $end
$var reg 32 % DataInRAM $end
$var reg 1 & Done $end
$var reg 1 ' WE $end
$var reg 1 ( RE $end
$var reg 6 ) Address $end
$scope module ClkDriver_1 $end
$var reg 1 " clk $end
$upscope $end
$scope module tope_1 $end
$var reg 32 * datainstruccion $end
$var reg 1 + RegEnable $end
$var reg 5 , rd $end
$var reg 32 - r1d $end
$var reg 32 . ALUinA $end
$var reg 7 / Opcode $end
$var reg 32 0 PCEN_BHW $end
$var reg 4 1 ALUop $end
$var reg 32 2 mux1_000 $end
$var reg 32 3 mux3_add2 $end
$var reg 1 ! reset $end
$var reg 32 4 rdd $end
$var reg 32 # DataOutRAM $end
$var reg 1 5 Reg_OK $end
$var reg 1 6 Ok_PC $end
$var reg 32 7 dirdatos $end
$var reg 32 8 mux1_010 $end
$var reg 1 9 Sel_Mux $end
$var reg 32 : mux4_PC $end
$var reg 1 ; PCsrc $end
$var reg 1 " clk $end
$var reg 5 < rs2 $end
$var reg 1 = ALUflag $end
$var reg 5 > rs1 $end
$var reg 32 ? add2_mux4 $end
$var reg 3 @ RegDest $end
$var reg 32 A ALUout $end
$var reg 1 & Done $end
$var reg 1 B ALUsrc $end
$var reg 7 C funct7 $end
$var reg 1 D RegWrite $end
$var reg 32 E mux1_011 $end
$var reg 32 % DataInRAM $end
$var reg 3 F Dwidth $end
$var reg 1 ' WE $end
$var reg 6 ) Address $end
$var reg 3 G funct3 $end
$var reg 1 ( RE $end
$var reg 4 $ WR $end
$var reg 32 H datainmediato $end
$var reg 32 I mux1_001 $end
$var reg 2 J BHWDIR $end
$scope module ADD_2 $end
$var reg 32 H datain2 $end
$var reg 32 I dataout $end
$var reg 32 7 datain1 $end
$upscope $end
$scope module ControlUnit_1 $end
$var reg 1 ; PCsrc $end
$var reg 3 F DWidth $end
$var reg 3 @ RegDest $end
$var reg 1 9 Sel_Mux $end
$var reg 4 1 ALUop $end
$var reg 7 / OPcode $end
$var reg 3 G funct3 $end
$var reg 1 B ALUsrc $end
$var reg 1 D RegWrite $end
$var reg 1 = branch $end
$var reg 7 C funct7 $end
$upscope $end
$scope module Mux3_1 $end
$var reg 1 9 Sel_Mux $end
$var reg 32 H in2_Mux3 $end
$var reg 32 3 output_Mux3 $end
$upscope $end
$scope module Mux4_1 $end
$var reg 32 ? in2_Mux4 $end
$var reg 1 ; PCsrc $end
$var reg 32 : output_Mux4 $end
$var reg 31 K in1_concat $end
$var reg 32 A in1_Mux4 $end
$upscope $end
$scope module CPR_1 $end
$var reg 32 * datainstruccion $end
$var reg 1 5 Reg_Ok $end
$var reg 1 L MBR_go $end
$var reg 6 ) Address $end
$var reg 1 & Done $end
$var reg 32 0 PCEN_BHW $end
$var reg 32 A ALUout $end
$var reg 7 / Opcode $end
$var reg 1 ' WE $end
$var reg 1 M Mux5_Sel $end
$var reg 1 " clk $end
$var reg 32 # DataOutRAM $end
$var reg 1 N Demux_Sel $end
$var reg 1 6 Ok_PC $end
$var reg 32 7 dirdato $end
$var reg 1 ( RE $end
$var reg 1 ! reset $end
$var reg 32 O Demux_MBR $end
$scope module MBR_1 $end
$var reg 32 P register $end
$var reg 1 " clk $end
$var reg 1 L enable $end
$var reg 32 * dataout $end
$var reg 32 O datain $end
$var reg 1 ! reset $end
$upscope $end
$scope module Demux_1 $end
$var reg 32 # in_demux $end
$var reg 1 N Sel_Demux $end
$var reg 32 O out1_demux $end
$var reg 32 0 out2_demux $end
$upscope $end
$scope module FSM_1 $end
$var reg 1 ( RAMread $end
$var reg 1 " clk $end
$var reg 1 L MBR_go $end
$var reg 1 6 ok_pc $end
$var reg 1 M Mux5_Sel $end
$var reg 7 / OPcode $end
$var reg 3 Q EstadoPresente $end
$var reg 1 5 RegOk $end
$var reg 1 N Demux_Sel $end
$var reg 1 & RAMdone $end
$var reg 1 ' RAMwrite $end
$var reg 1 ! reset $end
$upscope $end
$scope module Mux2_2 $end
$var reg 32 A in2_Mux2 $end
$var reg 1 M ALUsrc $end
$var reg 32 7 in1_Mux2 $end
$var reg 6 ) output_Mux2 $end
$upscope $end
$upscope $end
$scope module AND_1 $end
$var reg 1 D data1 $end
$var reg 1 5 data2 $end
$var reg 1 + dataout $end
$upscope $end
$scope module PC_1 $end
$var reg 32 R register $end
$var reg 1 " clk $end
$var reg 1 6 enable $end
$var reg 32 7 dataout $end
$var reg 32 : datain $end
$var reg 1 ! reset $end
$upscope $end
$scope module ConvInst_1 $end
$var reg 12 S bit31_20 $end
$var reg 1 T bit11 $end
$var reg 20 U bit31_12 $end
$var reg 21 V bit31_11 $end
$var reg 32 * datain $end
$var reg 12 W bit11_0 $end
$var reg 1 X bit31 $end
$var reg 8 Y bit19_12 $end
$var reg 11 Z bit30_20 $end
$var reg 4 [ bit4_1 $end
$var reg 1 \ bit0 $end
$var reg 32 H dataout $end
$var reg 6 ] bit10_5 $end
$upscope $end
$scope module BHW_1 $end
$var reg 3 F DWidth $end
$var reg 8 ^ data24_16 $end
$var reg 2 J Dir_Data $end
$var reg 8 _ data8_0 $end
$var reg 16 ` data32_16 $end
$var reg 8 a data32_24 $end
$var reg 32 E Dataout $end
$var reg 8 b data16_8 $end
$var reg 16 c data16_0 $end
$var reg 32 0 Datain $end
$upscope $end
$scope module Mux1_1 $end
$var reg 32 4 output_Mux1 $end
$var reg 32 8 in3_Mux1 $end
$var reg 32 E in4_Mux1 $end
$var reg 32 I in2_Mux1 $end
$var reg 32 A in5_Mux1 $end
$var reg 3 @ RegDest $end
$var reg 32 2 in1_Mux1 $end
$upscope $end
$scope module ALU_1 $end
$var reg 4 1 ALUop $end
$var reg 32 - inB $end
$var reg 32 . inA $end
$var reg 1 = flag $end
$var reg 32 A out $end
$upscope $end
$scope module ADD_4_1 $end
$var reg 32 2 dataout $end
$var reg 32 7 datain $end
$upscope $end
$scope module StoreEnable_1 $end
$var reg 3 F DWidth $end
$var reg 2 J Datain $end
$var reg 4 $ Store_E $end
$upscope $end
$scope module ADD_1 $end
$var reg 32 7 datain2 $end
$var reg 32 ? dataout $end
$var reg 32 3 datain1 $end
$upscope $end
$scope module Mux2_1 $end
$var reg 32 H in2_Mux2 $end
$var reg 1 B ALUsrc $end
$var reg 32 % in1_Mux2 $end
$var reg 32 . output_Mux2 $end
$upscope $end
$scope module RegisterFile_1 $end
$var reg 1 " clk $end
$var reg 1 ! reset $end
$var reg 32 % read_B $end
$var reg 1 + we $end
$var reg 32 - read_A $end
$var reg 5 < b_addr $end
$var reg 5 , w_addr $end
$var reg 32 4 data_w $end
$var reg 5 > a_addr $end
$scope module regs $end
$var reg 32 d regs(0) $end
$var reg 32 e regs(1) $end
$var reg 32 f regs(2) $end
$var reg 32 g regs(3) $end
$var reg 32 h regs(4) $end
$var reg 32 i regs(5) $end
$var reg 32 j regs(6) $end
$var reg 32 k regs(7) $end
$var reg 32 l regs(8) $end
$var reg 32 m regs(9) $end
$var reg 32 n regs(10) $end
$var reg 32 o regs(11) $end
$var reg 32 p regs(12) $end
$var reg 32 q regs(13) $end
$var reg 32 r regs(14) $end
$var reg 32 s regs(15) $end
$var reg 32 t regs(16) $end
$var reg 32 u regs(17) $end
$var reg 32 v regs(18) $end
$var reg 32 w regs(19) $end
$var reg 32 x regs(20) $end
$var reg 32 y regs(21) $end
$var reg 32 z regs(22) $end
$var reg 32 { regs(23) $end
$var reg 32 | regs(24) $end
$var reg 32 } regs(25) $end
$var reg 32 ~ regs(26) $end
$var reg 32 "! regs(27) $end
$var reg 32 "" regs(28) $end
$var reg 32 "# regs(29) $end
$var reg 32 "$ regs(30) $end
$var reg 32 "% regs(31) $end
$upscope $end
$upscope $end
$upscope $end
$scope module BRAM_1 $end
$var reg 1 ' we $end
$var reg 1 " clk $end
$var reg 6 ) addr $end
$var reg 1 ( re $end
$var reg 32 % di $end
$var reg 4 $ enstore $end
$var reg 32 # do $end
$var reg 1 & done $end
$scope module ramregsblock2 $end
$var reg 8 "& ramregsblock2(0) $end
$var reg 8 "' ramregsblock2(1) $end
$var reg 8 "( ramregsblock2(2) $end
$var reg 8 ") ramregsblock2(3) $end
$var reg 8 "* ramregsblock2(4) $end
$var reg 8 "+ ramregsblock2(5) $end
$var reg 8 ", ramregsblock2(6) $end
$var reg 8 "- ramregsblock2(7) $end
$var reg 8 ". ramregsblock2(8) $end
$var reg 8 "/ ramregsblock2(9) $end
$var reg 8 "0 ramregsblock2(10) $end
$var reg 8 "1 ramregsblock2(11) $end
$var reg 8 "2 ramregsblock2(12) $end
$var reg 8 "3 ramregsblock2(13) $end
$var reg 8 "4 ramregsblock2(14) $end
$var reg 8 "5 ramregsblock2(15) $end
$var reg 8 "6 ramregsblock2(16) $end
$var reg 8 "7 ramregsblock2(17) $end
$var reg 8 "8 ramregsblock2(18) $end
$var reg 8 "9 ramregsblock2(19) $end
$var reg 8 ": ramregsblock2(20) $end
$var reg 8 "; ramregsblock2(21) $end
$var reg 8 "< ramregsblock2(22) $end
$var reg 8 "= ramregsblock2(23) $end
$var reg 8 "> ramregsblock2(24) $end
$var reg 8 "? ramregsblock2(25) $end
$var reg 8 "@ ramregsblock2(26) $end
$var reg 8 "A ramregsblock2(27) $end
$var reg 8 "B ramregsblock2(28) $end
$var reg 8 "C ramregsblock2(29) $end
$var reg 8 "D ramregsblock2(30) $end
$var reg 8 "E ramregsblock2(31) $end
$var reg 8 "F ramregsblock2(32) $end
$var reg 8 "G ramregsblock2(33) $end
$var reg 8 "H ramregsblock2(34) $end
$var reg 8 "I ramregsblock2(35) $end
$var reg 8 "J ramregsblock2(36) $end
$var reg 8 "K ramregsblock2(37) $end
$var reg 8 "L ramregsblock2(38) $end
$var reg 8 "M ramregsblock2(39) $end
$var reg 8 "N ramregsblock2(40) $end
$var reg 8 "O ramregsblock2(41) $end
$var reg 8 "P ramregsblock2(42) $end
$var reg 8 "Q ramregsblock2(43) $end
$var reg 8 "R ramregsblock2(44) $end
$var reg 8 "S ramregsblock2(45) $end
$var reg 8 "T ramregsblock2(46) $end
$var reg 8 "U ramregsblock2(47) $end
$var reg 8 "V ramregsblock2(48) $end
$var reg 8 "W ramregsblock2(49) $end
$var reg 8 "X ramregsblock2(50) $end
$var reg 8 "Y ramregsblock2(51) $end
$var reg 8 "Z ramregsblock2(52) $end
$var reg 8 "[ ramregsblock2(53) $end
$var reg 8 "\ ramregsblock2(54) $end
$var reg 8 "] ramregsblock2(55) $end
$var reg 8 "^ ramregsblock2(56) $end
$var reg 8 "_ ramregsblock2(57) $end
$var reg 8 "` ramregsblock2(58) $end
$var reg 8 "a ramregsblock2(59) $end
$var reg 8 "b ramregsblock2(60) $end
$var reg 8 "c ramregsblock2(61) $end
$var reg 8 "d ramregsblock2(62) $end
$var reg 8 "e ramregsblock2(63) $end
$upscope $end
$scope module ramregsblock3 $end
$var reg 8 "f ramregsblock3(0) $end
$var reg 8 "g ramregsblock3(1) $end
$var reg 8 "h ramregsblock3(2) $end
$var reg 8 "i ramregsblock3(3) $end
$var reg 8 "j ramregsblock3(4) $end
$var reg 8 "k ramregsblock3(5) $end
$var reg 8 "l ramregsblock3(6) $end
$var reg 8 "m ramregsblock3(7) $end
$var reg 8 "n ramregsblock3(8) $end
$var reg 8 "o ramregsblock3(9) $end
$var reg 8 "p ramregsblock3(10) $end
$var reg 8 "q ramregsblock3(11) $end
$var reg 8 "r ramregsblock3(12) $end
$var reg 8 "s ramregsblock3(13) $end
$var reg 8 "t ramregsblock3(14) $end
$var reg 8 "u ramregsblock3(15) $end
$var reg 8 "v ramregsblock3(16) $end
$var reg 8 "w ramregsblock3(17) $end
$var reg 8 "x ramregsblock3(18) $end
$var reg 8 "y ramregsblock3(19) $end
$var reg 8 "z ramregsblock3(20) $end
$var reg 8 "{ ramregsblock3(21) $end
$var reg 8 "| ramregsblock3(22) $end
$var reg 8 "} ramregsblock3(23) $end
$var reg 8 "~ ramregsblock3(24) $end
$var reg 8 #! ramregsblock3(25) $end
$var reg 8 #" ramregsblock3(26) $end
$var reg 8 ## ramregsblock3(27) $end
$var reg 8 #$ ramregsblock3(28) $end
$var reg 8 #% ramregsblock3(29) $end
$var reg 8 #& ramregsblock3(30) $end
$var reg 8 #' ramregsblock3(31) $end
$var reg 8 #( ramregsblock3(32) $end
$var reg 8 #) ramregsblock3(33) $end
$var reg 8 #* ramregsblock3(34) $end
$var reg 8 #+ ramregsblock3(35) $end
$var reg 8 #, ramregsblock3(36) $end
$var reg 8 #- ramregsblock3(37) $end
$var reg 8 #. ramregsblock3(38) $end
$var reg 8 #/ ramregsblock3(39) $end
$var reg 8 #0 ramregsblock3(40) $end
$var reg 8 #1 ramregsblock3(41) $end
$var reg 8 #2 ramregsblock3(42) $end
$var reg 8 #3 ramregsblock3(43) $end
$var reg 8 #4 ramregsblock3(44) $end
$var reg 8 #5 ramregsblock3(45) $end
$var reg 8 #6 ramregsblock3(46) $end
$var reg 8 #7 ramregsblock3(47) $end
$var reg 8 #8 ramregsblock3(48) $end
$var reg 8 #9 ramregsblock3(49) $end
$var reg 8 #: ramregsblock3(50) $end
$var reg 8 #; ramregsblock3(51) $end
$var reg 8 #< ramregsblock3(52) $end
$var reg 8 #= ramregsblock3(53) $end
$var reg 8 #> ramregsblock3(54) $end
$var reg 8 #? ramregsblock3(55) $end
$var reg 8 #@ ramregsblock3(56) $end
$var reg 8 #A ramregsblock3(57) $end
$var reg 8 #B ramregsblock3(58) $end
$var reg 8 #C ramregsblock3(59) $end
$var reg 8 #D ramregsblock3(60) $end
$var reg 8 #E ramregsblock3(61) $end
$var reg 8 #F ramregsblock3(62) $end
$var reg 8 #G ramregsblock3(63) $end
$upscope $end
$scope module ramregsblock1 $end
$var reg 8 #H ramregsblock1(0) $end
$var reg 8 #I ramregsblock1(1) $end
$var reg 8 #J ramregsblock1(2) $end
$var reg 8 #K ramregsblock1(3) $end
$var reg 8 #L ramregsblock1(4) $end
$var reg 8 #M ramregsblock1(5) $end
$var reg 8 #N ramregsblock1(6) $end
$var reg 8 #O ramregsblock1(7) $end
$var reg 8 #P ramregsblock1(8) $end
$var reg 8 #Q ramregsblock1(9) $end
$var reg 8 #R ramregsblock1(10) $end
$var reg 8 #S ramregsblock1(11) $end
$var reg 8 #T ramregsblock1(12) $end
$var reg 8 #U ramregsblock1(13) $end
$var reg 8 #V ramregsblock1(14) $end
$var reg 8 #W ramregsblock1(15) $end
$var reg 8 #X ramregsblock1(16) $end
$var reg 8 #Y ramregsblock1(17) $end
$var reg 8 #Z ramregsblock1(18) $end
$var reg 8 #[ ramregsblock1(19) $end
$var reg 8 #\ ramregsblock1(20) $end
$var reg 8 #] ramregsblock1(21) $end
$var reg 8 #^ ramregsblock1(22) $end
$var reg 8 #_ ramregsblock1(23) $end
$var reg 8 #` ramregsblock1(24) $end
$var reg 8 #a ramregsblock1(25) $end
$var reg 8 #b ramregsblock1(26) $end
$var reg 8 #c ramregsblock1(27) $end
$var reg 8 #d ramregsblock1(28) $end
$var reg 8 #e ramregsblock1(29) $end
$var reg 8 #f ramregsblock1(30) $end
$var reg 8 #g ramregsblock1(31) $end
$var reg 8 #h ramregsblock1(32) $end
$var reg 8 #i ramregsblock1(33) $end
$var reg 8 #j ramregsblock1(34) $end
$var reg 8 #k ramregsblock1(35) $end
$var reg 8 #l ramregsblock1(36) $end
$var reg 8 #m ramregsblock1(37) $end
$var reg 8 #n ramregsblock1(38) $end
$var reg 8 #o ramregsblock1(39) $end
$var reg 8 #p ramregsblock1(40) $end
$var reg 8 #q ramregsblock1(41) $end
$var reg 8 #r ramregsblock1(42) $end
$var reg 8 #s ramregsblock1(43) $end
$var reg 8 #t ramregsblock1(44) $end
$var reg 8 #u ramregsblock1(45) $end
$var reg 8 #v ramregsblock1(46) $end
$var reg 8 #w ramregsblock1(47) $end
$var reg 8 #x ramregsblock1(48) $end
$var reg 8 #y ramregsblock1(49) $end
$var reg 8 #z ramregsblock1(50) $end
$var reg 8 #{ ramregsblock1(51) $end
$var reg 8 #| ramregsblock1(52) $end
$var reg 8 #} ramregsblock1(53) $end
$var reg 8 #~ ramregsblock1(54) $end
$var reg 8 $! ramregsblock1(55) $end
$var reg 8 $" ramregsblock1(56) $end
$var reg 8 $# ramregsblock1(57) $end
$var reg 8 $$ ramregsblock1(58) $end
$var reg 8 $% ramregsblock1(59) $end
$var reg 8 $& ramregsblock1(60) $end
$var reg 8 $' ramregsblock1(61) $end
$var reg 8 $( ramregsblock1(62) $end
$var reg 8 $) ramregsblock1(63) $end
$upscope $end
$scope module ramregsblock4 $end
$var reg 8 $* ramregsblock4(0) $end
$var reg 8 $+ ramregsblock4(1) $end
$var reg 8 $, ramregsblock4(2) $end
$var reg 8 $- ramregsblock4(3) $end
$var reg 8 $. ramregsblock4(4) $end
$var reg 8 $/ ramregsblock4(5) $end
$var reg 8 $0 ramregsblock4(6) $end
$var reg 8 $1 ramregsblock4(7) $end
$var reg 8 $2 ramregsblock4(8) $end
$var reg 8 $3 ramregsblock4(9) $end
$var reg 8 $4 ramregsblock4(10) $end
$var reg 8 $5 ramregsblock4(11) $end
$var reg 8 $6 ramregsblock4(12) $end
$var reg 8 $7 ramregsblock4(13) $end
$var reg 8 $8 ramregsblock4(14) $end
$var reg 8 $9 ramregsblock4(15) $end
$var reg 8 $: ramregsblock4(16) $end
$var reg 8 $; ramregsblock4(17) $end
$var reg 8 $< ramregsblock4(18) $end
$var reg 8 $= ramregsblock4(19) $end
$var reg 8 $> ramregsblock4(20) $end
$var reg 8 $? ramregsblock4(21) $end
$var reg 8 $@ ramregsblock4(22) $end
$var reg 8 $A ramregsblock4(23) $end
$var reg 8 $B ramregsblock4(24) $end
$var reg 8 $C ramregsblock4(25) $end
$var reg 8 $D ramregsblock4(26) $end
$var reg 8 $E ramregsblock4(27) $end
$var reg 8 $F ramregsblock4(28) $end
$var reg 8 $G ramregsblock4(29) $end
$var reg 8 $H ramregsblock4(30) $end
$var reg 8 $I ramregsblock4(31) $end
$var reg 8 $J ramregsblock4(32) $end
$var reg 8 $K ramregsblock4(33) $end
$var reg 8 $L ramregsblock4(34) $end
$var reg 8 $M ramregsblock4(35) $end
$var reg 8 $N ramregsblock4(36) $end
$var reg 8 $O ramregsblock4(37) $end
$var reg 8 $P ramregsblock4(38) $end
$var reg 8 $Q ramregsblock4(39) $end
$var reg 8 $R ramregsblock4(40) $end
$var reg 8 $S ramregsblock4(41) $end
$var reg 8 $T ramregsblock4(42) $end
$var reg 8 $U ramregsblock4(43) $end
$var reg 8 $V ramregsblock4(44) $end
$var reg 8 $W ramregsblock4(45) $end
$var reg 8 $X ramregsblock4(46) $end
$var reg 8 $Y ramregsblock4(47) $end
$var reg 8 $Z ramregsblock4(48) $end
$var reg 8 $[ ramregsblock4(49) $end
$var reg 8 $\ ramregsblock4(50) $end
$var reg 8 $] ramregsblock4(51) $end
$var reg 8 $^ ramregsblock4(52) $end
$var reg 8 $_ ramregsblock4(53) $end
$var reg 8 $` ramregsblock4(54) $end
$var reg 8 $a ramregsblock4(55) $end
$var reg 8 $b ramregsblock4(56) $end
$var reg 8 $c ramregsblock4(57) $end
$var reg 8 $d ramregsblock4(58) $end
$var reg 8 $e ramregsblock4(59) $end
$var reg 8 $f ramregsblock4(60) $end
$var reg 8 $g ramregsblock4(61) $end
$var reg 8 $h ramregsblock4(62) $end
$var reg 8 $i ramregsblock4(63) $end
$upscope $end
$upscope $end
$upscope $end

$enddefinitions $end
$dumpvars
0!
0"
b00000000000000000000000000000000 #
b0000 $
b00000000000000000000000000000000 %
0&
0'
0(
b000000 )
b00000000000000000000000000000000 *
b0 +
b00000 ,
b00000000000000000000000000000000 -
b00000000000000000000000000000000 .
b0000000 /
b00000000000000000000000000000000 0
b0000 1
b00000000000000000000000000000000 2
b00000000000000000000000000000000 3
b00000000000000000000000000000000 4
b0 5
b0 6
b00000000000000000000000000000000 7
b00000000000000000000000000000000 8
b0 9
b00000000000000000000000000000000 :
b0 ;
b00000 <
b0 =
b00000 >
b00000000000000000000000000000000 ?
b000 @
b00000000000000000000000000000000 A
b0 B
b0000000 C
b0 D
b00000000000000000000000000000000 E
b000 F
b000 G
b00000000000000000000000000000000 H
b00000000000000000000000000000000 I
b00 J
b0000000000000000000000000000000 K
b0 L
b0 M
b0 N
b00000000000000000000000000000000 O
b00000000000000000000000000000000 P
b000 Q
b00000000000000000000000000000000 R
b000000000000 S
b0 T
b00000000000000000000 U
b000000000000000000000 V
b000000000000 W
b0 X
b00000000 Y
b00000000000 Z
b0000 [
b0 \
b000000 ]
b00000000 ^
b00000000 _
b0000000000000000 `
b00000000 a
b00000000 b
b0000000000000000 c
b00000000000000000000000000000000 d
b00000000000000000000000000000000 e
b00000000000000000000000000000000 f
b00000000000000000000000000000000 g
b00000000000000000000000000000000 h
b00000000000000000000000000000000 i
b00000000000000000000000000000000 j
b00000000000000000000000000000000 k
b00000000000000000000000000000000 l
b00000000000000000000000000000000 m
b00000000000000000000000000000000 n
b00000000000000000000000000000000 o
b00000000000000000000000000000000 p
b00000000000000000000000000000000 q
b00000000000000000000000000000000 r
b00000000000000000000000000000000 s
b00000000000000000000000000000000 t
b00000000000000000000000000000000 u
b00000000000000000000000000000000 v
b00000000000000000000000000000000 w
b00000000000000000000000000000000 x
b00000000000000000000000000000000 y
b00000000000000000000000000000000 z
b00000000000000000000000000000000 {
b00000000000000000000000000000000 |
b00000000000000000000000000000000 }
b00000000000000000000000000000000 ~
b00000000000000000000000000000000 "!
b00000000000000000000000000000000 ""
b00000000000000000000000000000000 "#
b00000000000000000000000000000000 "$
b00000000000000000000000000000000 "%
b00000100 "&
b00000000 "'
b00000000 "(
b00000000 ")
b00000100 "*
b00000000 "+
b00000000 ",
b00000000 "-
b00000100 ".
b00000000 "/
b00000000 "0
b00000000 "1
b00000100 "2
b00000000 "3
b00000000 "4
b00000000 "5
b00000000 "6
b00000000 "7
b00000000 "8
b00000000 "9
b00001110 ":
b00000000 ";
b00000000 "<
b00000000 "=
b00011111 ">
b00000000 "?
b00000000 "@
b00000000 "A
b00100110 "B
b00000000 "C
b00000000 "D
b00000000 "E
b11110000 "F
b00000000 "G
b00000000 "H
b00000000 "I
b00000000 "J
b00000000 "K
b00000000 "L
b00000000 "M
b00000000 "N
b00000000 "O
b00000000 "P
b00000000 "Q
b00000000 "R
b00000000 "S
b00000000 "T
b00000000 "U
b00000000 "V
b00000000 "W
b00000000 "X
b00000000 "Y
b00010001 "Z
b00000000 "[
b00000000 "\
b00000000 "]
b00010001 "^
b00000000 "_
b00000000 "`
b00000000 "a
b00010001 "b
b00000000 "c
b00000000 "d
b00000000 "e
b00010000 "f
b00000000 "g
b00000000 "h
b00000000 "i
b00010000 "j
b00000000 "k
b00000000 "l
b00000000 "m
b00100100 "n
b00000000 "o
b00000000 "p
b00000000 "q
b00010100 "r
b00000000 "s
b00000000 "t
b00000000 "u
b10000000 "v
b00000000 "w
b00000000 "x
b00000000 "y
b00010000 "z
b00000000 "{
b00000000 "|
b00000000 "}
b00000000 "~
b00000000 #!
b00000000 #"
b00000000 ##
b11001111 #$
b00000000 #%
b00000000 #&
b00000000 #'
b01011111 #(
b00000000 #)
b00000000 #*
b00000000 #+
b00000000 #,
b00000000 #-
b00000000 #.
b00000000 #/
b00000000 #0
b00000000 #1
b00000000 #2
b00000000 #3
b00000000 #4
b00000000 #5
b00000000 #6
b00000000 #7
b00000000 #8
b00000000 #9
b00000000 #:
b00000000 #;
b00010001 #<
b00000000 #=
b00000000 #>
b00000000 #?
b00010001 #@
b00000000 #A
b00000000 #B
b00000000 #C
b00010001 #D
b00000000 #E
b00000000 #F
b00000000 #G
b00010011 #H
b00000000 #I
b00000000 #J
b00000000 #K
b10010011 #L
b00000000 #M
b00000000 #N
b00000000 #O
b00010011 #P
b00000000 #Q
b00000000 #R
b00000000 #S
b00010011 #T
b00000000 #U
b00000000 #V
b00000000 #W
b01101111 #X
b00000000 #Y
b00000000 #Z
b00000000 #[
b00010011 #\
b00000000 #]
b00000000 #^
b00000000 #_
b00010111 #`
b00000000 #a
b00000000 #b
b00000000 #c
b00100011 #d
b00000000 #e
b00000000 #f
b00000000 #g
b01101111 #h
b00000000 #i
b00000000 #j
b00000000 #k
b00000000 #l
b00000000 #m
b00000000 #n
b00000000 #o
b00000000 #p
b00000000 #q
b00000000 #r
b00000000 #s
b00000000 #t
b00000000 #u
b00000000 #v
b00000000 #w
b00000000 #x
b00000000 #y
b00000000 #z
b00000000 #{
b00010001 #|
b00000000 #}
b00000000 #~
b00000000 $!
b00010001 $"
b00000000 $#
b00000000 $$
b00000000 $%
b00010001 $&
b00000000 $'
b00000000 $(
b00000000 $)
b00000000 $*
b00000000 $+
b00000000 $,
b00000000 $-
b00000000 $.
b00000000 $/
b00000000 $0
b00000000 $1
b00000000 $2
b00000000 $3
b00000000 $4
b00000000 $5
b00000000 $6
b00000000 $7
b00000000 $8
b00000000 $9
b00000010 $:
b00000000 $;
b00000000 $<
b00000000 $=
b00000000 $>
b00000000 $?
b00000000 $@
b00000000 $A
b00000000 $B
b00000000 $C
b00000000 $D
b00000000 $E
b11111111 $F
b00000000 $G
b00000000 $H
b00000000 $I
b11111111 $J
b00000000 $K
b00000000 $L
b00000000 $M
b00000000 $N
b00000000 $O
b00000000 $P
b00000000 $Q
b00000000 $R
b00000000 $S
b00000000 $T
b00000000 $U
b00000000 $V
b00000000 $W
b00000000 $X
b00000000 $Y
b00000000 $Z
b00000000 $[
b00000000 $\
b00000000 $]
b00010001 $^
b00000000 $_
b00000000 $`
b00000000 $a
b00010001 $b
b00000000 $c
b00000000 $d
b00000000 $e
b00010001 $f
b00000000 $g
b00000000 $h
b00000000 $i
$end
b0001 $
b00000000000000000000000000000100 2
b1 =
b00000000000000000000000000000100 3
b100 @
b101 F
b1 ;
b0000 $
b00000000000000000000000000000100 ?
b00000000000000000000000000000100 :
#10
1"
1(
#20
0"
1&
b00000000000100000000010000010011 #
b00000000000100000000010000010011 O
#30
1"
0&
b1 L
b001 Q
b00000000000100000000010000010011 P
b00000000000100000000010000010011 *
b1 \
b01000 ,
b00001 <
b0010011 /
b1 D
b1 B
b00000000000000000000000000000001 H
b00000000000000000000000000000001 8
b00000000000000000000000000000001 I
b00000000000000000000000000000001 .
b0 =
b00000000000000000000000000000001 A
b00000000000000000000000000000001 4
b01 J
#40
0"
1&
#50
1"
0(
b0 L
b1 5
b1 6
b000 Q
0&
b00000000000000000000000000000100 R
b1 +
b00000000000000000000000000000001 l
b00000000000000000000000000000100 7
b000100 )
b00000000000000000000000000000101 I
b00000000000000000000000000001000 ?
b00000000000000000000000000001000 2
b00000000000000000000000000001000 :
#60
0"
b00000000000000000000000000000000 #
b00000000000000000000000000000000 O
#70
1"
1(
b0 5
b0 6
b0 +
#80
0"
b00000000000100000000010010010011 #
1&
b00000000000100000000010010010011 O
#90
1"
b1 L
b001 Q
0&
b00000000000100000000010010010011 P
b00000000000100000000010010010011 *
b01001 ,
#100
0"
1&
#110
1"
0&
0(
b0 L
b1 5
b1 6
b000 Q
b00000000000000000000000000001000 R
b1 +
b00000000000000000000000000000001 m
b00000000000000000000000000001000 7
b00000000000000000000000000001100 2
b00000000000000000000000000001100 ?
b00000000000000000000000000001001 I
b001000 )
b00000000000000000000000000001100 :
#120
0"
b00000000000000000000000000000000 #
b00000000000000000000000000000000 O
#130
1"
1(
b0 5
b0 6
b0 +
#140
0"
1&
b00000000001001000000010000010011 #
b00000000001001000000010000010011 O
#150
1"
0&
b1 L
b001 Q
b00000000001001000000010000010011 P
b00000000001001000000010000010011 *
b0001 [
b0 \
b01000 ,
b00010 <
b01000 >
b00000000000000000000000000000001 -
b00000000000000000000000000000010 H
b00000000000000000000000000000010 8
b00000000000000000000000000001010 I
b00000000000000000000000000000010 .
b00000000000000000000000000000010 A
b10 J
b00000000000000000000000000000010 4
b0000000000000000000000000000001 K
b00000000000000000000000000000011 A
b00000000000000000000000000000011 4
b11 J
#160
0"
1&
#170
1"
0(
b0 L
b1 5
b1 6
b000 Q
0&
b00000000000000000000000000001100 R
b1 +
b00000000000000000000000000000011 l
b00000000000000000000000000001100 7
b001100 )
b00000000000000000000000000001110 I
b00000000000000000000000000010000 ?
b00000000000000000000000000010000 2
b00000000000000000000000000000011 -
b00000000000000000000000000000101 A
b00000000000000000000000000010000 :
b00000000000000000000000000000101 4
b01 J
b0000000000000000000000000000010 K
#180
0"
b00000000000000000000000000000000 #
b00000000000000000000000000000000 O
#190
1"
1(
b0 5
b0 6
b0 +
#200
0"
b00000000000101000000010000010011 #
1&
b00000000000101000000010000010011 O
#210
1"
b1 L
b001 Q
0&
b00000000000101000000010000010011 P
b00000000000101000000010000010011 *
b00001 <
b0000 [
b1 \
b00000000000000000000000000000001 H
b00000000000000000000000000000001 8
b00000000000000000000000000001101 I
b00000000000000000000000000000001 .
b00000000000000000000000000000100 A
b00000000000000000000000000000100 4
b00 J
#220
0"
1&
#230
1"
0&
0(
b0 L
b1 5
b1 6
b000 Q
b00000000000000000000000000010000 R
b1 +
b00000000000000000000000000000100 l
b00000000000000000000000000010000 7
b010000 )
b00000000000000000000000000010001 I
b00000000000000000000000000010100 2
b00000000000000000000000000010100 ?
b00000000000000000000000000000100 -
b00000000000000000000000000000101 A
b00000000000000000000000000010100 :
b00000000000000000000000000000101 4
b01 J
#240
0"
b00000000000000000000000000000000 #
b00000000000000000000000000000000 O
#250
1"
1(
b0 5
b0 6
b0 +
#260
0"
1&
b00000010100000000000000001101111 #
b00000010100000000000000001101111 O
