Simulaciones/tbAND.vcd
$date
    Tue Nov 29 13:08:10 2016
$end
$version
    MyHDL 1.0dev
$end
$timescale
    1ns
$end

$scope module tbAND $end
$var reg 32 ! dataout $end
$var reg 32 " data1 $end
$var reg 32 # data2 $end
$scope module AND_1 $end
$var reg 32 ! dataout $end
$var reg 32 " data1 $end
$var reg 32 # data2 $end
$upscope $end
$upscope $end

$enddefinitions $end
$dumpvars
b00000000000000000000000000000000 !
b00000000000000000000000000000000 "
b00000000000000000000000000000000 #
$end
#5
b10101100110100100000001011110000 "
b11000011011000111110110110100010 #
b10000000010000100000000010100000 !
#10
b00111001111000110101001101100111 "
b11000011001111101110100011110100 #
b00000001001000100100000001100100 !
#15
b00000000101010110110011110001101 "
b01001100010010101110111101010101 #
b00000000000010100110011100000101 !
#20
b01111011110101010001110001011000 "
b10000110000010100100100011110110 #
b00000010000000000000100001010000 !
#25
b00101100000011011111001111100000 "
b00110101010111100101110101011001 #
b00100100000011000101000101000000 !
#30
b10101011001010111110011000101110 "
b00011010101111111101110001110011 #
b00001010001010111100010000100010 !
#35
b01000000010110111010100011011001 "
b10100000111101110000010011011000 #
b00000000010100110000000011011000 !
#40
b10011011110001000101101001101111 "
b00101111000100011010111111001010 #
b00001011000000000000101001001010 !
#45
b10010101000010011011001100101001 "
b01101001100110111001000010011001 #
b00000001000010011001000000001001 !
#50
b00101111111001100000101011011010 "
b01101010101010110111100001011101 #
b00101010101000100000100001011000 !
#55
b10010101001100000011011110101110 "
b01001001010111111110111110011110 #
b00000001000100000010011110001110 !
#60
b11001101101111110110100100010111 "
b00001110101000100001110100001100 #
b00001100101000100000100100000100 !
#65
b10110111101110100011110100111100 "
b01000110001101110000011001111001 #
b00000110001100100000010000111000 !
#70
b01000000000001101100011101010001 "
b01001010011010101111000010010111 #
b01000000000000101100000000010001 !
#75
b00000001111100110101000100011000 "
b00010101111100100101111001111100 #
b00000001111100100101000000011000 !
#80
b11101101110110011010110101001111 "
b00100010011011000001101100110110 #
b00100000010010000000100100000110 !
#85
b00001100110110000000101111110101 "
b11001011100100110101001010001111 #
b00001000100100000000001010000101 !
#90
b01011101010101111101111001000111 "
b11000000111110000011101010010001 #
b01000000010100000001101000000001 !
#95
b01011110100101011100110000110010 "
b01010011101110011011111110100010 #
b01010010100100011000110000100010 !
#100
b01111010010010110101111111000101 "
b01110100011011011001100001111011 #
b01110000010010010001100001000001 !
#105
b00110001011101110010010110111000 "
b11001101110101001011011101111101 #
b00000001010101000010010100111000 !
#110
b01100000010010110011011001100001 "
b10111101011100000100101111001000 #
b00100000010000000000001001000000 !
#115
b10001000100000010001111101110111 "
b11001001110010110101001101111000 #
b10001000100000010001001101110000 !
#120
b11000100101110111100001111111100 "
b11110010000010010110010000100000 #
b11000000000010010100000000100000 !
#125
b00001111111010110111011000101010 "
b10001111010101111000001010001100 #
b00001111010000110000001000001000 !
#130
b00101111001100101101110110111011 "
b00000000011110101110101001001011 #
b00000000001100101100100000001011 !
#135
b10000000100001000000101010011001 "
b11101101110011111010011100001010 #
b10000000100001000000001000001000 !
#140
b10000001110010011011110100000000 "
b01001001011101100101110111011111 #
b00000001010000000001110100000000 !
#145
b00001000111111101110010100001010 "
b00101101010110100111010010101110 #
b00001000010110100110010000001010 !
#150
b11010010101000100010101001001001 "
b10000000100111011011111010101001 #
b10000000100000000010101000001001 !
#155
b00001010001100010100001110001101 "
b00011110101101111010000110000010 #
b00001010001100010000000110000000 !
#160
b01001001100010111011000010111101 "
b11101101000110110111010010011110 #
b01001001000010110011000010011100 !
#165
b11000111101101101111011011100001 "
b11110101111110110110000101001011 #
b11000101101100100110000001000001 !
#170
b01101101011011011010101001010110 "
b01011011001110010111001011111010 #
b01001001001010010010001001010010 !
#175
b01110100110010001100100001100100 "
b00111100000100100111100101101101 #
b00110100000000000100100001100100 !
#180
b11000111110001100001000110010101 "
b01011100001100100010010011101110 #
b01000100000000100000000010000100 !
#185
b10111011001011011100011000111111 "
b11101000001101101001000110001000 #
b10101000001001001000000000001000 !
#190
b11001101110010010111100010111100 "
b10011001110100100011110001001010 #
b10001001110000000011100000001000 !
#195
b01111001001000111011001111001101 "
b10101111100000111111010110010110 #
b00101001000000111011000110000100 !
#200
b10010001000100000001000111000100 "
b00110011100010100000010110011100 #
b00010001000000000000000110000100 !
#205
b11000010110010011010100101110001 "
b10011111101100010101110101010100 #
b10000010100000010000100101010000 !
#210
b10010111010100001100011110001100 "
b10010110000010010010010000100011 #
b10010110000000000000010000000000 !
#215
b00001001101011011110100101101011 "
b11010111011100100100101100000110 #
b00000001001000000100100100000010 !
#220
b01101010101101100100110110011010 "
b01101010101000001010111001000001 #
b01101010101000000000110000000000 !
#225
b01010111010100101101101100100001 "
b11101001101010000100100100011101 #
b01000001000000000100100100000001 !
#230
b11011000010111111001111111000010 "
b11110010101001100001001011011001 #
b11010000000001100001001011000000 !
#235
b11000010111001111101100001011011 "
b00111101010000111110111110100110 #
b00000000010000111100100000000010 !
#240
b01111100101000001000000010101010 "
b10111001000001110101100010111101 #
b00111000000000000000000010101000 !
#245
b11101001010010000001100010110010 "
b11111000100011100000001011001001 #
b11101000000010000000000010000000 !
#250
b11000100011000011001000110010011 "
b00100001110001111110010010000101 #
b00000000010000011000000010000001 !
#255
b10101100011011110000101000000000 "
b01010100000101110111111001111100 #
b00000100000001110000101000000000 !
#260
b01001110000101110010011000100000 "
b00111110011011001100100010111001 #
b00001110000001000000000000100000 !
#265
b10111110101111110001000011011101 "
b10001000000101010100001101111001 #
b10001000000101010000000001011001 !
#270
b11011101110101000110111101111101 "
b01011001011101001111110000001111 #
b01011001010101000110110000001101 !
#275
b00000110101111100000101011100100 "
b11000111110010000001111110111100 #
b00000110100010000000101010100100 !
#280
b11000011110010110100101101010010 "
b10100100111101101101011111101100 #
b10000000110000100100001101000000 !
#285
b11100100110010000010110100000101 "
b00100110101111010001110010100010 #
b00100100100010000000110000000000 !
#290
b00101011110101000110000000101100 "
b11100101110111011001010110011001 #
b00100001110101000000000000001000 !
#295
b11011010111011011110011001011100 "
b01000001011101100110001001110100 #
b01000000011001000110001001010100 !
#300
b01011111100010101101110000000111 "
b01101011100100000001110010101001 #
b01001011100000000001110000000001 !
#305
b10011011001110010100010011011111 "
b11001000110100001011110000010010 #
b10001000000100000000010000010010 !
#310
b00110111101011111011011011100110 "
b11010011100100001111000110110011 #
b00010011100000001011000010100010 !
#315
b10000000110110111000111100011010 "
b10100110110101000011000000011010 #
b10000000110100000000000000011010 !
#320
b11101010001100010011010111001110 "
b11000011111101011110111100111010 #
b11000010001100010010010100001010 !
#325
b11111001001001101101100011101001 "
b00100000000111110101010100111101 #
b00100000000001100101000000101001 !
#330
b01011100101101001011011101010001 "
b11011000100110001100010101111000 #
b01011000100100001000010101010000 !
#335
b00000110110001111110010000000010 "
b10011000111001011000111101001100 #
b00000000110001011000010000000000 !
#340
b01100111000111000101100010111111 "
b11110010001000100001110000000011 #
b01100010000000000001100000000011 !
#345
b10100011101011100110111010011000 "
b01111001011000011011111010011011 #
b00100001001000000010111010011000 !
#350
b01001110111111100111010110100110 "
b01011010101110011101101001000010 #
b01001010101110000101000000000010 !
#355
b00001111111111000110111010010111 "
b10111111100111111000101110111011 #
b00001111100111000000101010010011 !
#360
b11000000101110000011100000011010 "
b10101111111001110011100110111100 #
b10000000101000000011100000011000 !
#365
b00101010000111010100001101101010 "
b10001110111110110111010111000010 #
b00001010000110010100000101000010 !
#370
b01110001100110011101101111111111 "
b10111111001111000010100111100110 #
b00110001000110000000100111100110 !
#375
b01101111000101001111101001001100 "
b00101011101001001010101000101011 #
b00101011000001001010101000001000 !
#380
b01111110001111100101101000001101 "
b00101001110110000110111110000100 #
b00101000000110000100101000000100 !
#385
b00101111010110011010001111011011 "
b11110000101000000110100101111110 #
b00100000000000000010000101011010 !
#390
b01110001100111000000011001011100 "
b11100111011000011001101011011100 #
b01100001000000000000001001011100 !
#395
b11001001010101000000111110001101 "
b11111011011100011000111000010000 #
b11001001010100000000111000000000 !
#400
b10100010001110000101101111001111 "
b01000110000101101100100111101111 #
b00000010000100000100100111001111 !
#405
b10010000100010000111111010100000 "
b11100000011100001110011000101011 #
b10000000000000000110011000100000 !
#410
b00011111011111111100110101101001 "
b11001111111101101000111110101010 #
b00001111011101101000110100101000 !
#415
b00000110011101100111011100110101 "
b01100101010100111001100011011001 #
b00000100010100100001000000010001 !
#420
b10010100100000011110101001111000 "
b00011101111010111111100010100001 #
b00010100100000011110100000100000 !
#425
b11100011101011100010110000011110 "
b01110011100011100110000010111011 #
b01100011100011100010000000011010 !
#430
b10110111000101011100010011001000 "
b11100111010001111111000011101000 #
b10100111000001011100000011001000 !
#435
b00001100101101110111000010001000 "
b01101001101001110001010110100010 #
b00001000101001110001000010000000 !
#440
b11000100100100010001100010011000 "
b01011100010110001101010110010111 #
b01000100000100000001000010010000 !
#445
b10101101010110101101010000111101 "
b00110001111010011110101000111001 #
b00100001010010001100000000111001 !
#450
b00001101000100000101100111101100 "
b01101010111101000110100111100011 #
b00001000000100000100100111100000 !
#455
b11111111100010000100011110010010 "
b01010110000011111111111001111110 #
b01010110000010000100011000010010 !
#460
b00100111011000110001110011011101 "
b10010110110011101101111111000011 #
b00000110010000100001110011000001 !
#465
b01101000101110001011110100101000 "
b00111000000011011001001001000111 #
b00101000000010001001000000000000 !
#470
b00010101101011010011111000110100 "
b11100100011010011100011111001101 #
b00000100001010010000011000000100 !
#475
b00010111101010000011001001101010 "
b11000110011000100011111111111010 #
b00000110001000000011001001101010 !
#480
b10010100001110111110111011000010 "
b10110111111100111000011100100001 #
b10010100001100111000011000000000 !
#485
b00000000001011111010101000011111 "
b10010111001111101110110011001100 #
b00000000001011101010100000001100 !
#490
b01100110010010110011000111100001 "
b11111010010000000011110110010101 #
b01100010010000000011000110000001 !
#495
b11001111100111110011010111011111 "
b10101010100101001001111111100110 #
b10001010100101000001010111000110 !
#500
b00101100111011000000010000101010 "
b10100101111111010010101101001001 #
b00100100111011000000000000001000 !
