Simulaciones/tbBRAMsimple.vcd
$date
    Sat Nov 26 18:16:55 2016
$end
$version
    MyHDL 1.0dev
$end
$timescale
    1ns
$end

$scope module tbBRAMsimple $end
$var reg 1 ! clk $end
$var reg 1 " we $end
$var reg 32 # di $end
$var reg 32 $ do $end
$var reg 1 % done $end
$var reg 5 & addr $end
$var reg 1 ' re $end
$var reg 4 ( enstore $end
$scope module BRAM_1 $end
$var reg 1 ! clk $end
$var reg 5 & addr $end
$var reg 32 # di $end
$var reg 1 ' re $end
$var reg 1 % done $end
$var reg 32 $ do $end
$var reg 1 " we $end
$var reg 4 ( enstore $end
$scope module ramregsblock1 $end
$var reg 8 ) ramregsblock1(0) $end
$var reg 8 * ramregsblock1(1) $end
$var reg 8 + ramregsblock1(2) $end
$var reg 8 , ramregsblock1(3) $end
$var reg 8 - ramregsblock1(4) $end
$var reg 8 . ramregsblock1(5) $end
$var reg 8 / ramregsblock1(6) $end
$var reg 8 0 ramregsblock1(7) $end
$var reg 8 1 ramregsblock1(8) $end
$var reg 8 2 ramregsblock1(9) $end
$var reg 8 3 ramregsblock1(10) $end
$var reg 8 4 ramregsblock1(11) $end
$var reg 8 5 ramregsblock1(12) $end
$var reg 8 6 ramregsblock1(13) $end
$var reg 8 7 ramregsblock1(14) $end
$var reg 8 8 ramregsblock1(15) $end
$var reg 8 9 ramregsblock1(16) $end
$var reg 8 : ramregsblock1(17) $end
$var reg 8 ; ramregsblock1(18) $end
$var reg 8 < ramregsblock1(19) $end
$var reg 8 = ramregsblock1(20) $end
$var reg 8 > ramregsblock1(21) $end
$var reg 8 ? ramregsblock1(22) $end
$var reg 8 @ ramregsblock1(23) $end
$var reg 8 A ramregsblock1(24) $end
$var reg 8 B ramregsblock1(25) $end
$var reg 8 C ramregsblock1(26) $end
$var reg 8 D ramregsblock1(27) $end
$var reg 8 E ramregsblock1(28) $end
$var reg 8 F ramregsblock1(29) $end
$var reg 8 G ramregsblock1(30) $end
$var reg 8 H ramregsblock1(31) $end
$upscope $end
$scope module ramregsblock3 $end
$var reg 8 I ramregsblock3(0) $end
$var reg 8 J ramregsblock3(1) $end
$var reg 8 K ramregsblock3(2) $end
$var reg 8 L ramregsblock3(3) $end
$var reg 8 M ramregsblock3(4) $end
$var reg 8 N ramregsblock3(5) $end
$var reg 8 O ramregsblock3(6) $end
$var reg 8 P ramregsblock3(7) $end
$var reg 8 Q ramregsblock3(8) $end
$var reg 8 R ramregsblock3(9) $end
$var reg 8 S ramregsblock3(10) $end
$var reg 8 T ramregsblock3(11) $end
$var reg 8 U ramregsblock3(12) $end
$var reg 8 V ramregsblock3(13) $end
$var reg 8 W ramregsblock3(14) $end
$var reg 8 X ramregsblock3(15) $end
$var reg 8 Y ramregsblock3(16) $end
$var reg 8 Z ramregsblock3(17) $end
$var reg 8 [ ramregsblock3(18) $end
$var reg 8 \ ramregsblock3(19) $end
$var reg 8 ] ramregsblock3(20) $end
$var reg 8 ^ ramregsblock3(21) $end
$var reg 8 _ ramregsblock3(22) $end
$var reg 8 ` ramregsblock3(23) $end
$var reg 8 a ramregsblock3(24) $end
$var reg 8 b ramregsblock3(25) $end
$var reg 8 c ramregsblock3(26) $end
$var reg 8 d ramregsblock3(27) $end
$var reg 8 e ramregsblock3(28) $end
$var reg 8 f ramregsblock3(29) $end
$var reg 8 g ramregsblock3(30) $end
$var reg 8 h ramregsblock3(31) $end
$upscope $end
$scope module ramregsblock4 $end
$var reg 8 i ramregsblock4(0) $end
$var reg 8 j ramregsblock4(1) $end
$var reg 8 k ramregsblock4(2) $end
$var reg 8 l ramregsblock4(3) $end
$var reg 8 m ramregsblock4(4) $end
$var reg 8 n ramregsblock4(5) $end
$var reg 8 o ramregsblock4(6) $end
$var reg 8 p ramregsblock4(7) $end
$var reg 8 q ramregsblock4(8) $end
$var reg 8 r ramregsblock4(9) $end
$var reg 8 s ramregsblock4(10) $end
$var reg 8 t ramregsblock4(11) $end
$var reg 8 u ramregsblock4(12) $end
$var reg 8 v ramregsblock4(13) $end
$var reg 8 w ramregsblock4(14) $end
$var reg 8 x ramregsblock4(15) $end
$var reg 8 y ramregsblock4(16) $end
$var reg 8 z ramregsblock4(17) $end
$var reg 8 { ramregsblock4(18) $end
$var reg 8 | ramregsblock4(19) $end
$var reg 8 } ramregsblock4(20) $end
$var reg 8 ~ ramregsblock4(21) $end
$var reg 8 "! ramregsblock4(22) $end
$var reg 8 "" ramregsblock4(23) $end
$var reg 8 "# ramregsblock4(24) $end
$var reg 8 "$ ramregsblock4(25) $end
$var reg 8 "% ramregsblock4(26) $end
$var reg 8 "& ramregsblock4(27) $end
$var reg 8 "' ramregsblock4(28) $end
$var reg 8 "( ramregsblock4(29) $end
$var reg 8 ") ramregsblock4(30) $end
$var reg 8 "* ramregsblock4(31) $end
$upscope $end
$scope module ramregsblock2 $end
$var reg 8 "+ ramregsblock2(0) $end
$var reg 8 ", ramregsblock2(1) $end
$var reg 8 "- ramregsblock2(2) $end
$var reg 8 ". ramregsblock2(3) $end
$var reg 8 "/ ramregsblock2(4) $end
$var reg 8 "0 ramregsblock2(5) $end
$var reg 8 "1 ramregsblock2(6) $end
$var reg 8 "2 ramregsblock2(7) $end
$var reg 8 "3 ramregsblock2(8) $end
$var reg 8 "4 ramregsblock2(9) $end
$var reg 8 "5 ramregsblock2(10) $end
$var reg 8 "6 ramregsblock2(11) $end
$var reg 8 "7 ramregsblock2(12) $end
$var reg 8 "8 ramregsblock2(13) $end
$var reg 8 "9 ramregsblock2(14) $end
$var reg 8 ": ramregsblock2(15) $end
$var reg 8 "; ramregsblock2(16) $end
$var reg 8 "< ramregsblock2(17) $end
$var reg 8 "= ramregsblock2(18) $end
$var reg 8 "> ramregsblock2(19) $end
$var reg 8 "? ramregsblock2(20) $end
$var reg 8 "@ ramregsblock2(21) $end
$var reg 8 "A ramregsblock2(22) $end
$var reg 8 "B ramregsblock2(23) $end
$var reg 8 "C ramregsblock2(24) $end
$var reg 8 "D ramregsblock2(25) $end
$var reg 8 "E ramregsblock2(26) $end
$var reg 8 "F ramregsblock2(27) $end
$var reg 8 "G ramregsblock2(28) $end
$var reg 8 "H ramregsblock2(29) $end
$var reg 8 "I ramregsblock2(30) $end
$var reg 8 "J ramregsblock2(31) $end
$upscope $end
$upscope $end
$upscope $end

$enddefinitions $end
$dumpvars
0!
0"
b00000000000000000000000000000000 #
b00000000000000000000000000000000 $
0%
b00000 &
0'
b0000 (
b00000000 )
b00000000 *
b00000000 +
b00000000 ,
b00000000 -
b00000000 .
b00000000 /
b00000000 0
b00000000 1
b00000000 2
b00000000 3
b00000000 4
b00000000 5
b00000000 6
b00000000 7
b00000000 8
b00000000 9
b00000000 :
b00000000 ;
b00000000 <
b00000000 =
b00000000 >
b00000000 ?
b00000000 @
b00000000 A
b00000000 B
b00000000 C
b00000000 D
b00000000 E
b00000000 F
b00000000 G
b00000000 H
b00000000 I
b00000000 J
b00000000 K
b00000000 L
b00000000 M
b00000000 N
b00000000 O
b00000000 P
b00000000 Q
b00000000 R
b00000000 S
b00000000 T
b00000000 U
b00000000 V
b00000000 W
b00000000 X
b00000000 Y
b00000000 Z
b00000000 [
b00000000 \
b00000000 ]
b00000000 ^
b00000000 _
b00000000 `
b00000000 a
b00000000 b
b00000000 c
b00000000 d
b00000000 e
b00000000 f
b00000000 g
b00000000 h
b00000000 i
b00000000 j
b00000000 k
b00000000 l
b00000000 m
b00000000 n
b00000000 o
b00000000 p
b00000000 q
b00000000 r
b00000000 s
b00000000 t
b00000000 u
b00000000 v
b00000000 w
b00000000 x
b00000000 y
b00000000 z
b00000000 {
b00000000 |
b00000000 }
b00000000 ~
b00000000 "!
b00000000 ""
b00000000 "#
b00000000 "$
b00000000 "%
b00000000 "&
b00000000 "'
b00000000 "(
b00000000 ")
b00000000 "*
b00000000 "+
b00000000 ",
b00000000 "-
b00000000 ".
b00000000 "/
b00000000 "0
b00000000 "1
b00000000 "2
b00000000 "3
b00000000 "4
b00000000 "5
b00000000 "6
b00000000 "7
b00000000 "8
b00000000 "9
b00000000 ":
b00000000 ";
b00000000 "<
b00000000 "=
b00000000 ">
b00000000 "?
b00000000 "@
b00000000 "A
b00000000 "B
b00000000 "C
b00000000 "D
b00000000 "E
b00000000 "F
b00000000 "G
b00000000 "H
b00000000 "I
b00000000 "J
$end
#7
b01111001001111001101110011000001 #
b11001 &
1"
1'
b0011 (
1!
b11000001 B
b11011100 "D
#14
0!
b00111000011110111111111110010000 #
b10011 &
b1100 (
1%
#21
b00001011011101000000000100001101 #
b11011 &
b0011 (
1!
b00001101 D
b00000001 "F
0%
#28
0!
b11010011000100010001100010101110 #
1%
#35
b01101011111000101111000011111001 #
b01001 &
b1000 (
1!
0%
b11111001 r
#42
0!
b10100101110101110101110111000100 #
b11100 &
b0100 (
1%
#49
b01011000100111101101000101010000 #
b01110 &
1!
b01010000 W
0%
#56
0!
b01100111111111000110100101101000 #
b01101 &
b0011 (
1%
#63
b10100101011000001100010010101110 #
b00110 &
b0001 (
1!
0%
b10101110 /
#70
0!
b10001111101101010110100000111010 #
b00010 &
b0100 (
1%
#77
b00110110110011011100000111111010 #
b10101 &
b1000 (
1!
b11111010 ~
0%
#84
0!
b11110100111000110011001111110001 #
b11101 &
b0010 (
1%
#91
b00011001011101111010000100010100 #
b00010 &
b0001 (
1!
0%
b00010100 +
#98
0!
b01011010100101101011010011010001 #
b11110 &
b1111 (
1%
#105
b10011111000101101100100001000000 #
b01100 &
b0001 (
1!
b01000000 5
0%
#112
0!
b00100110101101010001100001010100 #
b10001 &
b0010 (
1%
#119
b10001110001000111001100010001011 #
b11010 &
b1111 (
1!
0%
b10001011 C
b10011000 "E
b00100011 c
b01000111 "%
#126
0!
b10011110100100101100111001000111 #
b10100 &
1%
#133
b10110000110111110000001010001000 #
b11100 &
1!
b10001000 E
b00000010 "G
b11011111 e
b01011000 "'
0%
#140
0!
b00111111110110100100010011100000 #
b00011 &
b1100 (
1%
#147
b10101000110101010100001111000110 #
b10010 &
b0010 (
1!
0%
b11000110 "=
#154
0!
b10100010011111100000100111110001 #
b10000 &
1%
#161
b01101111100001100100101011101111 #
b11001 &
1!
b00000000000000001101110011000001 $
b11101111 "D
0%
#168
0!
b11110110011010010110011100100101 #
b11100 &
b0011 (
1%
#175
b01001100001001001010101100111100 #
b11001 &
b0001 (
1!
0%
b00111100 B
b00000000000000001110111111000001 $
#182
0!
b00111011011110001011010010011010 #
b01111 &
b1100 (
1%
#189
b11000110000111110111000110011000 #
b11011 &
b1000 (
1!
b00000000000000000000000100001101 $
b10011000 "&
0%
#196
0!
b01011100001111001000111111110101 #
b00011 &
b0010 (
1%
#203
b10111110000000000111100011010001 #
b10011 &
1!
0%
b11010001 ">
b00000000000000000000000000000000 $
#210
0!
b11011011111111000100100010011000 #
b10001 &
b0100 (
1%
#217
b01011110111100000001000000110001 #
b00010 &
b0010 (
1!
b00000000000000000000000000010100 $
b00110001 "-
0%
#224
0!
b10100111010100001011011101111001 #
b01110 &
b1111 (
1%
#231
b00010010101100000001100111100100 #
b00110 &
b1000 (
1!
0%
b11100100 o
b00000000000000000000000010101110 $
#238
0!
b11011000100011010100100010001111 #
b01000 &
b0100 (
1%
#245
b01100101110010111010101100000001 #
b00101 &
1!
b00000000000000000000000000000000 $
b00000001 N
0%
#252
0!
b00010010101001100001100100110010 #
b10011 &
b1100 (
1%
#259
b00001110010111001101010110001001 #
b10110 &
b0010 (
1!
0%
b10001001 "A
#266
0!
b11011111101011011000100100000101 #
b00000 &
1%
#273
b01101110010110001110110001000111 #
b11111 &
b0011 (
1!
b01000111 H
b11101100 "J
0%
#280
0!
b01110100000000001000000101101011 #
b10011 &
b1111 (
1%
#287
b00111111100111111011110011110001 #
b11000 &
1!
0%
b11110001 A
b10111100 "C
b10011111 a
b00011111 "#
#294
0!
b00001001110011010100001010011100 #
b00011 &
b0010 (
1%
#301
b11100000100001010111011010111111 #
b10111 &
b0100 (
1!
b10111111 `
0%
#308
0!
b11110001010010101010010111010011 #
b01011 &
b1000 (
1%
#315
b01000110100000001101001010001010 #
b11001 &
b0100 (
1!
0%
b10001010 b
b00000000000000001110111100111100 $
#322
0!
b01101001101000011011110111110100 #
b01100 &
b1000 (
1%
#329
b10011110110101010001000010000111 #
b10110 &
b0100 (
1!
b00000000000000001000100100000000 $
b10000111 _
0%
#336
0!
b11101011010111011010000010010000 #
b01111 &
b0010 (
1%
#343
b11000001100001100101011111000001 #
b01010 &
b1111 (
1!
0%
b11000001 3
b01010111 "5
b10000110 S
b01100000 s
b00000000000000000000000000000000 $
#350
0!
b11000010010000111010011001010111 #
b11110 &
b1000 (
1%
#357
b01100001001000000111110001010101 #
b01001 &
b0011 (
1!
b11111001000000000000000000000000 $
b01010101 2
b01111100 "4
0%
#364
0!
b10000000000001011001110110110110 #
b01010 &
b1100 (
1%
#371
b10110111111100100010110110110010 #
b00110 &
b1000 (
1!
0%
b10110010 o
b11100100000000000000000010101110 $
#378
0!
b01110101100110111001100101001111 #
b10001 &
b1111 (
1%
#385
b11011001000110100111100000100000 #
b11100 &
b1100 (
1!
b01011000110111110000001010001000 $
b00100000 e
b01111000 "'
0%
#392
0!
b01100100110101010001010100001110 #
b01100 &
1%
#399
b01101010010001001111111110011000 #
b11011 &
b0100 (
1!
0%
b10011000 d
b10011000000000000000000100001101 $
#406
0!
b00000101000100100000000011110000 #
b01110 &
b1111 (
1%
#413
b01000100001010001000001100111001 #
b00100 &
b1000 (
1!
b00000000000000000000000000000000 $
b00111001 m
0%
#420
0!
b11011111111011000110110001001001 #
b10010 &
b1111 (
1%
#427
b01000001111110100010111011000111 #
b00000 &
b0100 (
1!
0%
b11000111 I
#434
0!
b10011000111011110110111101110000 #
b01000 &
1%
#441
b10011100001100101101110011111011 #
b00100 &
b0011 (
1!
b00111001000000000000000000000000 $
b11111011 -
b11011100 "/
0%
#448
0!
b11101101010111010110001001110111 #
b11000 &
1%
#455
b10000110000110011000101110100101 #
b11001 &
1!
0%
b10100101 B
b10001011 "D
b00000000100010101110111100111100 $
#462
0!
b01110000101100100111000110000100 #
b11010 &
b0010 (
1%
#469
b00100000100011111100110101011100 #
b10100 &
b0011 (
1!
b00000000000000000000000000000000 $
b01011100 =
b11001101 "?
0%
#476
0!
b10001110100000100111111100000011 #
b01010 &
b0100 (
1%
#483
b10111100011001010111000101101111 #
b10001 &
b1100 (
1!
0%
b01101111 Z
b01110001 z
#490
0!
b01100010100000011000100101011101 #
b00111 &
b1111 (
1%
#497
b01100000100101000100101101110110 #
b10010 &
b0011 (
1!
b00000000000000001100011000000000 $
b01110110 ;
b01001011 "=
0%
#504
0!
b11010000101000100010011000100110 #
b10101 &
b0100 (
1%
#511
b00111011111001111000110100110000 #
b01110 &
1!
0%
b00110000 W
b00000000010100000000000000000000 $
#518
0!
b01001010000011011100101110111101 #
b10000 &
b0010 (
1%
#525
b01000111011101010010000111000101 #
b11001 &
b0011 (
1!
b00000000100010101000101110100101 $
b11000101 B
b00100001 "D
0%
#532
0!
b00010101010010101011100101100110 #
b11011 &
1%
#539
b10100011000000111011111011010010 #
b00111 &
b0001 (
1!
0%
b11010010 0
b00000000000000000000000000000000 $
#546
0!
b11111110100101011010100101011000 #
b00110 &
b0011 (
1%
#553
b10110110110001001000010011000001 #
b10110 &
b0001 (
1!
b00000000100001111000100100000000 $
b11000001 ?
0%
#560
0!
b01101010001100100101101000110011 #
b00011 &
b0100 (
1%
#567
b11101000110010010001111100000100 #
b10111 &
b1111 (
1!
0%
b00000100 @
b00011111 "B
b11001001 `
b01110100 ""
b00000000101111110000000000000000 $
#574
0!
b11101111011001100001100101011100 #
b10101 &
b1100 (
1%
#581
b11011110111101100011001111101001 #
b01010 &
b1000 (
1!
b01100000100001100101011111000001 $
b11101001 s
0%
#588
0!
b10011111001111001110011101111100 #
b01101 &
b0010 (
1%
#595
b00001100100000111010001111100000 #
b10101 &
1!
0%
b11100000 "@
b11111010000000000000000000000000 $
#602
0!
b01111100010010111111110100011011 #
b00000 &
b1111 (
1%
#609
b01010011011101000110101010000101 #
b00001 &
1!
b00000000000000000000000000000000 $
b10000101 *
b01101010 ",
b01110100 J
b00101001 j
0%
#616
0!
b10111000011101101111001010011110 #
b01110 &
1%
#623
b00111111001111000111010010000000 #
b10001 &
b1000 (
1!
0%
b10000000 z
b01110001011011110000000000000000 $
#630
0!
b01001111101000100101001011010011 #
b01111 &
b0010 (
1%
#637
b10101100101101100101010100011110 #
b11001 &
b1111 (
1!
b00000000100010100010000111000101 $
b00011110 B
b01010101 "D
b10110110 b
b01010110 "$
0%
#644
0!
b11010001101011000100100011100011 #
b10111 &
b1100 (
1%
#651
b11000000011011100111110000001010 #
1!
0%
b00001010 `
b01111100 ""
b01110100110010010001111100000100 $
#658
0!
b01111111100010101101000110011110 #
b10100 &
b1111 (
1%
#665
b00100001000000011001010101001110 #
b11011 &
b1100 (
1!
b10011000100110000000000100001101 $
b01001110 d
b10010101 "&
0%
#672
0!
b00110011000000110000011110000001 #
b11010 &
b0011 (
1%
#679
b01000011110101001000011001010001 #
b10000 &
b0010 (
1!
0%
b01010001 ";
b00000000000000000000000000000000 $
#686
0!
b10110111101111011100110111110010 #
b10001 &
b1000 (
1%
#693
b11100010110010111000101111100001 #
b11101 &
b0001 (
1!
b11100001 F
0%
#700
0!
b11011100000001010101010000011101 #
b11010 &
b0100 (
1%
#707
b01001100100110110011011101010110 #
b00011 &
1!
0%
b01010110 L
#714
0!
b11001100001100001101011100011010 #
b10001 &
b0010 (
1%
#721
b10110001100011011001010010010010 #
b01111 &
b0011 (
1!
b10010010 8
b10010100 ":
0%
#728
0!
b01111111110101111100001111110111 #
b00011 &
b1100 (
1%
#735
b10100111000100111100101011110100 #
b11010 &
1!
0%
b11110100 c
b11001010 "%
b01000111001000111001100010001011 $
#742
0!
b10001000100011100100010100101110 #
b10101 &
b0010 (
1%
#749
b11001111010111111000110111000010 #
b01010 &
b0011 (
1!
b11101001100001100101011111000001 $
b11000010 3
b10001101 "5
0%
#756
0!
b10111010000101100100110011001100 #
b11100 &
b1100 (
1%
#763
b00010111111000001100001101000101 #
b11101 &
1!
0%
b01000101 f
b11000011 "(
b00000000000000000000000011100001 $
#770
0!
b11111011011000001101110111101110 #
b11100 &
b0011 (
1%
#777
b00000000110001010001001010011010 #
b01011 &
b0100 (
1!
b00000000000000000000000000000000 $
b10011010 T
0%
#784
0!
b01010110001001101000000101110001 #
b00011 &
b1000 (
1%
#791
b01000100100101001110110101011101 #
b00010 &
b0010 (
1!
0%
b01011101 "-
b00000000000000000011000100010100 $
#798
0!
b10111100000110101001011001000010 #
b10000 &
1%
#805
b00101010110001110110010000001100 #
b00000 &
b1100 (
1!
b00000000110001110000000000000000 $
b00001100 I
b01100100 i
0%
#812
0!
b01000110000101111000110000010101 #
b01100 &
b0011 (
1%
#819
b00111111010001001111000111111101 #
b01010 &
b1000 (
1!
0%
b11111101 s
b11101001100001101000110111000010 $
#826
0!
b01100000100110001010011111101101 #
b01111 &
b0100 (
1%
#833
b10111010111111010001010000101001 #
b01011 &
b0010 (
1!
b00000000100110100000000000000000 $
b00101001 "6
0%
#840
0!
b11101110111000000001110111010001 #
b01001 &
b1000 (
1%
#847
b11100010111100110110100001000110 #
b11110 &
1!
0%
b01000110 ")
b00000000000000000000000000000000 $
#854
0!
b01100010000111010101110101110110 #
b10000 &
b1100 (
1%
#861
b11001010100001110100001110111010 #
b01011 &
b0011 (
1!
b00000000100110100010100100000000 $
b10111010 4
b01000011 "6
0%
#868
0!
b11100000011010100011010001110001 #
b01101 &
b0100 (
1%
#875
b10100111001111010100110110101101 #
b10011 &
b1100 (
1!
0%
b10101101 \
b01001101 |
b00000000000000001101000100000000 $
#882
0!
b01110001001100110101101100010101 #
b11100 &
b1000 (
1%
#889
b11110011100101111101011110010010 #
b00110 &
b0011 (
1!
b10110010000000000000000010101110 $
b10010010 /
b11010111 "1
0%
#896
0!
b10110011010100001110100110001111 #
b01001 &
b1000 (
1%
#903
b01110011011110010100100001001010 #
b10010 &
1!
0%
b01001010 {
b00000000000000000100101101110110 $
#910
0!
b11000101000111111000110110110010 #
b00000 &
b0001 (
1%
#917
b00000111001001011111110001101010 #
b00100 &
b1000 (
1!
b00111001000000001101110011111011 $
b01101010 m
0%
#924
0!
b11011011101110101001101111011010 #
b10101 &
b1111 (
1%
#931
b10111011101100101111010010101010 #
b01010 &
b0010 (
1!
0%
b10101010 "5
b11111101100001101000110111000010 $
#938
0!
b01110101101100110000001111001100 #
b00110 &
b0011 (
1%
#945
b11100001010010110111101010101100 #
b00101 &
b1111 (
1!
b00000000000000010000000000000000 $
b10101100 .
b01111010 "0
b01001011 N
b01110000 n
0%
#952
0!
b10010110001000110101011001001101 #
b10110 &
b0010 (
1%
#959
b00110011110110010100010111010111 #
b00111 &
1!
0%
b11010111 "2
b00000000000000000000000011010010 $
#966
0!
b01000011001011101101001011011111 #
b01011 &
b0011 (
1%
#973
b11100100110000101000001110110001 #
b01100 &
1!
b00000000000000000000000001000000 $
b10110001 5
b10000011 "7
0%
#980
0!
b10010001011000011101011010001110 #
b10110 &
b0010 (
1%
#987
b11110001110010001011111110100011 #
b11101 &
1!
0%
b10100011 "H
b11000011010001010000000011100001 $
#994
0!
b00110110100110000011000101000011 #
b01110 &
b1000 (
1%
