Simulaciones/tbConvInst.vcd
$date
    Wed Oct 19 15:32:37 2016
$end
$version
    MyHDL 1.0dev
$end
$timescale
    1ns
$end

$scope module tbConvInst $end
$var reg 32 ! datain $end
$var reg 32 " dataout $end
$scope module dut $end
$var reg 32 ! datain $end
$var reg 32 " dataout $end
$upscope $end
$upscope $end

$enddefinitions $end
$dumpvars
b00000000000000000000000000000000 !
b00000000000000000000000000000000 "
$end
#7
b00010100010100011010111001101111 !
b00000000000000000000000101000101 "
#14
b01110011111100010100101011100111 !
b00000000000000010100111100111110 "
#21
b11011000100001111101011011100011 !
b11111111111111111111110110001100 "
#28
b01110011011011100011010001100011 !
b00000000000000000000011100101000 "
#35
b01000110110100000000010001100011 !
b00000000000000000000010001101000 "
#42
b01110000111011111000101011100111 !
b00000000000011111000011100001110 "
#49
b00000010101001100100110010101111 !
b00000010101001100100110010101111 "
#56
b00110110010101101111111100100011 !
b00000000000000000000001101111110 "
#63
b01101011100100100000011011100011 !
b00000000000000000000111010101100 "
#70
b00100001110111000000101011100111 !
b00000000000011000000101000011100 "
#77
b00000001110001010111111111001011 !
b00000001110001010111111111001011 "
#84
b00101001011100111100001000110111 !
b00101001011100111100000000000000 "
#91
b00111110111000000010100010010011 !
b00000000000000000000001111101110 "
#98
b11100111000010100110000101100011 !
b11111111111111111111011001100010 "
#105
b01010111111101011111001010110111 !
b01010111111101011111000000000000 "
#112
b00110000011011101001110010110111 !
b00110000011011101001000000000000 "
#119
b00000010011110110011000101110011 !
b00000010011110110011000101110011 "
#126
b01111100111101011001011101110111 !
b01111100111101011001011101110111 "
#133
b00001111110010000101100111110011 !
b00001111110010000101100111110011 "
#140
b00111100000111110001001100010111 !
b00111100000111110001000000000000 "
#147
b00000100000110000101101011101011 !
b00000100000110000101101011101011 "
#154
b11001101100010010110110101100111 !
b11111111111110010110010011011000 "
#161
b00010010000011111010010100010011 !
b00000000000000000000000100100000 "
#168
b00011111011010010011110011100011 !
b00000000000000000000100111111000 "
#175
b01011001001010100110011010100011 !
b00000000000000000000010110001101 "
#182
b01001101000010100110110001110111 !
b01001101000010100110110001110111 "
#189
b00110000100101100001101011010111 !
b00110000100101100001101011010111 "
#196
b01011000100001011010000111100011 !
b00000000000000000000110110000010 "
#203
b00001100110111100010100001110011 !
b00001100110111100010100001110011 "
#210
b00011000000101001110111110010011 !
b00000000000000000000000110000001 "
#217
b00101010001011101101001000110011 !
b00101010001011101101001000110011 "
#224
b00001011100000010011100101100011 !
b00000000000000000000000010110010 "
#231
b00000011100001011000001001101111 !
b00000000000000000000000000111000 "
#238
b10110100001000010010111011101111 !
b11111111111111111111101101000010 "
#245
b00110111101010010011010011110111 !
b00110111101010010011010011110111 "
#252
b00100010111100110000101101101111 !
b00000000000000000000001000101111 "
#259
b00000111111101011101110000110111 !
b00000111111101011101000000000000 "
#266
b01111010101111111010010110100011 !
b00000000000000000000011110101011 "
#273
b11100101001000110101110011101111 !
b11111111111111111111111001010010 "
#280
b11101101111000110111001001101111 !
b11111111111111111111111011011110 "
#287
b11101100110010110101101001100011 !
b11111111111111111111011011010100 "
#294
b00100100000000110011101111100011 !
b00000000000000000000101001010110 "
#301
b10001011100001010001011111101111 !
b11111111111111111111100010111000 "
#308
b00000110110001011010111100111011 !
b00000110110001011010111100111011 "
#315
b00000111100111000011001100001011 !
b00000111100111000011001100001011 "
#322
b00100010000110000001111111010011 !
b00100010000110000001111111010011 "
#329
b00101010010010100111100010110111 !
b00101010010010100111000000000000 "
#336
b11000101101111100110110101100011 !
b11111111111111111111010001011010 "
#343
b00010101011111011000100101110011 !
b00010101011111011000100101110011 "
#350
b00001100001001000101111010110111 !
b00001100001001000101000000000000 "
#357
b00000110000011101000011111110111 !
b00000110000011101000011111110111 "
#364
b11100010010000101110000111100011 !
b11111111111111111111111000100010 "
#371
b00010010001100110000010101010011 !
b00010010001100110000010101010011 "
#378
b00000101001010111101110000111111 !
b00000101001010111101110000111111 "
#385
b00001111100111011111100001101111 !
b00000000000000000000000011111001 "
#392
b01001110001111101110001101100011 !
b00000000000000000000010011100110 "
#399
b11110010111101011101101001100111 !
b11111111111101011101111100101110 "
#406
b11100011110100010000010101100011 !
b11111111111111111111011000101010 "
#413
b01100110010000111100000101100111 !
b00000000000000111100011001100100 "
#420
b01000000001000100111111001100111 !
b00000000000000100111010000000010 "
#427
b00100111010011001011000001010011 !
b00100111010011001011000001010011 "
#434
b00111101110110101011001000110111 !
b00111101110110101011000000000000 "
#441
b00001110111011101101010111100011 !
b00000000000000000000100011101010 "
#448
b00111110100111111100010101100111 !
b00000000000011111100101111101000 "
#455
b11011111001011001100011001101111 !
b11111111111111111111110111110010 "
#462
b00011101111110000000001001110011 !
b00011101111110000000001001110011 "
#469
b01111111010001011110001011110111 !
b01111111010001011110001011110111 "
#476
b00000011111110001100010011011011 !
b00000011111110001100010011011011 "
#483
b10101011111001011101010111101111 !
b11111111111111111111101010111110 "
#490
b11011100111111111011100101101111 !
b11111111111111111111110111001111 "
#497
b10111100011110111001011111100011 !
b11111111111111111111101111001110 "
