Simulaciones/tbmux.vcd
$date
    Wed Nov  2 21:54:14 2016
$end
$version
    MyHDL 1.0dev
$end
$timescale
    1ns
$end

$scope module tbmux $end
$var reg 4 ! RegDest $end
$var reg 32 " output_Mux4 $end
$var reg 32 # output_Mux3 $end
$var reg 1 $ ALUsrc $end
$var reg 32 % in1_Mux2 $end
$var reg 32 & in2_Mux1 $end
$var reg 32 ' in1_Mux1 $end
$var reg 1 ( PCsrc $end
$var reg 32 ) in2_Mux4 $end
$var reg 32 * output_Mux1 $end
$var reg 32 + in2_Mux2 $end
$var reg 32 , in3_Mux1 $end
$var reg 32 - in5_Mux1 $end
$var reg 32 . in4_Mux1 $end
$var reg 1 / Sel_Mux $end
$var reg 32 0 in2_Mux3 $end
$var reg 32 1 in1_Mux4 $end
$var reg 32 2 output_Mux2 $end
$var reg 32 3 in1_Mux3 $end
$scope module dut4 $end
$var reg 32 " output_Mux4 $end
$var reg 32 1 in1_Mux4 $end
$var reg 1 ( PCsrc $end
$var reg 32 ) in2_Mux4 $end
$upscope $end
$scope module dut3 $end
$var reg 1 / Sel_Mux $end
$var reg 32 0 in2_Mux3 $end
$var reg 32 # output_Mux3 $end
$var reg 32 3 in1_Mux3 $end
$upscope $end
$scope module dut2 $end
$var reg 32 % in1_Mux2 $end
$var reg 32 + in2_Mux2 $end
$var reg 1 $ ALUsrc $end
$var reg 32 2 output_Mux2 $end
$upscope $end
$scope module dut1 $end
$var reg 32 * output_Mux1 $end
$var reg 4 ! RegDest $end
$var reg 32 . in4_Mux1 $end
$var reg 32 - in5_Mux1 $end
$var reg 32 & in2_Mux1 $end
$var reg 32 ' in1_Mux1 $end
$var reg 32 , in3_Mux1 $end
$upscope $end
$upscope $end

$enddefinitions $end
$dumpvars
b0000 !
b00000000000000000000000000000000 "
b00000000000000000000000000000000 #
b0 $
b00000000000000000000000000000000 %
b00000000000000000000000000000000 &
b00000000000000000000000000000000 '
b0 (
b00000000000000000000000000000000 )
b00000000000000000000000000000000 *
b00000000000000000000000000000000 +
b00000000000000000000000000000000 ,
b00000000000000000000000000000000 -
b00000000000000000000000000000000 .
b0 /
b00000000000000000000000000000000 0
b00000000000000000000000000000000 1
b00000000000000000000000000000000 2
b00000000000000000000000000000000 3
$end
#7
b00000000000000000000000001000100 '
b00000000000000000000000001000000 &
b00000000000000000000000001100110 ,
b00000000000000000000000010010001 .
b00000000000000000000000010010001 -
b00000000000000000000000000000010 %
b00000000000000000000000000100000 +
b1 $
b00000000000000000000000000011011 3
b00000000000000000000000011001110 0
b00000000000000000000000011101000 1
b00000000000000000000000011010001 )
b00000000000000000000000011101000 "
b00000000000000000000000000011011 #
b00000000000000000000000000100000 2
b00000000000000000000000001000100 *
#14
b00000000000000000000000000100010 1
b00000000000000000000000011111000 )
b00000000000000000000000001111111 3
b00000000000000000000000010100011 0
b1 /
b00000000000000000000000011100110 %
b00000000000000000000000011001000 +
b0 $
b00000000000000000000000011101101 '
b00000000000000000000000000110111 &
b00000000000000000000000001101111 ,
b00000000000000000000000001101101 .
b00000000000000000000000001101111 -
b00000000000000000000000011101101 *
b00000000000000000000000011100110 2
b00000000000000000000000010100011 #
b00000000000000000000000000100010 "
#21
b00000000000000000000000000000011 '
b00000000000000000000000010101010 &
b00000000000000000000000001111011 ,
b00000000000000000000000001001001 .
b00000000000000000000000001110010 -
b0011 !
b00000000000000000000000010110110 %
b00000000000000000000000010010110 +
b1 $
b00000000000000000000000000101011 3
b00000000000000000000000011100100 0
b00000000000000000000000010111011 1
b00000000000000000000000000010010 )
b00000000000000000000000010111010 "
b00000000000000000000000011100100 #
b00000000000000000000000010010110 2
b00000000000000000000000001001001 *
#28
b00000000000000000000000011011110 1
b00000000000000000000000010011001 )
b1 (
b00000000000000000000000010100001 3
b00000000000000000000000001010111 0
b0 /
b00000000000000000000000001001101 %
b00000000000000000000000000101111 +
b00000000000000000000000010100100 '
b00000000000000000000000011111010 &
b00000000000000000000000010001001 ,
b00000000000000000000000011010000 .
b00000000000000000000000000000011 -
b0100 !
b00000000000000000000000000000011 *
b00000000000000000000000000101111 2
b00000000000000000000000010100001 #
b00000000000000000000000010011001 "
#35
b00000000000000000000000010000111 '
b00000000000000000000000010000010 &
b00000000000000000000000011010011 ,
b00000000000000000000000010011010 .
b00000000000000000000000000001011 -
b0010 !
b00000000000000000000000011000010 %
b00000000000000000000000001010001 +
b0 $
b00000000000000000000000001010010 3
b00000000000000000000000010101001 0
b1 /
b00000000000000000000000000010101 1
b00000000000000000000000001101111 )
b0 (
b00000000000000000000000000010100 "
b00000000000000000000000010101001 #
b00000000000000000000000011000010 2
b00000000000000000000000011010011 *
#42
b00000000000000000000000010001000 1
b00000000000000000000000000011111 )
b00000000000000000000000000101100 3
b00000000000000000000000000110001 0
b00000000000000000000000011010001 %
b00000000000000000000000000000111 +
b1 $
b00000000000000000000000011000101 '
b00000000000000000000000011101110 &
b00000000000000000000000011110101 ,
b00000000000000000000000011010000 .
b00000000000000000000000001111110 -
b0000 !
b00000000000000000000000011000101 *
b00000000000000000000000000000111 2
b00000000000000000000000000110001 #
b00000000000000000000000010001000 "
#49
b00000000000000000000000001011101 '
b00000000000000000000000010011010 &
b00000000000000000000000000000111 ,
b00000000000000000000000001011001 .
b00000000000000000000000010011011 -
b0001 !
b00000000000000000000000011001111 %
b00000000000000000000000011010000 +
b0 $
b00000000000000000000000000101010 3
b00000000000000000000000001001101 0
b00000000000000000000000001100001 1
b00000000000000000000000010011010 )
b00000000000000000000000001100000 "
b00000000000000000000000001001101 #
b00000000000000000000000011001111 2
b00000000000000000000000010011010 *
#56
b00000000000000000000000000010101 1
b00000000000000000000000010000000 )
b1 (
b00000000000000000000000001101001 3
b00000000000000000000000001010011 0
b00000000000000000000000000111101 %
b00000000000000000000000010110101 +
b00000000000000000000000000101101 '
b00000000000000000000000011110011 &
b00000000000000000000000000011001 ,
b00000000000000000000000000111001 .
b00000000000000000000000011001011 -
b0100 !
b00000000000000000000000011001011 *
b00000000000000000000000000111101 2
b00000000000000000000000001010011 #
b00000000000000000000000010000000 "
#63
b00000000000000000000000001010110 '
b00000000000000000000000010111110 &
b00000000000000000000000010101110 ,
b00000000000000000000000001111100 .
b00000000000000000000000001011101 -
b0010 !
b00000000000000000000000010110110 %
b00000000000000000000000011000000 +
b00000000000000000000000001010101 3
b00000000000000000000000010110101 0
b0 /
b00000000000000000000000001001110 1
b00000000000000000000000001010110 )
b00000000000000000000000001010110 "
b00000000000000000000000001010101 #
b00000000000000000000000010110110 2
b00000000000000000000000010101110 *
#70
b00000000000000000000000100000000 1
b00000000000000000000000000100010 )
b0 (
b00000000000000000000000001000011 3
b00000000000000000000000000010000 0
b00000000000000000000000010010001 %
b00000000000000000000000011010000 +
b00000000000000000000000000010100 '
b00000000000000000000000010010011 &
b00000000000000000000000011111101 ,
b00000000000000000000000000001101 .
b00000000000000000000000000000001 -
b0000 !
b00000000000000000000000000010100 *
b00000000000000000000000010010001 2
b00000000000000000000000001000011 #
b00000000000000000000000100000000 "
#77
b00000000000000000000000000000110 '
b00000000000000000000000010100001 &
b00000000000000000000000011001011 ,
b00000000000000000000000001111000 .
b00000000000000000000000000010000 -
b0001 !
b00000000000000000000000000100100 %
b00000000000000000000000010010101 +
b00000000000000000000000011100011 3
b00000000000000000000000010011010 0
b00000000000000000000000001000011 1
b00000000000000000000000011000110 )
b1 (
b00000000000000000000000011000110 "
b00000000000000000000000011100011 #
b00000000000000000000000000100100 2
b00000000000000000000000010100001 *
#84
b00000000000000000000000000011100 1
b00000000000000000000000011110111 )
b00000000000000000000000010100100 3
b00000000000000000000000001100010 0
b00000000000000000000000010101010 %
b00000000000000000000000001011010 +
b1 $
b00000000000000000000000010011101 '
b00000000000000000000000010001101 &
b00000000000000000000000010100110 ,
b00000000000000000000000011111011 .
b00000000000000000000000000011110 -
b00000000000000000000000010001101 *
b00000000000000000000000001011010 2
b00000000000000000000000010100100 #
b00000000000000000000000011110111 "
#91
b00000000000000000000000011111100 '
b00000000000000000000000010111110 &
b00000000000000000000000011111001 ,
b00000000000000000000000001101000 .
b00000000000000000000000001001011 -
b0100 !
b00000000000000000000000010111101 %
b00000000000000000000000010101111 +
b0 $
b00000000000000000000000000010110 3
b00000000000000000000000001101101 0
b1 /
b00000000000000000000000010110110 1
b00000000000000000000000010010111 )
b0 (
b00000000000000000000000010110110 "
b00000000000000000000000001101101 #
b00000000000000000000000010111101 2
b00000000000000000000000001001011 *
#98
b00000000000000000000000011000110 1
b00000000000000000000000011111101 )
b1 (
b00000000000000000000000010000110 3
b00000000000000000000000001100001 0
b00000000000000000000000000011111 %
b00000000000000000000000010001110 +
b1 $
b00000000000000000000000001010101 '
b00000000000000000000000001110100 &
b00000000000000000000000010010000 ,
b00000000000000000000000000011000 .
b00000000000000000000000010000011 -
b00000000000000000000000010000011 *
b00000000000000000000000010001110 2
b00000000000000000000000001100001 #
b00000000000000000000000011111101 "
#105
b00000000000000000000000011010010 '
b00000000000000000000000011010100 &
b00000000000000000000000010000100 ,
b00000000000000000000000011110001 .
b00000000000000000000000011100010 -
b0010 !
b00000000000000000000000001111110 %
b00000000000000000000000000000100 +
b0 $
b00000000000000000000000000111110 3
b00000000000000000000000001010100 0
b00000000000000000000000010100000 1
b00000000000000000000000011100101 )
b0 (
b00000000000000000000000010100000 "
b00000000000000000000000001010100 #
b00000000000000000000000001111110 2
b00000000000000000000000010000100 *
#112
b00000000000000000000000000100101 1
b00000000000000000000000011101010 )
b00000000000000000000000000011010 3
b00000000000000000000000001101101 0
b0 /
b00000000000000000000000011111000 %
b00000000000000000000000011100110 +
b00000000000000000000000001001111 '
b00000000000000000000000010100011 &
b00000000000000000000000010001100 ,
b00000000000000000000000011011100 .
b00000000000000000000000001011111 -
b0000 !
b00000000000000000000000001001111 *
b00000000000000000000000011111000 2
b00000000000000000000000000011010 #
b00000000000000000000000000100100 "
#119
b00000000000000000000000000111110 '
b00000000000000000000000011011100 &
b00000000000000000000000010110001 ,
b00000000000000000000000000110011 .
b00000000000000000000000010101111 -
b0011 !
b00000000000000000000000011101001 %
b00000000000000000000000001010101 +
b00000000000000000000000010010101 3
b00000000000000000000000001011101 0
b00000000000000000000000000110011 1
b00000000000000000000000010111000 )
b1 (
b00000000000000000000000010111000 "
b00000000000000000000000010010101 #
b00000000000000000000000011101001 2
b00000000000000000000000000110011 *
#126
b00000000000000000000000010110010 1
b00000000000000000000000010100101 )
b0 (
b00000000000000000000000010011000 3
b00000000000000000000000001001101 0
b1 /
b00000000000000000000000000111100 %
b00000000000000000000000000101100 +
b00000000000000000000000010010011 '
b00000000000000000000000000111101 &
b00000000000000000000000000010100 ,
b00000000000000000000000001000100 .
b00000000000000000000000010001011 -
b0100 !
b00000000000000000000000010001011 *
b00000000000000000000000000111100 2
b00000000000000000000000001001101 #
b00000000000000000000000010110010 "
#133
b00000000000000000000000000011011 '
b00000000000000000000000011100010 &
b00000000000000000000000011010001 ,
b00000000000000000000000000100100 .
b00000000000000000000000011000010 -
b00000000000000000000000001100110 %
b00000000000000000000000100000000 +
b00000000000000000000000011010101 3
b00000000000000000000000000111010 0
b0 /
b00000000000000000000000010010100 1
b00000000000000000000000011001001 )
b00000000000000000000000010010100 "
b00000000000000000000000011010101 #
b00000000000000000000000001100110 2
b00000000000000000000000011000010 *
#140
b00000000000000000000000000111000 1
b00000000000000000000000010111010 )
b1 (
b00000000000000000000000001001111 3
b00000000000000000000000010100001 0
b1 /
b00000000000000000000000001101101 %
b00000000000000000000000001101111 +
b1 $
b00000000000000000000000001101100 '
b00000000000000000000000001001000 &
b00000000000000000000000001110001 ,
b00000000000000000000000011010001 .
b00000000000000000000000000110100 -
b0000 !
b00000000000000000000000001101100 *
b00000000000000000000000001101111 2
b00000000000000000000000010100001 #
b00000000000000000000000010111010 "
#147
b00000000000000000000000011010100 '
b00000000000000000000000010010110 &
b00000000000000000000000001111010 ,
b00000000000000000000000001110110 .
b00000000000000000000000001110010 -
b0011 !
b00000000000000000000000000100000 %
b00000000000000000000000011100000 +
b00000000000000000000000010111010 3
b00000000000000000000000010110101 0
b0 /
b00000000000000000000000001011000 1
b00000000000000000000000010000100 )
b00000000000000000000000010000100 "
b00000000000000000000000010111010 #
b00000000000000000000000011100000 2
b00000000000000000000000001110110 *
#154
b00000000000000000000000010101101 1
b00000000000000000000000010111011 )
b00000000000000000000000010110001 3
b00000000000000000000000001101001 0
b1 /
b00000000000000000000000001111000 %
b00000000000000000000000001110100 +
b00000000000000000000000000111111 '
b00000000000000000000000011011000 &
b00000000000000000000000010000111 ,
b00000000000000000000000011001010 .
b00000000000000000000000000100011 -
b0100 !
b00000000000000000000000000100011 *
b00000000000000000000000001110100 2
b00000000000000000000000001101001 #
b00000000000000000000000010111011 "
#161
b00000000000000000000000010001110 '
b00000000000000000000000011010001 &
b00000000000000000000000000111011 ,
b00000000000000000000000001001010 .
b00000000000000000000000011000111 -
b0000 !
b00000000000000000000000010100001 %
b00000000000000000000000010011001 +
b00000000000000000000000000000010 3
b00000000000000000000000010010010 0
b0 /
b00000000000000000000000010000001 1
b00000000000000000000000010000010 )
b00000000000000000000000010000010 "
b00000000000000000000000000000010 #
b00000000000000000000000010011001 2
b00000000000000000000000010001110 *
#168
b00000000000000000000000010011110 1
b00000000000000000000000000001110 )
b0 (
b00000000000000000000000000110101 3
b00000000000000000000000001100110 0
b00000000000000000000000011100001 %
b00000000000000000000000011111111 +
b0 $
b00000000000000000000000010101000 '
b00000000000000000000000011011010 &
b00000000000000000000000011011001 ,
b00000000000000000000000011000001 .
b00000000000000000000000001011100 -
b0100 !
b00000000000000000000000001011100 *
b00000000000000000000000011100001 2
b00000000000000000000000000110101 #
b00000000000000000000000010011110 "
#175
b00000000000000000000000011110110 '
b00000000000000000000000010101111 &
b00000000000000000000000001101100 ,
b00000000000000000000000011101010 .
b00000000000000000000000000110111 -
b00000000000000000000000010001110 %
b00000000000000000000000001000111 +
b00000000000000000000000000000001 3
b00000000000000000000000010001001 0
b1 /
b00000000000000000000000010111100 1
b00000000000000000000000000011110 )
b00000000000000000000000010111100 "
b00000000000000000000000010001001 #
b00000000000000000000000010001110 2
b00000000000000000000000000110111 *
#182
b00000000000000000000000001111101 1
b00000000000000000000000011100101 )
b1 (
b00000000000000000000000001101011 3
b00000000000000000000000000101011 0
b0 /
b00000000000000000000000011110001 %
b00000000000000000000000010000011 +
b00000000000000000000000010000111 '
b00000000000000000000000001110011 &
b00000000000000000000000010100001 ,
b00000000000000000000000010000101 .
b00000000000000000000000001100001 -
b0000 !
b00000000000000000000000010000111 *
b00000000000000000000000011110001 2
b00000000000000000000000001101011 #
b00000000000000000000000011100101 "
#189
b00000000000000000000000000011100 '
b00000000000000000000000000001010 &
b00000000000000000000000001001000 ,
b00000000000000000000000001000011 .
b00000000000000000000000010100010 -
b0001 !
b00000000000000000000000000101000 %
b00000000000000000000000001001000 +
b1 $
b00000000000000000000000010101001 3
b00000000000000000000000001010011 0
b00000000000000000000000011101100 1
b00000000000000000000000011100111 )
b0 (
b00000000000000000000000011101100 "
b00000000000000000000000010101001 #
b00000000000000000000000001001000 2
b00000000000000000000000000001010 *
#196
b00000000000000000000000010001001 1
b00000000000000000000000000000010 )
b00000000000000000000000010010100 3
b00000000000000000000000010011100 0
b00000000000000000000000000011111 %
b00000000000000000000000000101101 +
b00000000000000000000000000100100 '
b00000000000000000000000001001100 &
b00000000000000000000000000111010 ,
b00000000000000000000000000001101 .
b00000000000000000000000010110011 -
b00000000000000000000000001001100 *
b00000000000000000000000000101101 2
b00000000000000000000000010010100 #
b00000000000000000000000010001000 "
#203
b00000000000000000000000011000001 '
b00000000000000000000000000101100 &
b00000000000000000000000001001010 ,
b00000000000000000000000010010001 .
b00000000000000000000000000000110 -
b0100 !
b00000000000000000000000010011001 %
b00000000000000000000000010011100 +
b0 $
b00000000000000000000000000110111 3
b00000000000000000000000010101110 0
b1 /
b00000000000000000000000010010010 1
b00000000000000000000000001100001 )
b1 (
b00000000000000000000000001100001 "
b00000000000000000000000010101110 #
b00000000000000000000000010011001 2
b00000000000000000000000000000110 *
#210
b00000000000000000000000001111001 1
b00000000000000000000000010001100 )
b00000000000000000000000010101001 3
b00000000000000000000000010010001 0
b00000000000000000000000011010110 %
b00000000000000000000000010101000 +
b1 $
b00000000000000000000000011011011 '
b00000000000000000000000011111011 &
b00000000000000000000000010101011 ,
b00000000000000000000000001000001 .
b00000000000000000000000011110101 -
b00000000000000000000000011110101 *
b00000000000000000000000010101000 2
b00000000000000000000000010010001 #
b00000000000000000000000010001100 "
#217
b00000000000000000000000010010001 '
b00000000000000000000000001110010 &
b00000000000000000000000000000001 ,
b00000000000000000000000001010111 .
b00000000000000000000000010110100 -
b0011 !
b00000000000000000000000010100010 %
b00000000000000000000000000110001 +
b00000000000000000000000000101011 3
b00000000000000000000000001100010 0
b00000000000000000000000010000010 1
b00000000000000000000000011000011 )
b00000000000000000000000011000011 "
b00000000000000000000000001100010 #
b00000000000000000000000000110001 2
b00000000000000000000000001010111 *
#224
b00000000000000000000000001110001 1
b00000000000000000000000001011110 )
b0 (
b00000000000000000000000000101010 3
b00000000000000000000000000000110 0
b00000000000000000000000010010100 %
b00000000000000000000000011001011 +
b0 $
b00000000000000000000000000111110 '
b00000000000000000000000011100001 &
b00000000000000000000000011010001 ,
b00000000000000000000000011001111 .
b00000000000000000000000000001010 -
b00000000000000000000000011001111 *
b00000000000000000000000010010100 2
b00000000000000000000000000000110 #
b00000000000000000000000001110000 "
#231
b00000000000000000000000000101111 '
b00000000000000000000000000000100 &
b00000000000000000000000011001011 ,
b00000000000000000000000001111010 .
b00000000000000000000000011011110 -
b0100 !
b00000000000000000000000010000010 %
b00000000000000000000000011001111 +
b1 $
b00000000000000000000000001001001 3
b00000000000000000000000001100010 0
b00000000000000000000000000000111 1
b00000000000000000000000010011110 )
b00000000000000000000000000000110 "
b00000000000000000000000001100010 #
b00000000000000000000000011001111 2
b00000000000000000000000011011110 *
#238
b00000000000000000000000001000000 1
b00000000000000000000000000000001 )
b00000000000000000000000010010001 3
b00000000000000000000000001011010 0
b00000000000000000000000011101010 %
b00000000000000000000000000011101 +
b00000000000000000000000011110100 '
b00000000000000000000000011001000 &
b00000000000000000000000001101111 ,
b00000000000000000000000001101101 .
b00000000000000000000000010010100 -
b00000000000000000000000010010100 *
b00000000000000000000000000011101 2
b00000000000000000000000001011010 #
b00000000000000000000000001000000 "
#245
b00000000000000000000000010111000 '
b00000000000000000000000010010111 &
b00000000000000000000000001110010 ,
b00000000000000000000000011110100 .
b00000000000000000000000011111100 -
b0000 !
b00000000000000000000000001010111 %
b00000000000000000000000000101000 +
b0 $
b00000000000000000000000000110110 3
b00000000000000000000000011011100 0
b00000000000000000000000010001010 1
b00000000000000000000000001111111 )
b1 (
b00000000000000000000000001111111 "
b00000000000000000000000011011100 #
b00000000000000000000000001010111 2
b00000000000000000000000010111000 *
#252
b00000000000000000000000010010101 1
b00000000000000000000000011110111 )
b00000000000000000000000000100110 3
b00000000000000000000000000111001 0
b0 /
b00000000000000000000000010100100 %
b00000000000000000000000011011001 +
b00000000000000000000000001110010 '
b00000000000000000000000000000011 &
b00000000000000000000000000000010 ,
b00000000000000000000000011100011 .
b00000000000000000000000011000011 -
b0010 !
b00000000000000000000000000000010 *
b00000000000000000000000010100100 2
b00000000000000000000000000100110 #
b00000000000000000000000011110111 "
#259
b00000000000000000000000001001110 '
b00000000000000000000000000010011 &
b00000000000000000000000000010001 ,
b00000000000000000000000010100101 .
b00000000000000000000000010111101 -
b0100 !
b00000000000000000000000000101101 %
b00000000000000000000000000111001 +
b00000000000000000000000001011100 3
b00000000000000000000000010110111 0
b00000000000000000000000010111011 1
b00000000000000000000000001011100 )
b0 (
b00000000000000000000000010111010 "
b00000000000000000000000001011100 #
b00000000000000000000000000101101 2
b00000000000000000000000010111101 *
#266
b00000000000000000000000011101011 1
b00000000000000000000000000111001 )
b1 (
b00000000000000000000000001010000 3
b00000000000000000000000010001101 0
b00000000000000000000000010011111 %
b00000000000000000000000011101000 +
b1 $
b00000000000000000000000001101001 '
b00000000000000000000000011111000 &
b00000000000000000000000001111100 ,
b00000000000000000000000000001010 .
b00000000000000000000000001000101 -
b0001 !
b00000000000000000000000011111000 *
b00000000000000000000000011101000 2
b00000000000000000000000001010000 #
b00000000000000000000000000111001 "
#273
b00000000000000000000000011010110 '
b00000000000000000000000001001111 &
b00000000000000000000000011001111 ,
b00000000000000000000000001011010 .
b00000000000000000000000011000100 -
b00000000000000000000000011111101 %
b00000000000000000000000010011000 +
b0 $
b00000000000000000000000010000010 3
b00000000000000000000000010011001 0
b1 /
b00000000000000000000000010001100 1
b00000000000000000000000000000000 )
b0 (
b00000000000000000000000010001100 "
b00000000000000000000000010011001 #
b00000000000000000000000011111101 2
b00000000000000000000000001001111 *
#280
b00000000000000000000000000101111 1
b00000000000000000000000001101000 )
b00000000000000000000000000101110 3
b00000000000000000000000010101010 0
b00000000000000000000000001111101 %
b00000000000000000000000000111011 +
b00000000000000000000000011111001 '
b00000000000000000000000011010011 &
b00000000000000000000000001101111 ,
b00000000000000000000000000010010 .
b00000000000000000000000001100010 -
b0011 !
b00000000000000000000000000010010 *
b00000000000000000000000001111101 2
b00000000000000000000000010101010 #
b00000000000000000000000000101110 "
#287
b00000000000000000000000011001101 '
b00000000000000000000000011100111 &
b00000000000000000000000000100101 ,
b00000000000000000000000001101100 .
b00000000000000000000000000001100 -
b00000000000000000000000000101010 %
b00000000000000000000000001111000 +
b00000000000000000000000001100111 3
b00000000000000000000000000101010 0
b0 /
b00000000000000000000000010101011 1
b00000000000000000000000000111010 )
b00000000000000000000000010101010 "
b00000000000000000000000001100111 #
b00000000000000000000000000101010 2
b00000000000000000000000001101100 *
#294
b00000000000000000000000000111101 1
b00000000000000000000000011011000 )
b1 (
b00000000000000000000000010001000 3
b00000000000000000000000010101011 0
b00000000000000000000000000101011 %
b00000000000000000000000010010110 +
b1 $
b00000000000000000000000011101100 '
b00000000000000000000000010110010 &
b00000000000000000000000000110101 ,
b00000000000000000000000000011110 .
b00000000000000000000000000111010 -
b00000000000000000000000000011110 *
b00000000000000000000000010010110 2
b00000000000000000000000010001000 #
b00000000000000000000000011011000 "
#301
b00000000000000000000000010001011 '
b00000000000000000000000000011011 &
b00000000000000000000000011010101 ,
b00000000000000000000000000000100 .
b00000000000000000000000000110101 -
b0000 !
b00000000000000000000000011110110 %
b00000000000000000000000010101010 +
b0 $
b00000000000000000000000001011111 3
b00000000000000000000000001010010 0
b1 /
b00000000000000000000000000001010 1
b00000000000000000000000001101100 )
b00000000000000000000000001101100 "
b00000000000000000000000001010010 #
b00000000000000000000000011110110 2
b00000000000000000000000010001011 *
#308
b00000000000000000000000000001011 1
b00000000000000000000000011000110 )
b0 (
b00000000000000000000000000111110 3
b00000000000000000000000001110100 0
b00000000000000000000000011111101 %
b00000000000000000000000000111010 +
b1 $
b00000000000000000000000000100111 '
b00000000000000000000000000001011 &
b00000000000000000000000000001110 ,
b00000000000000000000000010110000 .
b00000000000000000000000011101111 -
b0100 !
b00000000000000000000000011101111 *
b00000000000000000000000000111010 2
b00000000000000000000000001110100 #
b00000000000000000000000000001010 "
#315
b00000000000000000000000000111101 '
b00000000000000000000000000110011 &
b00000000000000000000000001101011 ,
b00000000000000000000000010110011 .
b00000000000000000000000010001001 -
b0000 !
b00000000000000000000000011011010 %
b00000000000000000000000001001110 +
b0 $
b00000000000000000000000011000101 3
b00000000000000000000000011101110 0
b00000000000000000000000010110100 1
b00000000000000000000000000111010 )
b00000000000000000000000010110100 "
b00000000000000000000000011101110 #
b00000000000000000000000011011010 2
b00000000000000000000000000111101 *
#322
b00000000000000000000000000101100 1
b00000000000000000000000010001000 )
b1 (
b00000000000000000000000010100101 3
b00000000000000000000000011101111 0
b0 /
b00000000000000000000000000010010 %
b00000000000000000000000010110100 +
b00000000000000000000000010111101 '
b00000000000000000000000000010110 &
b00000000000000000000000010111001 ,
b00000000000000000000000001110011 .
b00000000000000000000000000011000 -
b0001 !
b00000000000000000000000000010110 *
b00000000000000000000000000010010 2
b00000000000000000000000010100101 #
b00000000000000000000000010001000 "
#329
b00000000000000000000000001110100 '
b00000000000000000000000011011001 &
b00000000000000000000000010011011 ,
b00000000000000000000000011010110 .
b00000000000000000000000001000110 -
b0011 !
b00000000000000000000000001010000 %
b00000000000000000000000010110010 +
b1 $
b00000000000000000000000000101101 3
b00000000000000000000000010010111 0
b00000000000000000000000001011010 1
b00000000000000000000000000101011 )
b00000000000000000000000000101011 "
b00000000000000000000000000101101 #
b00000000000000000000000010110010 2
b00000000000000000000000011010110 *
#336
b00000000000000000000000011011100 1
b00000000000000000000000010000001 )
b0 (
b00000000000000000000000010101000 3
b00000000000000000000000010110010 0
b1 /
b00000000000000000000000000100100 %
b00000000000000000000000010110110 +
b00000000000000000000000000111100 '
b00000000000000000000000010110100 &
b00000000000000000000000010110101 ,
b00000000000000000000000010100101 .
b00000000000000000000000011101010 -
b0001 !
b00000000000000000000000010110100 *
b00000000000000000000000010110110 2
b00000000000000000000000010110010 #
b00000000000000000000000011011100 "
#343
b00000000000000000000000000000000 '
b00000000000000000000000000101100 &
b00000000000000000000000010001110 ,
b00000000000000000000000011110101 .
b00000000000000000000000001100100 -
b0100 !
b00000000000000000000000001110010 %
b00000000000000000000000011010100 +
b00000000000000000000000001011000 3
b00000000000000000000000010100111 0
b00000000000000000000000011011011 1
b00000000000000000000000001111111 )
b00000000000000000000000011011010 "
b00000000000000000000000010100111 #
b00000000000000000000000011010100 2
b00000000000000000000000001100100 *
#350
b00000000000000000000000000111001 1
b00000000000000000000000000101011 )
b00000000000000000000000001000110 3
b00000000000000000000000000010111 0
b00000000000000000000000000101100 %
b00000000000000000000000000000101 +
b00000000000000000000000011010101 '
b00000000000000000000000010101111 &
b00000000000000000000000001001101 ,
b00000000000000000000000001110101 .
b00000000000000000000000010011111 -
b0001 !
b00000000000000000000000010101111 *
b00000000000000000000000000000101 2
b00000000000000000000000000010111 #
b00000000000000000000000000111000 "
#357
b00000000000000000000000001010000 '
b00000000000000000000000001000001 &
b00000000000000000000000001010100 ,
b00000000000000000000000001010000 .
b00000000000000000000000011111011 -
b0011 !
b00000000000000000000000001001111 %
b00000000000000000000000000011100 +
b0 $
b00000000000000000000000001011000 3
b00000000000000000000000000001110 0
b00000000000000000000000000010110 1
b00000000000000000000000010111011 )
b1 (
b00000000000000000000000010111011 "
b00000000000000000000000000001110 #
b00000000000000000000000001001111 2
b00000000000000000000000001010000 *
#364
b00000000000000000000000010010010 1
b00000000000000000000000011010000 )
b00000000000000000000000001011111 3
b00000000000000000000000000010100 0
b00000000000000000000000001000001 %
b00000000000000000000000010000001 +
b1 $
b00000000000000000000000001000010 '
b00000000000000000000000010010000 &
b00000000000000000000000010000100 ,
b00000000000000000000000011011101 .
b00000000000000000000000010101010 -
b0000 !
b00000000000000000000000001000010 *
b00000000000000000000000010000001 2
b00000000000000000000000000010100 #
b00000000000000000000000011010000 "
#371
b00000000000000000000000010001111 '
b00000000000000000000000010011001 &
b00000000000000000000000011010100 ,
b00000000000000000000000010111001 .
b00000000000000000000000000100001 -
b0100 !
b00000000000000000000000000011010 %
b00000000000000000000000000010101 +
b0 $
b00000000000000000000000010110001 3
b00000000000000000000000011010010 0
b00000000000000000000000001010100 1
b00000000000000000000000011110010 )
b00000000000000000000000011110010 "
b00000000000000000000000011010010 #
b00000000000000000000000000011010 2
b00000000000000000000000000100001 *
#378
b00000000000000000000000011001011 1
b00000000000000000000000010000101 )
b00000000000000000000000010110100 3
b00000000000000000000000010101011 0
b0 /
b00000000000000000000000011000111 %
b00000000000000000000000000111011 +
b1 $
b00000000000000000000000000101001 '
b00000000000000000000000001101010 &
b00000000000000000000000001111011 ,
b00000000000000000000000011010010 .
b00000000000000000000000010110001 -
b0011 !
b00000000000000000000000011010010 *
b00000000000000000000000000111011 2
b00000000000000000000000010110100 #
b00000000000000000000000010000101 "
#385
b00000000000000000000000011110101 '
b00000000000000000000000000110000 &
b00000000000000000000000011100010 ,
b00000000000000000000000011011010 .
b00000000000000000000000001000100 -
b0001 !
b00000000000000000000000010110010 %
b00000000000000000000000000000001 +
b00000000000000000000000010010001 3
b00000000000000000000000011010110 0
b1 /
b00000000000000000000000011111110 1
b00000000000000000000000001100100 )
b0 (
b00000000000000000000000011111110 "
b00000000000000000000000011010110 #
b00000000000000000000000000000001 2
b00000000000000000000000000110000 *
#392
b00000000000000000000000000010100 1
b00000000000000000000000001000101 )
b1 (
b00000000000000000000000000110101 3
b00000000000000000000000001110101 0
b0 /
b00000000000000000000000000001010 %
b00000000000000000000000001000001 +
b00000000000000000000000000001010 '
b00000000000000000000000011010110 &
b00000000000000000000000001111010 ,
b00000000000000000000000011100111 .
b00000000000000000000000000110111 -
b0010 !
b00000000000000000000000001111010 *
b00000000000000000000000001000001 2
b00000000000000000000000000110101 #
b00000000000000000000000001000101 "
#399
b00000000000000000000000000011011 '
b00000000000000000000000001111111 &
b00000000000000000000000000000111 ,
b00000000000000000000000011111000 .
b00000000000000000000000001100010 -
b0100 !
b00000000000000000000000011001111 %
b00000000000000000000000010011101 +
b0 $
b00000000000000000000000000101011 3
b00000000000000000000000001010011 0
b1 /
b00000000000000000000000000100110 1
b0 (
b00000000000000000000000000100110 "
b00000000000000000000000001010011 #
b00000000000000000000000011001111 2
b00000000000000000000000001100010 *
