Simulaciones/tbTope.vcd
$date
    Sat Nov 26 18:21:46 2016
$end
$version
    MyHDL 1.0dev
$end
$timescale
    1ns
$end

$scope module tbTope $end
$var reg 4 ! enstore $end
$var reg 32 " do $end
$var reg 1 # clk $end
$var reg 1 $ done $end
$var reg 1 % reset $end
$var reg 5 & addr $end
$var reg 1 ' we $end
$var reg 1 ( re $end
$var reg 32 ) di $end
$scope module tope_1 $end
$var reg 4 * ALUop $end
$var reg 1 + Ok_PC $end
$var reg 1 # clk $end
$var reg 32 , dirdatos $end
$var reg 1 - RegWrite $end
$var reg 32 . PCEN_BHW $end
$var reg 32 / mux1_000 $end
$var reg 3 0 Dwidth $end
$var reg 1 1 ALUflag $end
$var reg 32 2 ALUout $end
$var reg 1 3 ALUsrc $end
$var reg 1 4 Sel_Mux $end
$var reg 32 5 mux3_add2 $end
$var reg 1 6 Reg_OK $end
$var reg 32 7 mux1_011 $end
$var reg 4 ! WR $end
$var reg 1 ' WE $end
$var reg 1 8 RegEnable $end
$var reg 32 9 r2d $end
$var reg 32 : add2_mux4 $end
$var reg 32 ; datainmediato $end
$var reg 1 < PCsrc $end
$var reg 32 = datainstruccion $end
$var reg 32 " DataOutRAM $end
$var reg 5 & Address $end
$var reg 1 ( RE $end
$var reg 32 > ALUinA $end
$var reg 32 ? rdd $end
$var reg 1 % reset $end
$var reg 32 @ mux1_010 $end
$var reg 32 A r1d $end
$var reg 3 B RegDest $end
$var reg 1 $ Done $end
$var reg 32 C mux4_PC $end
$var reg 32 D mux1_001 $end
$var reg 32 9 DataInRAM $end
$scope module BHW_1 $end
$var reg 16 E data16_0 $end
$var reg 32 7 Dataout $end
$var reg 32 . Datain $end
$var reg 8 F data24_16 $end
$var reg 8 G data8_0 $end
$var reg 8 H data16_8 $end
$var reg 3 0 DWidth $end
$var reg 16 I data32_16 $end
$var reg 8 J data32_24 $end
$upscope $end
$scope module ADD_1 $end
$var reg 32 5 datain1 $end
$var reg 32 , datain2 $end
$var reg 32 : dataout $end
$upscope $end
$scope module Mux4_1 $end
$var reg 32 : in2_Mux4 $end
$var reg 32 2 in1_Mux4 $end
$var reg 32 C output_Mux4 $end
$var reg 1 < PCsrc $end
$upscope $end
$scope module ADD_4_1 $end
$var reg 32 , datain $end
$var reg 32 / dataout $end
$upscope $end
$scope module ControlUnit_1 $end
$var reg 1 3 ALUsrc $end
$var reg 1 4 Sel_Mux $end
$var reg 1 < PCsrc $end
$var reg 3 B RegDest $end
$var reg 1 - RegWrite $end
$var reg 1 1 branch $end
$var reg 3 0 DWidth $end
$var reg 4 * ALUop $end
$upscope $end
$scope module ALU_1 $end
$var reg 32 A inB $end
$var reg 1 1 flag $end
$var reg 32 2 out $end
$var reg 4 * ALUop $end
$var reg 32 > inA $end
$upscope $end
$scope module ADD_2 $end
$var reg 32 , datain1 $end
$var reg 32 ; datain2 $end
$var reg 32 D dataout $end
$upscope $end
$scope module AND_1 $end
$var reg 1 6 data2 $end
$var reg 3 B data1 $end
$var reg 1 8 dataout $end
$upscope $end
$scope module PC_1 $end
$var reg 32 C datain $end
$var reg 1 % reset $end
$var reg 32 K register $end
$var reg 32 , dataout $end
$var reg 1 + enable $end
$var reg 1 # clk $end
$upscope $end
$scope module CPR_1 $end
$var reg 1 + Ok_PC $end
$var reg 1 # clk $end
$var reg 32 " DataOutRAM $end
$var reg 5 & Address $end
$var reg 32 . PCEN_BHW $end
$var reg 32 , dirdato $end
$var reg 1 L Mux5_Sel $end
$var reg 32 2 ALUout $end
$var reg 32 = datainstruccion $end
$var reg 1 % reset $end
$var reg 1 M MBR_go $end
$var reg 1 ' WE $end
$var reg 1 $ Done $end
$var reg 1 N Demux_Sel $end
$var reg 32 C mux4_PC $end
$var reg 32 O Demux_MBR $end
$var reg 1 ( RE $end
$var reg 1 6 Reg_Ok $end
$scope module Demux_1 $end
$var reg 32 " in_demux $end
$var reg 32 O out1_demux $end
$var reg 32 . out2_demux $end
$var reg 1 N Sel_Demux $end
$upscope $end
$scope module Mux2_2 $end
$var reg 32 , in1_Mux2 $end
$var reg 1 L ALUsrc $end
$var reg 32 2 in2_Mux2 $end
$var reg 5 & output_Mux2 $end
$upscope $end
$scope module MBR_1 $end
$var reg 32 O datain $end
$var reg 1 % reset $end
$var reg 32 P register $end
$var reg 32 = dataout $end
$var reg 1 M enable $end
$var reg 1 # clk $end
$upscope $end
$scope module FSM_1 $end
$var reg 1 + ok_pc $end
$var reg 1 ( RAMread $end
$var reg 1 % reset $end
$var reg 1 # clk $end
$var reg 1 6 RegOk $end
$var reg 1 $ RAMdone $end
$var reg 1 ' RAMwrite $end
$var reg 1 N Demux_Sel $end
$var reg 2 Q EstadoPresente $end
$var reg 1 L Mux5_Sel $end
$var reg 1 M MBR_go $end
$upscope $end
$upscope $end
$scope module RegisterFile_1 $end
$var reg 1 # clk $end
$var reg 1 8 we $end
$var reg 1 % reset $end
$var reg 32 A read_A $end
$var reg 32 ? data_w $end
$var reg 32 9 read_B $end
$scope module regs $end
$var reg 32 R regs(0) $end
$var reg 32 S regs(1) $end
$var reg 32 T regs(2) $end
$var reg 32 U regs(3) $end
$var reg 32 V regs(4) $end
$var reg 32 W regs(5) $end
$var reg 32 X regs(6) $end
$var reg 32 Y regs(7) $end
$var reg 32 Z regs(8) $end
$var reg 32 [ regs(9) $end
$var reg 32 \ regs(10) $end
$var reg 32 ] regs(11) $end
$var reg 32 ^ regs(12) $end
$var reg 32 _ regs(13) $end
$var reg 32 ` regs(14) $end
$var reg 32 a regs(15) $end
$var reg 32 b regs(16) $end
$var reg 32 c regs(17) $end
$var reg 32 d regs(18) $end
$var reg 32 e regs(19) $end
$var reg 32 f regs(20) $end
$var reg 32 g regs(21) $end
$var reg 32 h regs(22) $end
$var reg 32 i regs(23) $end
$var reg 32 j regs(24) $end
$var reg 32 k regs(25) $end
$var reg 32 l regs(26) $end
$var reg 32 m regs(27) $end
$var reg 32 n regs(28) $end
$var reg 32 o regs(29) $end
$var reg 32 p regs(30) $end
$var reg 32 q regs(31) $end
$upscope $end
$upscope $end
$scope module ConvInst_1 $end
$var reg 12 r bit11_0 $end
$var reg 32 = datain $end
$var reg 1 s bit11 $end
$var reg 20 t bit31_12 $end
$var reg 21 u bit31_11 $end
$var reg 6 v bit10_5 $end
$var reg 12 w bit31_20 $end
$var reg 4 x bit4_1 $end
$var reg 11 y bit30_20 $end
$var reg 1 z bit0 $end
$var reg 32 ; dataout $end
$var reg 1 { bit31 $end
$var reg 8 | bit19_12 $end
$upscope $end
$scope module Mux1_1 $end
$var reg 32 7 in4_Mux1 $end
$var reg 32 ? output_Mux1 $end
$var reg 32 D in2_Mux1 $end
$var reg 3 B RegDest $end
$var reg 32 / in1_Mux1 $end
$var reg 32 2 in5_Mux1 $end
$var reg 32 @ in3_Mux1 $end
$upscope $end
$scope module StoreEnable_1 $end
$var reg 4 ! Store_E $end
$var reg 3 0 DWidth $end
$upscope $end
$scope module Mux2_1 $end
$var reg 32 9 in1_Mux2 $end
$var reg 1 3 ALUsrc $end
$var reg 32 ; in2_Mux2 $end
$var reg 32 > output_Mux2 $end
$upscope $end
$scope module Mux3_1 $end
$var reg 32 ; in2_Mux3 $end
$var reg 32 5 output_Mux3 $end
$var reg 1 4 Sel_Mux $end
$upscope $end
$upscope $end
$scope module BRAM_1 $end
$var reg 4 ! enstore $end
$var reg 32 " do $end
$var reg 1 # clk $end
$var reg 1 $ done $end
$var reg 5 & addr $end
$var reg 32 ) di $end
$var reg 1 ' we $end
$var reg 1 ( re $end
$scope module ramregsblock3 $end
$var reg 8 } ramregsblock3(0) $end
$var reg 8 ~ ramregsblock3(1) $end
$var reg 8 "! ramregsblock3(2) $end
$var reg 8 "" ramregsblock3(3) $end
$var reg 8 "# ramregsblock3(4) $end
$var reg 8 "$ ramregsblock3(5) $end
$var reg 8 "% ramregsblock3(6) $end
$var reg 8 "& ramregsblock3(7) $end
$var reg 8 "' ramregsblock3(8) $end
$var reg 8 "( ramregsblock3(9) $end
$var reg 8 ") ramregsblock3(10) $end
$var reg 8 "* ramregsblock3(11) $end
$var reg 8 "+ ramregsblock3(12) $end
$var reg 8 ", ramregsblock3(13) $end
$var reg 8 "- ramregsblock3(14) $end
$var reg 8 ". ramregsblock3(15) $end
$var reg 8 "/ ramregsblock3(16) $end
$var reg 8 "0 ramregsblock3(17) $end
$var reg 8 "1 ramregsblock3(18) $end
$var reg 8 "2 ramregsblock3(19) $end
$var reg 8 "3 ramregsblock3(20) $end
$var reg 8 "4 ramregsblock3(21) $end
$var reg 8 "5 ramregsblock3(22) $end
$var reg 8 "6 ramregsblock3(23) $end
$var reg 8 "7 ramregsblock3(24) $end
$var reg 8 "8 ramregsblock3(25) $end
$var reg 8 "9 ramregsblock3(26) $end
$var reg 8 ": ramregsblock3(27) $end
$var reg 8 "; ramregsblock3(28) $end
$var reg 8 "< ramregsblock3(29) $end
$var reg 8 "= ramregsblock3(30) $end
$var reg 8 "> ramregsblock3(31) $end
$upscope $end
$scope module ramregsblock1 $end
$var reg 8 "? ramregsblock1(0) $end
$var reg 8 "@ ramregsblock1(1) $end
$var reg 8 "A ramregsblock1(2) $end
$var reg 8 "B ramregsblock1(3) $end
$var reg 8 "C ramregsblock1(4) $end
$var reg 8 "D ramregsblock1(5) $end
$var reg 8 "E ramregsblock1(6) $end
$var reg 8 "F ramregsblock1(7) $end
$var reg 8 "G ramregsblock1(8) $end
$var reg 8 "H ramregsblock1(9) $end
$var reg 8 "I ramregsblock1(10) $end
$var reg 8 "J ramregsblock1(11) $end
$var reg 8 "K ramregsblock1(12) $end
$var reg 8 "L ramregsblock1(13) $end
$var reg 8 "M ramregsblock1(14) $end
$var reg 8 "N ramregsblock1(15) $end
$var reg 8 "O ramregsblock1(16) $end
$var reg 8 "P ramregsblock1(17) $end
$var reg 8 "Q ramregsblock1(18) $end
$var reg 8 "R ramregsblock1(19) $end
$var reg 8 "S ramregsblock1(20) $end
$var reg 8 "T ramregsblock1(21) $end
$var reg 8 "U ramregsblock1(22) $end
$var reg 8 "V ramregsblock1(23) $end
$var reg 8 "W ramregsblock1(24) $end
$var reg 8 "X ramregsblock1(25) $end
$var reg 8 "Y ramregsblock1(26) $end
$var reg 8 "Z ramregsblock1(27) $end
$var reg 8 "[ ramregsblock1(28) $end
$var reg 8 "\ ramregsblock1(29) $end
$var reg 8 "] ramregsblock1(30) $end
$var reg 8 "^ ramregsblock1(31) $end
$upscope $end
$scope module ramregsblock4 $end
$var reg 8 "_ ramregsblock4(0) $end
$var reg 8 "` ramregsblock4(1) $end
$var reg 8 "a ramregsblock4(2) $end
$var reg 8 "b ramregsblock4(3) $end
$var reg 8 "c ramregsblock4(4) $end
$var reg 8 "d ramregsblock4(5) $end
$var reg 8 "e ramregsblock4(6) $end
$var reg 8 "f ramregsblock4(7) $end
$var reg 8 "g ramregsblock4(8) $end
$var reg 8 "h ramregsblock4(9) $end
$var reg 8 "i ramregsblock4(10) $end
$var reg 8 "j ramregsblock4(11) $end
$var reg 8 "k ramregsblock4(12) $end
$var reg 8 "l ramregsblock4(13) $end
$var reg 8 "m ramregsblock4(14) $end
$var reg 8 "n ramregsblock4(15) $end
$var reg 8 "o ramregsblock4(16) $end
$var reg 8 "p ramregsblock4(17) $end
$var reg 8 "q ramregsblock4(18) $end
$var reg 8 "r ramregsblock4(19) $end
$var reg 8 "s ramregsblock4(20) $end
$var reg 8 "t ramregsblock4(21) $end
$var reg 8 "u ramregsblock4(22) $end
$var reg 8 "v ramregsblock4(23) $end
$var reg 8 "w ramregsblock4(24) $end
$var reg 8 "x ramregsblock4(25) $end
$var reg 8 "y ramregsblock4(26) $end
$var reg 8 "z ramregsblock4(27) $end
$var reg 8 "{ ramregsblock4(28) $end
$var reg 8 "| ramregsblock4(29) $end
$var reg 8 "} ramregsblock4(30) $end
$var reg 8 "~ ramregsblock4(31) $end
$upscope $end
$scope module ramregsblock2 $end
$var reg 8 #! ramregsblock2(0) $end
$var reg 8 #" ramregsblock2(1) $end
$var reg 8 ## ramregsblock2(2) $end
$var reg 8 #$ ramregsblock2(3) $end
$var reg 8 #% ramregsblock2(4) $end
$var reg 8 #& ramregsblock2(5) $end
$var reg 8 #' ramregsblock2(6) $end
$var reg 8 #( ramregsblock2(7) $end
$var reg 8 #) ramregsblock2(8) $end
$var reg 8 #* ramregsblock2(9) $end
$var reg 8 #+ ramregsblock2(10) $end
$var reg 8 #, ramregsblock2(11) $end
$var reg 8 #- ramregsblock2(12) $end
$var reg 8 #. ramregsblock2(13) $end
$var reg 8 #/ ramregsblock2(14) $end
$var reg 8 #0 ramregsblock2(15) $end
$var reg 8 #1 ramregsblock2(16) $end
$var reg 8 #2 ramregsblock2(17) $end
$var reg 8 #3 ramregsblock2(18) $end
$var reg 8 #4 ramregsblock2(19) $end
$var reg 8 #5 ramregsblock2(20) $end
$var reg 8 #6 ramregsblock2(21) $end
$var reg 8 #7 ramregsblock2(22) $end
$var reg 8 #8 ramregsblock2(23) $end
$var reg 8 #9 ramregsblock2(24) $end
$var reg 8 #: ramregsblock2(25) $end
$var reg 8 #; ramregsblock2(26) $end
$var reg 8 #< ramregsblock2(27) $end
$var reg 8 #= ramregsblock2(28) $end
$var reg 8 #> ramregsblock2(29) $end
$var reg 8 #? ramregsblock2(30) $end
$var reg 8 #@ ramregsblock2(31) $end
$upscope $end
$upscope $end
$scope module ClkDriver_1 $end
$var reg 1 # clk $end
$upscope $end
$upscope $end

$enddefinitions $end
$dumpvars
b0000 !
b00000000000000000000000000000000 "
0#
0$
0%
b00000 &
0'
0(
b00000000000000000000000000000000 )
b0000 *
0+
b00000000000000000000000000000000 ,
0-
b00000000000000000000000000000000 .
b00000000000000000000000000000000 /
b000 0
01
b00000000000000000000000000000000 2
03
04
b00000000000000000000000000000000 5
06
b00000000000000000000000000000000 7
08
b00000000000000000000000000000000 9
b00000000000000000000000000000000 :
b00000000000000000000000000000000 ;
0<
b00000000000000000000000000000000 =
b00000000000000000000000000000000 >
b00000000000000000000000000000000 ?
b00000000000000000000000000000000 @
b00000000000000000000000000000000 A
b000 B
b00000000000000000000000000000000 C
b00000000000000000000000000000000 D
b0000000000000000 E
b00000000 F
b00000000 G
b00000000 H
b0000000000000000 I
b00000000 J
b00000000000000000000000000000000 K
0L
0M
0N
b00000000000000000000000000000000 O
b00000000000000000000000000000000 P
b00 Q
b00000000000000000000000000000000 R
b00000000000000000000000000000000 S
b00000000000000000000000000000000 T
b00000000000000000000000000000000 U
b00000000000000000000000000000000 V
b00000000000000000000000000000000 W
b00000000000000000000000000000000 X
b00000000000000000000000000000000 Y
b00000000000000000000000000000000 Z
b00000000000000000000000000000000 [
b00000000000000000000000000000000 \
b00000000000000000000000000000000 ]
b00000000000000000000000000000000 ^
b00000000000000000000000000000000 _
b00000000000000000000000000000000 `
b00000000000000000000000000000000 a
b00000000000000000000000000000000 b
b00000000000000000000000000000000 c
b00000000000000000000000000000000 d
b00000000000000000000000000000000 e
b00000000000000000000000000000000 f
b00000000000000000000000000000000 g
b00000000000000000000000000000000 h
b00000000000000000000000000000000 i
b00000000000000000000000000000000 j
b00000000000000000000000000000000 k
b00000000000000000000000000000000 l
b00000000000000000000000000000000 m
b00000000000000000000000000000000 n
b00000000000000000000000000000000 o
b00000000000000000000000000000000 p
b00000000000000000000000000000000 q
b000000000000 r
b0 s
b00000000000000000000 t
b000000000000000000000 u
b000000 v
b000000000000 w
b0000 x
b00000000000 y
b0 z
b0 {
b00000000 |
b00000000 }
b00000000 ~
b00000000 "!
b00000000 ""
b00000000 "#
b00000000 "$
b00000000 "%
b00000000 "&
b00000000 "'
b00000000 "(
b00000000 ")
b00000000 "*
b00000000 "+
b00000000 ",
b00000000 "-
b00000000 ".
b00000000 "/
b00000000 "0
b00000000 "1
b00000000 "2
b00000000 "3
b00000000 "4
b00000000 "5
b00000000 "6
b00000000 "7
b00000000 "8
b00000000 "9
b00000000 ":
b00000000 ";
b00000000 "<
b00000000 "=
b00000000 ">
b00000000 "?
b00000000 "@
b00000000 "A
b00000000 "B
b00000000 "C
b00000000 "D
b00000000 "E
b00000000 "F
b00000000 "G
b00000000 "H
b00000000 "I
b00000000 "J
b00000000 "K
b00000000 "L
b00000000 "M
b00000000 "N
b00000000 "O
b00000000 "P
b00000000 "Q
b00000000 "R
b00000000 "S
b00000000 "T
b00000000 "U
b00000000 "V
b00000000 "W
b00000000 "X
b00000000 "Y
b00000000 "Z
b00000000 "[
b00000000 "\
b00000000 "]
b00000000 "^
b00000000 "_
b00000000 "`
b00000000 "a
b00000000 "b
b00000000 "c
b00000000 "d
b00000000 "e
b00000000 "f
b00000000 "g
b00000000 "h
b00000000 "i
b00000000 "j
b00000000 "k
b00000000 "l
b00000000 "m
b00000000 "n
b00000000 "o
b00000000 "p
b00000000 "q
b00000000 "r
b00000000 "s
b00000000 "t
b00000000 "u
b00000000 "v
b00000000 "w
b00000000 "x
b00000000 "y
b00000000 "z
b00000000 "{
b00000000 "|
b00000000 "}
b00000000 "~
b00000000 #!
b00000000 #"
b00000000 ##
b00000000 #$
b00000000 #%
b00000000 #&
b00000000 #'
b00000000 #(
b00000000 #)
b00000000 #*
b00000000 #+
b00000000 #,
b00000000 #-
b00000000 #.
b00000000 #/
b00000000 #0
b00000000 #1
b00000000 #2
b00000000 #3
b00000000 #4
b00000000 #5
b00000000 #6
b00000000 #7
b00000000 #8
b00000000 #9
b00000000 #:
b00000000 #;
b00000000 #<
b00000000 #=
b00000000 #>
b00000000 #?
b00000000 #@
$end
b00000000000000000000000000000100 5
b0001 !
11
b100 B
b101 0
1<
b00000000000000000000000000000100 /
b0000 !
b00000000000000000000000000000100 :
b00000000000000000000000000000100 C
#7
b11000000100111101011011011101001 )
b00101 &
b1111 !
#10
1#
1(
#14
b11101101111010110100100111111011 )
b01001 &
b1100 !
#20
0#
1$
#21
b00010001101100101011110001101001 )
b01011 &
0(
b1111 !
#28
b01010010001000101001001001010011 )
b11110 &
1'
1(
b0001 !
#30
1#
b01010011 "]
0$
0'
1M
b01 Q
#35
b10101110100111101001100100111010 )
b01001 &
0(
b0011 !
#40
0#
#42
b11100011111011110111011011110011 )
b01101 &
1'
#49
b01011001000101100001011011000110 )
b00000 &
0'
b0100 !
#50
1#
0M
16
1+
b00 Q
#56
b01001011001011001001000110000100 )
b00110 &
1'
1(
b0001 !
#60
0#
1$
#63
b11011101010011011001010010100111 )
b01000 &
0(
b0011 !
#70
b00001100100100100010101101101111 )
b11010 &
1(
b1100 !
1#
b01101111 "9
b00101011 "y
0$
0'
1M
06
0+
b01 Q
b00000000000000000000000000000100 K
b00000000000000000000000000000100 ,
b00000000000000000000000000001000 :
b00000000000000000000000000001000 /
b00000000000000000000000000000100 D
b00100 &
b00000000000000000000000000001000 C
#77
b11111001111011001100110010001111 )
b01100 &
b0100 !
#80
0#
1$
#84
b10000001001100010000000101111100 )
b01101 &
1'
b0011 !
#90
1#
0'
0(
0M
16
1+
b00 Q
0$
b01111100 "L
b00000001 #.
#91
b00011110100110000001101000000010 )
b01110 &
1'
1(
#98
b00110101010100101010100111101111 )
b10010 &
0(
b0001 !
#100
0#
1$
#105
b00101001001111101011001110100111 )
b01101 &
0'
1(
b0100 !
#110
1#
0$
b00000000000000000000000101111100 "
1M
06
0+
b01 Q
b00000000000000000000000000001000 K
b00000000000000000000000000001000 ,
b00000000000000000000000101111100 O
b01000 &
b00000000000000000000000000001000 D
b00000000000000000000000000001100 /
b00000000000000000000000000001100 :
b00000000000000000000000000001100 C
#112
b00101110011010010010100111011110 )
b10000 &
b1100 !
#119
b00000110100110111011010111111110 )
b10111 &
1'
0(
b0010 !
#120
0#
1$
#126
b00011001010100011100101000111010 )
b11100 &
0'
b1000 !
#130
1#
b00000000000000000000000101111100 P
0M
16
1+
b00 Q
b00000000000000000000000000000000 "
0$
b00000000000000000000000000000000 O
b00000000000000000000000101111100 =
b00000000000000000000000101111100 ;
b00000000000000000000000110000100 D
#133
b01110010001110010001100100100101 )
b01111 &
1'
1(
b0010 !
#140
b10011101000010011000001000101001 )
b01011 &
b1100 !
0#
1$
#147
b01110111111001110001011000101101 )
b11110 &
0(
b0100 !
#150
1#
b00101101 "=
0$
0'
1(
1M
06
0+
b01 Q
b00000000000000000000000000001100 K
b00000000000000000000000000001100 ,
b00000000000000000000000110001000 D
b00000000000000000000000000010000 :
b00000000000000000000000000010000 /
b01100 &
b00000000000000000000000000010000 C
#154
b01110011101000101011100000011001 )
b11111 &
1'
b0011 !
#160
0#
1$
#161
b10111011111100110011111110011100 )
b00111 &
0'
b1111 !
#168
b00001100100010101001101010110101 )
b01011 &
1'
b0100 !
#170
1#
b00000000000000000000000000000000 P
0'
0(
0M
16
1+
b00 Q
0$
b10110101 "*
b00000000000000000000000000000000 =
b00000000000000000000000000000000 ;
b00000000000000000000000000001100 D
#175
b11001011101110101010010011100100 )
b11111 &
1'
#180
0#
1$
#182
b00011110110101101001001101001010 )
b00010 &
0'
b0010 !
#189
b01100000110101001100010000011011 )
b10100 &
1'
b1111 !
#190
1#
b00011011 "S
b11000100 #5
b11010100 "3
b00110000 "s
0$
0'
1(
1M
06
0+
b01 Q
b00000000000000000000000000010000 K
b00000000000000000000000000010000 ,
b00000000000000000000000000010000 D
b10000 &
b00000000000000000000000000010100 /
b00000000000000000000000000010100 :
b00000000000000000000000000010100 C
#196
b10110001001011110110010100110101 )
b11011 &
1'
0(
b0010 !
#200
0#
1$
#203
b00100110001101110111010001011100 )
b11100 &
0'
1(
b0001 !
#210
b11101011000000110001101001000100 )
b11101 &
1'
b0010 !
1#
0'
0(
0M
16
1+
b00 Q
0$
b01000100 #>
#217
b11100001010111111100000011110111 )
b01101 &
b0011 !
#220
0#
#224
b00111101110000000010100001101111 )
b00010 &
1(
b0010 !
#230
1#
06
0+
b00000000000000000000000000010100 K
b00000000000000000000000000010100 ,
b00000000000000000000000000011000 :
b00000000000000000000000000011000 /
b10100 &
b00000000000000000000000000010100 D
b00000000000000000000000000011000 C
#231
b11001010010001101010101100100011 )
b10110 &
0(
b1100 !
#238
b10010110110010110001000000101100 )
b01111 &
1(
b0001 !
#240
0#
1$
#245
b10011001101101001100000110011111 )
b10110 &
1'
0(
b1111 !
#250
1#
0'
1(
1M
b01 Q
0$
b10011111 "U
b11000001 #7
b10110100 "5
b01001100 "u
#252
b01001101001100001110000010000100 )
b10011 &
1'
0(
b1100 !
#259
b00111110011101000101101000001010 )
b11101 &
0'
b1000 !
#260
0#
#266
b00110001100001101101001001111110 )
b10000 &
1'
1(
b0001 !
#270
1#
b01111110 "O
0'
0(
0M
16
1+
b00 Q
#273
b10100010010001101110000111100001 )
b01001 &
1'
1(
#280
b00011100011111101101110011110100 )
b00100 &
0'
b0011 !
0#
1$
#287
b11101010000011110010100111001101 )
b00111 &
0(
b0001 !
#290
1#
b00000000000000000000000000011000 K
1(
1M
06
0+
b01 Q
0$
b00000000000000000000000000011000 ,
b00000000000000000000000000011000 D
b11000 &
b00000000000000000000000000011100 /
b00000000000000000000000000011100 :
b00000000000000000000000000011100 C
#294
b00100000111011110110011111001111 )
b11110 &
b0010 !
#300
0#
1$
#301
b00110001100000001000111010110110 )
b10000 &
1'
0(
b0100 !
#308
b00000000011001000000100011110010 )
b00110 &
0'
b0010 !
#310
1#
0$
0M
16
1+
b00 Q
#315
b00010000100111000000011000111011 )
b00000 &
1(
b1000 !
#320
0#
1$
#322
b00110111000110100111000101001101 )
b11111 &
0(
b0011 !
#329
b00011010111111101011011101110100 )
b11110 &
1'
1(
#330
1#
b00000000000000000000000000011100 K
0'
1M
06
0+
b01 Q
b00000000001011010000000001010011 "
0$
b01110100 "]
b10110111 #?
b00000000001011010000000001010011 O
b00000000000000000000000000011100 ,
b00000000000000000000000000100000 :
b00000000000000000000000000100000 /
b11100 &
b00000000000000000000000000011100 D
b00000000000000000000000000100000 C
#336
b10110001010111100100011100010001 )
b10111 &
#340
0#
1$
#343
b11010111011001111101110000010100 )
b01101 &
b0001 !
#350
b10111111100010010111000110011110 )
b00011 &
1'
b1111 !
1#
b10011110 "B
b01110001 #$
b10001001 ""
b01011111 "b
0$
b00000000000000000000000000000000 "
0'
0(
0M
16
1+
b00 Q
b00000000001011010000000001010011 P
b00000000001011010000000001010011 =
b00000000000000000000000000000000 O
b00000000001011010000000001010011 ;
b00000000001011010000000001101111 D
#357
b10001100000001001100100101000111 )
b00001 &
1'
b0010 !
#360
0#
1$
#364
b10100101110000001100010010110101 )
b00100 &
#370
1#
b00000000000000000000000000100000 K
0'
1(
1M
06
0+
b01 Q
0$
b10110101 #%
b00000000000000000000000000100000 ,
b00000000001011010000000001110011 D
b00000 &
b00000000000000000000000000100100 /
b00000000000000000000000000100100 :
b00000000000000000000000000100100 C
#371
b01101110001001000110100110010011 )
b00111 &
#378
b11111111100110011100100110001011 )
b10001 &
0(
b0100 !
#380
0#
#385
b10010010100010100010000100011010 )
b11110 &
1'
b0011 !
#390
1#
b00011010 "]
b00100001 #?
0'
0M
16
1+
b00 Q
b00000000000000000000000000000000 P
b00000000000000000000000000000000 =
b00000000000000000000000000000000 ;
b00000000000000000000000000100000 D
#392
b00110110101111111100111100010100 )
b01100 &
1(
b0010 !
#399
b10110010111000100001110110111110 )
b10101 &
1'
#400
0#
1$
#406
b00110111110110001110101110100011 )
b00010 &
0'
0(
b1000 !
#410
1#
b00000000000000000000000000100100 K
1(
1M
06
0+
b01 Q
0$
b00000000000000000000000000100100 ,
b00000000000000000000000000100100 D
b00000000000000000000000000101000 :
b00000000000000000000000000101000 /
b00100 &
b00000000000000000000000000101000 C
#413
b10101101110110001101100001011110 )
b11010 &
1'
b0011 !
#420
b11111000010011101110100001110100 )
b01011 &
0'
b0010 !
0#
1$
#427
b11000001110101101101001111010001 )
b00100 &
1'
b0100 !
#430
1#
b11010001 "#
0$
b00000000000000001011010100000000 "
0'
0(
0M
16
1+
b00 Q
b00000000000000001011010100000000 O
#434
b01001001000001100001011100111100 )
b01010 &
1'
1(
b0001 !
#440
0#
1$
#441
b00110011000001001000111101100101 )
b01111 &
0'
0(
b0100 !
#448
b11010001011100011001000110111101 )
b00000 &
1(
b1111 !
#450
1#
b00000000000000000000000000101000 K
1M
06
0+
b01 Q
b00000000000000000000000000000000 "
0$
b00000000000000000000000000000000 O
b00000000000000000000000000101000 ,
b01000 &
b00000000000000000000000000101100 /
b00000000000000000000000000101100 :
b00000000000000000000000000101000 D
b00000000000000000000000000101100 C
#455
b00101001111101110111100000001001 )
b00111 &
1'
#460
0#
1$
#462
b01001011011101100100110101100100 )
b11001 &
b1100 !
#469
b11100101000110001101000001111100 )
b01001 &
0'
0(
b0100 !
#470
1#
0$
0M
16
1+
b00 Q
#476
b01101011000011101101111111011100 )
b00111 &
1'
1(
b1100 !
#480
0#
1$
#483
b11010011101000010001010101011100 )
b11110 &
0(
b1000 !
#490
b01011010100001111101001011010011 )
b00000 &
0'
b0010 !
1#
b00000000000000000000000000101100 K
1(
1M
06
0+
b01 Q
0$
b00000000000000000000000000101100 ,
b00000000000000000000000000101100 D
b00000000000000000000000000110000 :
b00000000000000000000000000110000 /
b01100 &
b00000000000000000000000000110000 C
#497
b10110101100010110101010101111100 )
b11001 &
0(
#500
0#
#504
b11100111101100101101100110001011 )
b11011 &
b0001 !
#510
1#
0M
16
1+
b00 Q
#511
b01010111111110010101001010110000 )
b00001 &
b1000 !
#518
b10010010111110001100111010100101 )
b01000 &
b0100 !
#520
0#
#525
b10001001100101001101011101011010 )
b11011 &
1(
b1111 !
#530
1#
b00000000000000000000000000110000 K
06
0+
b00000000000000000000000000110000 ,
b10000 &
b00000000000000000000000000110100 /
b00000000000000000000000000110100 :
b00000000000000000000000000110000 D
b00000000000000000000000000110100 C
#532
b11011100000111010011011011011001 )
b00001 &
1'
0(
b0100 !
#539
b11001010001110101100111011101000 )
b00111 &
0'
b1100 !
#540
0#
#546
b10101110001001100101110100011101 )
b10010 &
1(
b0001 !
#550
1#
#553
b00001100010000111110110011110110 )
b00010 &
1'
b1111 !
#560
b01000110100111100010010001101000 )
b11000 &
0'
b1000 !
0#
1$
#567
b00100001111010000100110100110011 )
b10100 &
b0001 !
#570
1#
1M
b01 Q
b00110000110101001100010000011011 "
0$
b00110000110101001100010000011011 O
#574
b11100111101111010110101111011000 )
b00111 &
0(
b1100 !
#580
0#
#581
b11011111000110000101011001011101 )
b11011 &
1'
1(
b1000 !
#588
b00110000010001010100101000010010 )
b00111 &
b0010 !
#590
1#
b00010010 #(
b00000000000000000000000000000000 "
0'
0(
0M
16
1+
b00 Q
b00110000110101001100010000011011 P
b00110000110101001100010000011011 =
b00000000000000000000000000000000 O
b00110000110101001100010000011011 ;
b00110000110101001100010001001011 D
#595
b10001010000011000110101010101111 )
b00001 &
1'
#600
0#
1$
#602
b10010000011111001010100101101110 )
b01101 &
0'
#609
b11010111011100000110011010011000 )
b10000 &
1'
1(
#610
1#
b00000000000000000000000000110100 K
0'
1M
06
0+
b01 Q
b00000000000000000000000001111110 "
0$
b10011000 #1
b00000000000000000000000001111110 O
b00000000000000000000000000110100 ,
b00110000110101001100010001001111 D
b00000000000000000000000000111000 :
b00000000000000000000000000111000 /
b10100 &
b00000000000000000000000000111000 C
#616
b01010101100111000101111110010110 )
b11100 &
0(
b1100 !
#620
0#
#623
b11111111111101110111101001100101 )
b01010 &
b1111 !
#630
b00010011111111111111010000010000 )
b00000 &
1(
1#
b00000000000000000000000000000000 "
0(
0M
16
1+
b00 Q
b00000000000000000000000001111110 P
b00000000000000000000000001111110 =
b00000000000000000000000000000000 O
b00000000000000000000000001111110 ;
b00000000000000000000000010110010 D
#637
b10100010110001111011011010101110 )
b11011 &
1(
b0100 !
#640
0#
1$
