Simulaciones/testAdders.vcd
$date
    Thu Nov  3 06:15:16 2016
$end
$version
    MyHDL 1.0dev
$end
$timescale
    1ns
$end

$scope module Adders $end
$var reg 32 ! dataout $end
$var reg 32 " datain $end
$scope module dut $end
$var reg 32 ! dataout $end
$var reg 32 " datain $end
$upscope $end
$upscope $end

$enddefinitions $end
$dumpvars
b00000000000000000000000000000000 !
b00000000000000000000000000000000 "
$end
b00000000000000000000000000000100 !
#7
b00000000000000000000000001101010 "
b00000000000000000000000001101110 !
#14
b00000000000000000000000000111101 "
b00000000000000000000000001000001 !
#21
b00000000000000000000000000000101 "
b00000000000000000000000000001001 !
#28
b00000000000000000000000000101100 "
b00000000000000000000000000110000 !
#35
b00000000000000000000000011011010 "
b00000000000000000000000011011110 !
#42
b00000000000000000000000001001100 "
b00000000000000000000000001010000 !
#49
b00000000000000000000000000110101 "
b00000000000000000000000000111001 !
#56
b00000000000000000000000010010110 "
b00000000000000000000000010011010 !
#63
b00000000000000000000000010111000 "
b00000000000000000000000010111100 !
#70
b00000000000000000000000010100001 "
b00000000000000000000000010100101 !
#77
b00000000000000000000000000111000 "
b00000000000000000000000000111100 !
#84
b00000000000000000000000001011110 "
b00000000000000000000000001100010 !
#91
b00000000000000000000000011000101 "
b00000000000000000000000011001001 !
#98
b00000000000000000000000001110001 "
b00000000000000000000000001110101 !
#105
b00000000000000000000000001001010 "
b00000000000000000000000001001110 !
#112
b00000000000000000000000010110110 "
b00000000000000000000000010111010 !
#119
b00000000000000000000000011101111 "
b00000000000000000000000011110011 !
#126
b00000000000000000000000001011110 "
b00000000000000000000000001100010 !
#133
b00000000000000000000000011101010 "
b00000000000000000000000011101110 !
#140
b00000000000000000000000000100000 "
b00000000000000000000000000100100 !
#147
b00000000000000000000000000100010 "
b00000000000000000000000000100110 !
#154
b00000000000000000000000011000111 "
b00000000000000000000000011001011 !
#161
b00000000000000000000000010001011 "
b00000000000000000000000010001111 !
#168
b00000000000000000000000010100011 "
b00000000000000000000000010100111 !
#175
b00000000000000000000000010010000 "
b00000000000000000000000010010100 !
#182
b00000000000000000000000010011010 "
b00000000000000000000000010011110 !
#189
b00000000000000000000000011010111 "
b00000000000000000000000011011011 !
#196
b00000000000000000000000001111000 "
b00000000000000000000000001111100 !
#203
b00000000000000000000000000010100 "
b00000000000000000000000000011000 !
#210
b00000000000000000000000001001010 "
b00000000000000000000000001001110 !
#217
b00000000000000000000000011110010 "
b00000000000000000000000011110110 !
#224
b00000000000000000000000011011110 "
b00000000000000000000000011100010 !
#231
b00000000000000000000000010011111 "
b00000000000000000000000010100011 !
#238
b00000000000000000000000010100000 "
b00000000000000000000000010100100 !
#245
b00000000000000000000000001111111 "
b00000000000000000000000010000011 !
#252
b00000000000000000000000011101100 "
b00000000000000000000000011110000 !
#259
b00000000000000000000000000111011 "
b00000000000000000000000000111111 !
#266
b00000000000000000000000000000111 "
b00000000000000000000000000001011 !
#273
b00000000000000000000000011001000 "
b00000000000000000000000011001100 !
#280
b00000000000000000000000000100010 "
b00000000000000000000000000100110 !
#287
b00000000000000000000000011001101 "
b00000000000000000000000011010001 !
#294
b00000000000000000000000011011101 "
b00000000000000000000000011100001 !
#301
b00000000000000000000000011111100 "
b00000000000000000000000100000000 !
#308
b00000000000000000000000000101001 "
b00000000000000000000000000101101 !
#315
b00000000000000000000000011010111 "
b00000000000000000000000011011011 !
#322
b00000000000000000000000001111011 "
b00000000000000000000000001111111 !
#329
b00000000000000000000000000111111 "
b00000000000000000000000001000011 !
#336
b00000000000000000000000010101100 "
b00000000000000000000000010110000 !
#343
b00000000000000000000000001111011 "
b00000000000000000000000001111111 !
#350
b00000000000000000000000010000111 "
b00000000000000000000000010001011 !
#357
b00000000000000000000000011110001 "
b00000000000000000000000011110101 !
#364
b00000000000000000000000000110100 "
b00000000000000000000000000111000 !
#371
b00000000000000000000000010110101 "
b00000000000000000000000010111001 !
#378
b00000000000000000000000000111000 "
b00000000000000000000000000111100 !
#385
b00000000000000000000000011110001 "
b00000000000000000000000011110101 !
#392
b00000000000000000000000000001111 "
b00000000000000000000000000010011 !
#399
b00000000000000000000000010101001 "
b00000000000000000000000010101101 !
#406
b00000000000000000000000010001010 "
b00000000000000000000000010001110 !
#413
b00000000000000000000000011111011 "
b00000000000000000000000011111111 !
#420
b00000000000000000000000011000100 "
b00000000000000000000000011001000 !
#427
b00000000000000000000000011010000 "
b00000000000000000000000011010100 !
#434
b00000000000000000000000000000111 "
b00000000000000000000000000001011 !
#441
b00000000000000000000000011011100 "
b00000000000000000000000011100000 !
#448
b00000000000000000000000000110100 "
b00000000000000000000000000111000 !
#455
b00000000000000000000000011111110 "
b00000000000000000000000100000010 !
#462
b00000000000000000000000001101101 "
b00000000000000000000000001110001 !
#469
b00000000000000000000000000000100 "
b00000000000000000000000000001000 !
#476
b00000000000000000000000010011000 "
b00000000000000000000000010011100 !
#483
b00000000000000000000000011101000 "
b00000000000000000000000011101100 !
#490
b00000000000000000000000011111101 "
b00000000000000000000000100000001 !
#497
b00000000000000000000000010110000 "
b00000000000000000000000010110100 !
