Simulaciones/testControlUnit.vcd
$date
    Mon Nov 28 17:20:43 2016
$end
$version
    MyHDL 1.0dev
$end
$timescale
    1ns
$end

$scope module tbCtrl $end
$var reg 1 ! branch $end
$var reg 1 " ALUsrc $end
$var reg 3 # RegDest $end
$var reg 1 $ Sel_Mux $end
$var reg 7 % OPcode $end
$var reg 1 & PCsrc $end
$var reg 7 ' funct7 $end
$var reg 4 ( ALUop $end
$var reg 1 ) RegWrite $end
$var reg 1 * x $end
$var reg 3 + funct3 $end
$var reg 3 , DWidth $end
$var reg 4 - cont $end
$scope module dut $end
$var reg 1 ! branch $end
$var reg 1 " ALUsrc $end
$var reg 3 # RegDest $end
$var reg 3 + funct3 $end
$var reg 1 $ Sel_Mux $end
$var reg 7 % OPcode $end
$var reg 3 , DWidth $end
$var reg 7 ' funct7 $end
$var reg 4 ( ALUop $end
$var reg 1 & PCsrc $end
$var reg 1 ) RegWrite $end
$upscope $end
$upscope $end

$enddefinitions $end
$dumpvars
b0 !
b0 "
b000 #
b0 $
b0000000 %
b0 &
b0000000 '
b0000 (
b0 )
b0 *
b000 +
b000 ,
b0000 -
$end
b100 #
b101 ,
b1 &
#10
b0110011 %
b0100000 '
b101 +
b0001 -
b1 )
b0111 (
#20
b0010011 %
b0000000 '
b0010 -
b1 "
b0101 (
#30
b1100111 %
b0011 -
b0 )
b0 "
b0000 (
#40
b0000011 %
b0100 -
b1 )
b011 #
b1 "
b100 ,
#50
b0100011 %
b010 +
b0101 -
b0 )
b010 ,
#60
b1 *
b1100011 %
b111 +
b1 !
b0110 -
b100 #
b0 "
b1111 (
b101 ,
b1 $
#70
b0 *
b0110111 %
b0111 -
b1 )
b010 #
b0000 (
b0 $
#80
b0010111 %
b1000 -
b001 #
#90
b1101111 %
b1001 -
b000 #
b1 $
#100
b1010 -
#110
b1011 -
#120
b1100 -
#130
b1101 -
#140
b1110 -
#150
b1111 -
#160
b0000 -
#170
b0110011 %
b0100000 '
b101 +
b0001 -
b100 #
b0111 (
b0 $
#180
b0010011 %
b0000000 '
b0010 -
b1 "
b0101 (
#190
b1100111 %
b0011 -
b0 )
b0 "
b0000 (
#200
b0000011 %
b0100 -
b1 )
b011 #
b1 "
b100 ,
#210
b0100011 %
b010 +
b0101 -
b0 )
b010 ,
#220
b1 *
b1100011 %
b111 +
b0110 -
b100 #
b0 "
b1111 (
b101 ,
b1 $
#230
b0 *
b0110111 %
b0111 -
b1 )
b010 #
b0000 (
b0 $
#240
b0010111 %
b1000 -
b001 #
#250
b1101111 %
b1001 -
b000 #
b1 $
#260
b1010 -
#270
b1011 -
#280
b1100 -
#290
b1101 -
#300
b1110 -
#310
b1111 -
#320
b0000 -
#330
b0110011 %
b0100000 '
b101 +
b0001 -
b100 #
b0111 (
b0 $
#340
b0010011 %
b0000000 '
b0010 -
b1 "
b0101 (
#350
b1100111 %
b0011 -
b0 )
b0 "
b0000 (
#360
b0000011 %
b0100 -
b1 )
b011 #
b1 "
b100 ,
#370
b0100011 %
b010 +
b0101 -
b0 )
b010 ,
#380
b1 *
b1100011 %
b111 +
b0110 -
b100 #
b0 "
b1111 (
b101 ,
b1 $
#390
b0 *
b0110111 %
b0111 -
b1 )
b010 #
b0000 (
b0 $
#400
b0010111 %
b1000 -
b001 #
#410
b1101111 %
b1001 -
b000 #
b1 $
#420
b1010 -
#430
b1011 -
#440
b1100 -
#450
b1101 -
#460
b1110 -
#470
b1111 -
#480
b0000 -
#490
b0110011 %
b0100000 '
b101 +
b0001 -
b100 #
b0111 (
b0 $
#500
b0010011 %
b0000000 '
b0010 -
b1 "
b0101 (
#510
b1100111 %
b0011 -
b0 )
b0 "
b0000 (
#520
b0000011 %
b0100 -
b1 )
b011 #
b1 "
b100 ,
#530
b0100011 %
b010 +
b0101 -
b0 )
b010 ,
#540
b1 *
b1100011 %
b111 +
b0110 -
b100 #
b0 "
b1111 (
b101 ,
b1 $
#550
b0 *
b0110111 %
b0111 -
b1 )
b010 #
b0000 (
b0 $
#560
b0010111 %
b1000 -
b001 #
#570
b1101111 %
b1001 -
b000 #
b1 $
#580
b1010 -
#590
b1011 -
#600
b1100 -
#610
b1101 -
#620
b1110 -
#630
b1111 -
#640
b0000 -
#650
b0110011 %
b0100000 '
b101 +
b0001 -
b100 #
b0111 (
b0 $
#660
b0010011 %
b0000000 '
b0010 -
b1 "
b0101 (
#670
b1100111 %
b0011 -
b0 )
b0 "
b0000 (
#680
b0000011 %
b0100 -
b1 )
b011 #
b1 "
b100 ,
#690
b0100011 %
b010 +
b0101 -
b0 )
b010 ,
#700
b1 *
b1100011 %
b111 +
b0110 -
b100 #
b0 "
b1111 (
b101 ,
b1 $
#710
b0 *
b0110111 %
b0111 -
b1 )
b010 #
b0000 (
b0 $
#720
b0010111 %
b1000 -
b001 #
#730
b1101111 %
b1001 -
b000 #
b1 $
#740
b1010 -
#750
b1011 -
#760
b1100 -
#770
b1101 -
#780
b1110 -
#790
b1111 -
#800
b0000 -
#810
b0110011 %
b0100000 '
b101 +
b0001 -
b100 #
b0111 (
b0 $
#820
b0010011 %
b0000000 '
b0010 -
b1 "
b0101 (
#830
b1100111 %
b0011 -
b0 )
b0 "
b0000 (
#840
b0000011 %
b0100 -
b1 )
b011 #
b1 "
b100 ,
#850
b0100011 %
b010 +
b0101 -
b0 )
b010 ,
#860
b1 *
b1100011 %
b111 +
b0110 -
b100 #
b0 "
b1111 (
b101 ,
b1 $
#870
b0 *
b0110111 %
b0111 -
b1 )
b010 #
b0000 (
b0 $
#880
b0010111 %
b1000 -
b001 #
#890
b1101111 %
b1001 -
b000 #
b1 $
#900
b1010 -
#910
b1011 -
#920
b1100 -
#930
b1101 -
#940
b1110 -
#950
b1111 -
#960
b0000 -
#970
b0110011 %
b0100000 '
b101 +
b0001 -
b100 #
b0111 (
b0 $
#980
b0010011 %
b0000000 '
b0010 -
b1 "
b0101 (
#990
b1100111 %
b0011 -
b0 )
b0 "
b0000 (
#1000
b0000011 %
b0100 -
b1 )
b011 #
b1 "
b100 ,
