Simulaciones/testPC.vcd
$date
    Fri Nov 18 19:18:59 2016
$end
$version
    MyHDL 1.0dev
$end
$timescale
    1ns
$end

$scope module testPC $end
$var reg 32 ! datain $end
$var reg 1 " enable $end
$var reg 32 # register $end
$var reg 1 $ clk $end
$var reg 32 % dataout $end
$scope module dut $end
$var reg 32 ! datain $end
$var reg 1 " enable $end
$var reg 32 & register $end
$var reg 1 $ clk $end
$var reg 32 % dataout $end
$upscope $end
$upscope $end

$enddefinitions $end
$dumpvars
b00000000000000000000000000000000 !
0"
b00000000000000000000000000000000 #
0$
b00000000000000000000000000000000 %
b00000000000000000000000000000000 &
$end
b10010101100111001010110101110000 !
1$
#7
0$
#14
b10100010101101111000010110010101 !
1"
1$
b10100010101101111000010110010101 &
b10100010101101111000010110010101 %
#21
0$
#28
b01100001100110111011000011111010 !
1$
b01100001100110111011000011111010 &
b01100001100110111011000011111010 %
#35
0$
#42
b00100100111001011101110001100000 !
1$
b00100100111001011101110001100000 &
b00100100111001011101110001100000 %
#49
0$
#56
b10111001100001101111010110101001 !
0"
1$
#63
0$
#70
b01100100110110001011110011000011 !
1$
#77
0$
#84
b00101111111110010011011010110110 !
1$
#91
0$
#98
b10011101011111000001001001010000 !
1"
1$
b10011101011111000001001001010000 &
b10011101011111000001001001010000 %
#105
0$
#112
b01001000011110001010011110010100 !
0"
1$
#119
0$
#126
b01111010101000101110111110000011 !
1"
1$
b01111010101000101110111110000011 &
b01111010101000101110111110000011 %
#133
0$
#140
b01110001110000011111100100111100 !
0"
1$
#147
0$
#154
b01001101110011011000010110101011 !
1"
1$
b01001101110011011000010110101011 &
b01001101110011011000010110101011 %
#161
0$
#168
b10000011000001001010101110101011 !
1$
b10000011000001001010101110101011 &
b10000011000001001010101110101011 %
#175
0$
#182
b00101010000110011111001100110011 !
0"
1$
#189
0$
#196
b00011010110011000111101110010010 !
1"
1$
b00011010110011000111101110010010 &
b00011010110011000111101110010010 %
#203
0$
#210
b11011001110101101100111111100101 !
1$
b11011001110101101100111111100101 &
b11011001110101101100111111100101 %
#217
0$
#224
b11011000001001110111111111001111 !
1$
b11011000001001110111111111001111 &
b11011000001001110111111111001111 %
#231
0$
#238
b10000001110011101110100100101011 !
0"
1$
#245
0$
#252
b10011100010110101010111111011001 !
1"
1$
b10011100010110101010111111011001 &
b10011100010110101010111111011001 %
#259
0$
#266
b10010111101011001000001101011010 !
1$
b10010111101011001000001101011010 &
b10010111101011001000001101011010 %
#273
0$
#280
b11111000100000101001100000111010 !
1$
b11111000100000101001100000111010 &
b11111000100000101001100000111010 %
#287
0$
#294
b01001100000111000101110001101000 !
1$
b01001100000111000101110001101000 &
b01001100000111000101110001101000 %
#301
0$
#308
b00110001000111011101101010001111 !
1$
b00110001000111011101101010001111 &
b00110001000111011101101010001111 %
#315
0$
#322
b00001111011011000100101001010001 !
0"
1$
#329
0$
#336
b10000001111100001110010111110001 !
1$
#343
0$
#350
b10101100000101110110111011100111 !
1$
#357
0$
#364
b00111100101111010100000001010100 !
1$
#371
0$
#378
b10001110010011101101100100010010 !
1"
1$
b10001110010011101101100100010010 &
b10001110010011101101100100010010 %
#385
0$
#392
b10101000000010011011111111110011 !
1$
b10101000000010011011111111110011 &
b10101000000010011011111111110011 %
#399
0$
#406
b10000011111011100010000001000101 !
0"
1$
#413
0$
#420
b11001001011011111110001000000100 !
1"
1$
b11001001011011111110001000000100 &
b11001001011011111110001000000100 %
#427
0$
#434
b10100110110101111011000100100111 !
0"
1$
