Simulaciones/testBHW.vcd
$date
    Mon Nov 14 22:50:49 2016
$end
$version
    MyHDL 1.0dev
$end
$timescale
    1ns
$end

$scope module testBHW $end
$var reg 3 ! DWidth $end
$var reg 32 " Dataout $end
$var reg 2 # Dir_Data $end
$var reg 32 $ Datain $end
$var reg 3 % aux $end
$scope module dut $end
$var reg 3 ! DWidth $end
$var reg 32 " Dataout $end
$var reg 2 # Dir_Data $end
$var reg 32 $ Datain $end
$upscope $end
$upscope $end

$enddefinitions $end
$dumpvars
b000 !
b00000000000000000000000000000000 "
b00 #
b00000000000000000000000000000000 $
b000 %
$end
#5
b10000110011111101010111011100101 $
b01 #
b001 %
b11111111111111111111111110101110 "
#10
b10000110011100100000110011010101 $
b10 #
b010 %
b00000000000000000000000001110010 "
#15
b00111100101000111100011010100111 $
b11 #
b011 %
b00000000000000000000000000111100 "
#20
b00110101101101110100110100110010 $
b00 #
b000 %
b001 !
b00000000000000000100110100110010 "
#25
b11100111011000011000101011010110 $
b01 #
b001 %
b11111111111111111000101011010110 "
#30
b01001010110100111000011000110100 $
b10 #
b010 %
b00000000000000000100101011010011 "
#35
b00000110111010011001111001100010 $
b11 #
b011 %
b00000000000000000000011011101001 "
#40
b11100111001110010101010101011001 $
b00 #
b000 %
b010 !
b11100111001110010101010101011001 "
#45
b11101010000111110111000100101011 $
b01 #
b001 %
b11101010000111110111000100101011 "
#50
b10000000101110111111111000110001 $
b10 #
b010 %
b10000000101110111111111000110001 "
#55
b01001100000110100010000000000101 $
b11 #
b011 %
b01001100000110100010000000000101 "
#60
b10111000000010010101010000110100 $
b00 #
b000 %
b011 !
b00000000000000000000000000110100 "
#65
b11101001010011111110011111011011 $
b01 #
b001 %
b00000000000000000000000011100111 "
#70
b00111010011100011110111101010000 $
b10 #
b010 %
b00000000000000000000000001110001 "
#75
b10011111010110000101101001110101 $
b11 #
b011 %
b00000000000000000000000010011111 "
#80
b01100000101001001111000011100101 $
b00 #
b000 %
b100 !
b00000000000000001111000011100101 "
#85
b00101111110110111110111110001010 $
b01 #
b001 %
b00000000000000001110111110001010 "
#90
b01000110100111011101001000001011 $
b10 #
b010 %
b00000000000000000100011010011101 "
#95
b10110101100100000000111000011111 $
b11 #
b011 %
b00000000000000001011010110010000 "
#100
b10110110001101100101100101110011 $
b00 #
b000 %
b000 !
b00000000000000000000000001110011 "
#105
b11100000110100100101100001001011 $
b01 #
b001 %
b00000000000000000000000001011000 "
#110
b01111001111100110110111101110111 $
b10 #
b010 %
b11111111111111111111111111110011 "
#115
b01000101000100101111010101011100 $
b11 #
b011 %
b00000000000000000000000001000101 "
#120
b00110110001000111110110000010101 $
b00 #
b000 %
b001 !
b11111111111111111110110000010101 "
#125
b01000011101111100111010000100000 $
b01 #
b001 %
b00000000000000000111010000100000 "
#130
b00000101010001001010000111000010 $
b10 #
b010 %
b00000000000000000000010101000100 "
#135
b10010000001110010000001110011101 $
b11 #
b011 %
b11111111111111111001000000111001 "
#140
b10100100011101011000001100110001 $
b00 #
b000 %
b010 !
b10100100011101011000001100110001 "
#145
b00110111100100000010011000110111 $
b01 #
b001 %
b00110111100100000010011000110111 "
#150
b00111100100010101001100001010011 $
b10 #
b010 %
b00111100100010101001100001010011 "
#155
b00100111011001000010001011011110 $
b11 #
b011 %
b00100111011001000010001011011110 "
#160
b10011010000111111101100010110101 $
b00 #
b000 %
b011 !
b00000000000000000000000010110101 "
#165
b00001101111101010111001011101110 $
b01 #
b001 %
b00000000000000000000000001110010 "
#170
b11111100101111000100010011101101 $
b10 #
b010 %
b00000000000000000000000010111100 "
#175
b10111100001000010111000000101000 $
b11 #
b011 %
#180
b01011100111100111011010001111111 $
b00 #
b000 %
b100 !
b00000000000000001011010001111111 "
#185
b10010000011010001101101000100110 $
b01 #
b001 %
b00000000000000001101101000100110 "
#190
b11100100000010011111110101000000 $
b10 #
b010 %
b00000000000000001110010000001001 "
#195
b11110001011010101111000111001001 $
b11 #
b011 %
b00000000000000001111000101101010 "
#200
b11000110010001100100011101001111 $
b00 #
b000 %
b000 !
b00000000000000000000000001001111 "
#205
b01011001110000110111110110001000 $
b01 #
b001 %
b00000000000000000000000001111101 "
#210
b00010000001110011100010100011101 $
b10 #
b010 %
b00000000000000000000000000111001 "
#215
b11011110001000110111000000110101 $
b11 #
b011 %
b11111111111111111111111111011110 "
#220
b10101001000001110110010111011110 $
b00 #
b000 %
b001 !
b00000000000000000110010111011110 "
#225
b00001100001011011100101110001101 $
b01 #
b001 %
b11111111111111111100101110001101 "
#230
b01100010100000100000000010000011 $
b10 #
b010 %
b00000000000000000110001010000010 "
#235
b10011001001101100011010111010110 $
b11 #
b011 %
b11111111111111111001100100110110 "
#240
b00010100000011111011010111000010 $
b00 #
b000 %
b010 !
b00010100000011111011010111000010 "
#245
b01011100011111010111010010000110 $
b01 #
b001 %
b01011100011111010111010010000110 "
#250
b01001001111010001010100110000000 $
b10 #
b010 %
b01001001111010001010100110000000 "
#255
b10011010100111001000110110001000 $
b11 #
b011 %
b10011010100111001000110110001000 "
#260
b11101101101011100110101110001101 $
b00 #
b000 %
b011 !
b00000000000000000000000010001101 "
#265
b10110011001011111000100101111101 $
b01 #
b001 %
b00000000000000000000000010001001 "
#270
b11011001010111110111111111001110 $
b10 #
b010 %
b00000000000000000000000001011111 "
#275
b10010111110001100101111001101000 $
b11 #
b011 %
b00000000000000000000000010010111 "
#280
b01111001111011101110010001100100 $
b00 #
b000 %
b100 !
b00000000000000001110010001100100 "
#285
b11001011011110010001100001011010 $
b01 #
b001 %
b00000000000000000001100001011010 "
#290
b11100011000001010111010011011001 $
b10 #
b010 %
b00000000000000001110001100000101 "
#295
b00111110000111101100001010011010 $
b11 #
b011 %
b00000000000000000011111000011110 "
#300
b11001000110110011000100000011110 $
b00 #
b000 %
b000 !
b00000000000000000000000000011110 "
#305
b01111101010001101010100111010000 $
b01 #
b001 %
b11111111111111111111111110101001 "
#310
b00001100011110011111100011001001 $
b10 #
b010 %
b00000000000000000000000001111001 "
#315
b11001100011101010110000001100011 $
b11 #
b011 %
b11111111111111111111111111001100 "
#320
b10011111011001001101001110011010 $
b00 #
b000 %
b001 !
b11111111111111111101001110011010 "
#325
b11110100100110111000100110110111 $
b01 #
b001 %
b11111111111111111000100110110111 "
#330
b11000011100100100111010001111111 $
b10 #
b010 %
b11111111111111111100001110010010 "
#335
b01111011000101010101010000111001 $
b11 #
b011 %
b00000000000000000111101100010101 "
#340
b00010001011001110011001100100000 $
b00 #
b000 %
b010 !
b00010001011001110011001100100000 "
#345
b01000100011001111110001001000111 $
b01 #
b001 %
b01000100011001111110001001000111 "
#350
b10001001111110100011110111011110 $
b10 #
b010 %
b10001001111110100011110111011110 "
#355
b00000010000111001011100000001011 $
b11 #
b011 %
b00000010000111001011100000001011 "
#360
b10100011101100101000011100000000 $
b00 #
b000 %
b011 !
b00000000000000000000000000000000 "
#365
b00010110000111000110010000010111 $
b01 #
b001 %
b00000000000000000000000001100100 "
#370
b01111011001010010111100011000100 $
b10 #
b010 %
b00000000000000000000000000101001 "
#375
b11101010101000000010010001010001 $
b11 #
b011 %
b00000000000000000000000011101010 "
#380
b00101100000110011010110101100000 $
b00 #
b000 %
b100 !
b00000000000000001010110101100000 "
#385
b11101111001001110010001110101011 $
b01 #
b001 %
b00000000000000000010001110101011 "
#390
b11010011011010100100011010100100 $
b10 #
b010 %
b00000000000000001101001101101010 "
#395
b01010100111111010110110010100011 $
b11 #
b011 %
b00000000000000000101010011111101 "
#400
b11011001000101101010001011110000 $
b00 #
b000 %
b000 !
b11111111111111111111111111110000 "
#405
b01011101111001100001101100001101 $
b01 #
b001 %
b00000000000000000000000000011011 "
#410
b00101010001111001110100100000101 $
b10 #
b010 %
b00000000000000000000000000111100 "
#415
b11000100001100110001001010101110 $
b11 #
b011 %
b11111111111111111111111111000100 "
#420
b11101011010011010001010110010010 $
b00 #
b000 %
b001 !
b00000000000000000001010110010010 "
#425
b11000100101000100011100101101100 $
b01 #
b001 %
b00000000000000000011100101101100 "
#430
b10001000100101011100011000101011 $
b10 #
b010 %
b11111111111111111000100010010101 "
#435
b00101111110001011000011110001011 $
b11 #
b011 %
b00000000000000000010111111000101 "
#440
b10000001110111110111000110001010 $
b00 #
b000 %
b010 !
b10000001110111110111000110001010 "
#445
b10111100111110111100101001101010 $
b01 #
b001 %
b10111100111110111100101001101010 "
#450
b11001100111011001001100001011101 $
b10 #
b010 %
b11001100111011001001100001011101 "
#455
b10101011111000101101111010001111 $
b11 #
b011 %
b10101011111000101101111010001111 "
#460
b01010000101000111101110101001000 $
b00 #
b000 %
b011 !
b00000000000000000000000001001000 "
#465
b11011101010100110101100101011010 $
b01 #
b001 %
b00000000000000000000000001011001 "
#470
b01110000000011011011100100011000 $
b10 #
b010 %
b00000000000000000000000000001101 "
#475
b01101000110001111011100010111001 $
b11 #
b011 %
b00000000000000000000000001101000 "
#480
b10000011100010111111111101101011 $
b00 #
b000 %
b100 !
b00000000000000001111111101101011 "
#485
b11010011001111100110011001100001 $
b01 #
b001 %
b00000000000000000110011001100001 "
#490
b01001001001110101011100100010110 $
b10 #
b010 %
b00000000000000000100100100111010 "
#495
b10111011110011111011111011011010 $
b11 #
b011 %
b00000000000000001011101111001111 "
#500
b01100010101001000010100011100101 $
b00 #
b000 %
b000 !
b11111111111111111111111111100101 "
