Simulaciones/testREG.vcd
$date
    Sun Nov 13 15:02:42 2016
$end
$version
    MyHDL 1.0dev
$end
$timescale
    1ns
$end

$scope module testREG $end
$var reg 32 ! read_A $end
$var reg 5 " a_addr $end
$var reg 1 # clk $end
$var reg 5 $ b_addr $end
$var reg 5 % w_addr $end
$var reg 32 & data_w $end
$var reg 32 ' read_B $end
$var reg 1 ( we $end
$scope module dut $end
$var reg 32 ! read_A $end
$var reg 5 " a_addr $end
$var reg 1 # clk $end
$var reg 5 $ b_addr $end
$var reg 5 % w_addr $end
$var reg 1 ( we $end
$var reg 32 ' read_B $end
$var reg 32 & data_w $end
$scope module regs $end
$var reg 32 ) regs(0) $end
$var reg 32 * regs(1) $end
$var reg 32 + regs(2) $end
$var reg 32 , regs(3) $end
$var reg 32 - regs(4) $end
$var reg 32 . regs(5) $end
$var reg 32 / regs(6) $end
$var reg 32 0 regs(7) $end
$var reg 32 1 regs(8) $end
$var reg 32 2 regs(9) $end
$var reg 32 3 regs(10) $end
$var reg 32 4 regs(11) $end
$var reg 32 5 regs(12) $end
$var reg 32 6 regs(13) $end
$var reg 32 7 regs(14) $end
$var reg 32 8 regs(15) $end
$var reg 32 9 regs(16) $end
$var reg 32 : regs(17) $end
$var reg 32 ; regs(18) $end
$var reg 32 < regs(19) $end
$var reg 32 = regs(20) $end
$var reg 32 > regs(21) $end
$var reg 32 ? regs(22) $end
$var reg 32 @ regs(23) $end
$var reg 32 A regs(24) $end
$var reg 32 B regs(25) $end
$var reg 32 C regs(26) $end
$var reg 32 D regs(27) $end
$var reg 32 E regs(28) $end
$var reg 32 F regs(29) $end
$var reg 32 G regs(30) $end
$var reg 32 H regs(31) $end
$upscope $end
$upscope $end
$upscope $end

$enddefinitions $end
$dumpvars
b00000000000000000000000000000000 !
b00000 "
0#
b00000 $
b00000 %
b00000000000000000000000000000000 &
b00000000000000000000000000000000 '
1(
b00000000000000000000000000000000 )
b00000000000000000000000000000000 *
b00000000000000000000000000000000 +
b00000000000000000000000000000000 ,
b00000000000000000000000000000000 -
b00000000000000000000000000000000 .
b00000000000000000000000000000000 /
b00000000000000000000000000000000 0
b00000000000000000000000000000000 1
b00000000000000000000000000000000 2
b00000000000000000000000000000000 3
b00000000000000000000000000000000 4
b00000000000000000000000000000000 5
b00000000000000000000000000000000 6
b00000000000000000000000000000000 7
b00000000000000000000000000000000 8
b00000000000000000000000000000000 9
b00000000000000000000000000000000 :
b00000000000000000000000000000000 ;
b00000000000000000000000000000000 <
b00000000000000000000000000000000 =
b00000000000000000000000000000000 >
b00000000000000000000000000000000 ?
b00000000000000000000000000000000 @
b00000000000000000000000000000000 A
b00000000000000000000000000000000 B
b00000000000000000000000000000000 C
b00000000000000000000000000000000 D
b00000000000000000000000000000000 E
b00000000000000000000000000000000 F
b00000000000000000000000000000000 G
b00000000000000000000000000000000 H
$end
b10110100000010101101111000010011 &
1#
#1
0#
#2
b00001 %
b10110110100000110111011010100111 &
1#
b10110110100000110111011010100111 *
#3
0#
#4
b00010 %
b00001000010110000000100101111010 &
1#
b00001000010110000000100101111010 +
#5
0#
#6
b00011 %
b11110001001111101111110101011100 &
1#
b11110001001111101111110101011100 ,
#7
0#
#8
b00100 %
b00000111110101111111011011100111 &
1#
b00000111110101111111011011100111 -
#9
0#
#10
b00101 %
b10111101111100000010101010100000 &
1#
b10111101111100000010101010100000 .
#11
0#
#12
b00110 %
b01111101011010111100010111111101 &
1#
b01111101011010111100010111111101 /
#13
0#
#14
b00111 %
b01110001010001001101010010100110 &
1#
b01110001010001001101010010100110 0
#15
0#
#16
b01000 %
b11101010110010010000000110101000 &
1#
b11101010110010010000000110101000 1
#17
0#
#18
b01001 %
b01010001011000001110010011010101 &
1#
b01010001011000001110010011010101 2
#19
0#
#20
b01010 %
b11001100011111000011011110000010 &
1#
b11001100011111000011011110000010 3
#21
0#
#22
b01011 %
b00001000100001000010011111010011 &
1#
b00001000100001000010011111010011 4
#23
0#
#24
b01100 %
b11011001110101100101101101000111 &
1#
b11011001110101100101101101000111 5
#25
0#
#26
b01101 %
b10100101100100000010110110001010 &
1#
b10100101100100000010110110001010 6
#27
0#
#28
b01110 %
b01101100001011001010111011010011 &
1#
b01101100001011001010111011010011 7
#29
0#
#30
b01111 %
b00111100001000011010011001001111 &
1#
b00111100001000011010011001001111 8
#31
0#
#32
b10000 %
b01001100100111010010101101100111 &
1#
b01001100100111010010101101100111 9
#33
0#
#34
b10001 %
b11110101000111010100111101110110 &
1#
b11110101000111010100111101110110 :
#35
0#
#36
b10010 %
b01001000001011100100111100010000 &
1#
b01001000001011100100111100010000 ;
#37
0#
#38
b10011 %
b01001111111011101100010010011100 &
1#
b01001111111011101100010010011100 <
#39
0#
#40
b10100 %
b11100010011110111001010100101001 &
1#
b11100010011110111001010100101001 =
#41
0#
#42
b10101 %
b10011101011010110110001001100001 &
1#
b10011101011010110110001001100001 >
#43
0#
#44
b10110 %
b00011111100001011111111101000001 &
1#
b00011111100001011111111101000001 ?
#45
0#
#46
b10111 %
b11000011000100011100000011011000 &
1#
b11000011000100011100000011011000 @
#47
0#
#48
b11000 %
b10000110100110111101111100010011 &
1#
b10000110100110111101111100010011 A
#49
0#
#50
b11001 %
b10111011000010110100001010010010 &
1#
b10111011000010110100001010010010 B
#51
0#
#52
b11010 %
b11110100111100111100011100111000 &
1#
b11110100111100111100011100111000 C
#53
0#
#54
b11011 %
b11011111101000111000101100101100 &
1#
b11011111101000111000101100101100 D
#55
0#
#56
b11100 %
b11010111010010100011101010000001 &
1#
b11010111010010100011101010000001 E
#57
0#
#58
b11101 %
b10011111111110000011100001110100 &
1#
b10011111111110000011100001110100 F
#59
0#
#60
b11110 %
b11110001100010111110110100100110 &
1#
b11110001100010111110110100100110 G
#61
0#
#62
b11111 %
b01100011001110110111001001110101 &
1#
b01100011001110110111001001110101 H
#63
0#
#64
1#
#65
0#
#66
#67
b00001 "
1#
b10110110100000110111011010100111 !
#68
0#
#69
#70
b00010 "
1#
b00001000010110000000100101111010 !
#71
0#
#72
#73
b00011 "
1#
b11110001001111101111110101011100 !
#74
0#
#75
#76
b00100 "
1#
b00000111110101111111011011100111 !
#77
0#
#78
#79
b00101 "
1#
b10111101111100000010101010100000 !
#80
0#
#81
#82
b00110 "
1#
b01111101011010111100010111111101 !
#83
0#
#84
#85
b00111 "
1#
b01110001010001001101010010100110 !
#86
0#
#87
#88
b01000 "
1#
b11101010110010010000000110101000 !
#89
0#
#90
#91
b01001 "
1#
b01010001011000001110010011010101 !
#92
0#
#93
#94
b01010 "
1#
b11001100011111000011011110000010 !
#95
0#
#96
#97
b01011 "
1#
b00001000100001000010011111010011 !
#98
0#
#99
#100
b01100 "
1#
b11011001110101100101101101000111 !
#101
0#
#102
#103
b01101 "
1#
b10100101100100000010110110001010 !
#104
0#
#105
#106
b01110 "
1#
b01101100001011001010111011010011 !
#107
0#
#108
#109
b01111 "
1#
b00111100001000011010011001001111 !
#110
0#
#111
#112
b10000 "
1#
b01001100100111010010101101100111 !
#113
0#
#114
#115
b10001 "
1#
b11110101000111010100111101110110 !
#116
0#
#117
#118
b10010 "
1#
b01001000001011100100111100010000 !
#119
0#
#120
#121
b10011 "
1#
b01001111111011101100010010011100 !
#122
0#
#123
#124
b10100 "
1#
b11100010011110111001010100101001 !
#125
0#
#126
#127
b10101 "
1#
b10011101011010110110001001100001 !
#128
0#
#129
#130
b10110 "
1#
b00011111100001011111111101000001 !
#131
0#
#132
#133
b10111 "
1#
b11000011000100011100000011011000 !
#134
0#
#135
#136
b11000 "
1#
b10000110100110111101111100010011 !
#137
0#
#138
#139
b11001 "
1#
b10111011000010110100001010010010 !
#140
0#
#141
#142
b11010 "
1#
b11110100111100111100011100111000 !
#143
0#
#144
#145
b11011 "
1#
b11011111101000111000101100101100 !
#146
0#
#147
#148
b11100 "
1#
b11010111010010100011101010000001 !
#149
0#
#150
#151
b11101 "
1#
b10011111111110000011100001110100 !
#152
0#
#153
#154
b11110 "
1#
b11110001100010111110110100100110 !
#155
0#
#156
#157
b11111 "
1#
b01100011001110110111001001110101 !
#158
0#
#159
#160
1#
#161
0#
#162
#163
b00001 $
1#
b10110110100000110111011010100111 '
#164
0#
#165
#166
b00010 $
1#
b00001000010110000000100101111010 '
#167
0#
#168
#169
b00011 $
1#
b11110001001111101111110101011100 '
#170
0#
#171
#172
b00100 $
1#
b00000111110101111111011011100111 '
#173
0#
#174
#175
b00101 $
1#
b10111101111100000010101010100000 '
#176
0#
#177
#178
b00110 $
1#
b01111101011010111100010111111101 '
#179
0#
#180
#181
b00111 $
1#
b01110001010001001101010010100110 '
#182
0#
#183
#184
b01000 $
1#
b11101010110010010000000110101000 '
#185
0#
#186
#187
b01001 $
1#
b01010001011000001110010011010101 '
#188
0#
#189
#190
b01010 $
1#
b11001100011111000011011110000010 '
#191
0#
#192
#193
b01011 $
1#
b00001000100001000010011111010011 '
#194
0#
#195
#196
b01100 $
1#
b11011001110101100101101101000111 '
#197
0#
#198
#199
b01101 $
1#
b10100101100100000010110110001010 '
#200
0#
#201
#202
b01110 $
1#
b01101100001011001010111011010011 '
#203
0#
#204
#205
b01111 $
1#
b00111100001000011010011001001111 '
#206
0#
#207
#208
b10000 $
1#
b01001100100111010010101101100111 '
#209
0#
#210
#211
b10001 $
1#
b11110101000111010100111101110110 '
#212
0#
#213
#214
b10010 $
1#
b01001000001011100100111100010000 '
#215
0#
#216
#217
b10011 $
1#
b01001111111011101100010010011100 '
#218
0#
#219
#220
b10100 $
1#
b11100010011110111001010100101001 '
#221
0#
#222
#223
b10101 $
1#
b10011101011010110110001001100001 '
#224
0#
#225
#226
b10110 $
1#
b00011111100001011111111101000001 '
#227
0#
#228
#229
b10111 $
1#
b11000011000100011100000011011000 '
#230
0#
#231
#232
b11000 $
1#
b10000110100110111101111100010011 '
#233
0#
#234
#235
b11001 $
1#
b10111011000010110100001010010010 '
#236
0#
#237
#238
b11010 $
1#
b11110100111100111100011100111000 '
#239
0#
#240
#241
b11011 $
1#
b11011111101000111000101100101100 '
#242
0#
#243
#244
b11100 $
1#
b11010111010010100011101010000001 '
#245
0#
#246
#247
b11101 $
1#
b10011111111110000011100001110100 '
#248
0#
#249
#250
b11110 $
1#
b11110001100010111110110100100110 '
#251
0#
#252
#253
b11111 $
1#
b01100011001110110111001001110101 '
