Simulaciones/testALU.vcd
$date
    Wed Nov 16 10:06:26 2016
$end
$version
    MyHDL 1.0dev
$end
$timescale
    1ns
$end

$scope module testALU $end
$var reg 32 ! inA $end
$var reg 32 " inB $end
$var reg 1 # flag $end
$var reg 32 $ out $end
$var reg 4 % ALUop $end
$scope module dut $end
$var reg 32 ! inA $end
$var reg 32 " inB $end
$var reg 1 # flag $end
$var reg 32 $ out $end
$var reg 4 % ALUop $end
$upscope $end
$upscope $end

$enddefinitions $end
$dumpvars
b00000000000000000000000000000000 !
b00000000000000000000000000000000 "
b0 #
b00000000000000000000000000000000 $
b0000 %
$end
b1 #
#5
b0001 %
#10
b0010 %
#15
b0011 %
#20
b0100 %
#25
b0101 %
#30
b0110 %
#35
b0111 %
#40
b1000 %
#45
b1001 %
#50
b1010 %
b0 #
b00000000000000000000000000000001 $
#55
b1011 %
b1 #
b00000000000000000000000000000000 $
#60
b1100 %
#65
b1101 %
#70
b1110 %
#75
b1111 %
#80
b0000 %
#85
b0001 %
#90
b0010 %
#95
b0011 %
#100
b0100 %
#105
b0101 %
#110
b0110 %
#115
b0111 %
#120
b1000 %
#125
b1001 %
#130
b1010 %
b0 #
b00000000000000000000000000000001 $
#135
b1011 %
b1 #
b00000000000000000000000000000000 $
#140
b1100 %
#145
b1101 %
#150
b1110 %
#155
b1111 %
#160
b0000 %
#165
b0001 %
#170
b0010 %
#175
b0011 %
#180
b0100 %
#185
b0101 %
#190
b0110 %
#195
b0111 %
#200
b1000 %
#205
b1001 %
#210
b1010 %
b0 #
b00000000000000000000000000000001 $
#215
b1011 %
b1 #
b00000000000000000000000000000000 $
#220
b1100 %
#225
b1101 %
#230
b1110 %
#235
b1111 %
#240
b0000 %
#245
b0001 %
#250
b0010 %
#255
b0011 %
#260
b0100 %
#265
b0101 %
#270
b0110 %
#275
b0111 %
#280
b1000 %
#285
b1001 %
#290
b1010 %
b0 #
b00000000000000000000000000000001 $
#295
b1011 %
b1 #
b00000000000000000000000000000000 $
#300
b1100 %
#305
b1101 %
#310
b1110 %
#315
b1111 %
#320
b0000 %
#325
b0001 %
#330
b0010 %
#335
b0011 %
#340
b0100 %
#345
b0101 %
#350
b0110 %
#355
b0111 %
#360
b1000 %
#365
b1001 %
#370
b1010 %
b0 #
b00000000000000000000000000000001 $
#375
b1011 %
b1 #
b00000000000000000000000000000000 $
#380
b1100 %
#385
b1101 %
#390
b1110 %
#395
b1111 %
#400
b0000 %
#405
b0001 %
#410
b0010 %
#415
b0011 %
#420
b0100 %
#425
b0101 %
#430
b0110 %
#435
b0111 %
#440
b1000 %
#445
b1001 %
#450
b1010 %
b0 #
b00000000000000000000000000000001 $
#455
b1011 %
b1 #
b00000000000000000000000000000000 $
#460
b1100 %
#465
b1101 %
#470
b1110 %
#475
b1111 %
#480
b0000 %
#485
b0001 %
#490
b0010 %
#495
b0011 %
#500
b0100 %
